{"failedCount":0,"prefixedPath":"classpath:reqresApp\/feature\/Users.feature","packageQualifiedName":"reqresApp.feature.Users","loopIndex":-1,"relativePath":"reqresApp\/feature\/Users.feature","scenarioResults":[{"sectionIndex":0,"stepResults":[{"result":{"nanos":30959,"millis":0.030959,"status":"passed"},"step":{"background":true,"line":5,"prefix":"*","index":0,"text":"url apiUrl"},"stepLog":"16:29:52.753 karate.env system property was: null \n"},{"result":{"nanos":1055000,"millis":1.055,"status":"passed"},"step":{"line":8,"prefix":"Given","index":0,"text":"params { page: 2}"}},{"result":{"nanos":144708,"millis":0.144708,"status":"passed"},"step":{"line":9,"prefix":"Given","index":1,"text":"path 'users'"}},{"result":{"nanos":49622917,"millis":49.622917,"status":"passed"},"step":{"line":10,"prefix":"When","index":2,"text":"method Get"},"stepLog":"16:29:52.756 request:\n1 > GET https:\/\/reqres.in\/api\/users?page=2\n1 > Authorization: Token QpwL5tke4Pnpja7X4\n1 > Host: reqres.in\n1 > Connection: Keep-Alive\n1 > User-Agent: Apache-HttpClient\/4.5.13 (Java\/19.0.2)\n1 > Accept-Encoding: gzip,deflate\n\n\n16:29:52.804 response time in milliseconds: 47\n1 < 200\n1 < Date: Mon, 06 Mar 2023 05:29:47 GMT\n1 < Content-Type: application\/json; charset=utf-8\n1 < Transfer-Encoding: chunked\n1 < Connection: keep-alive\n1 < X-Powered-By: Express\n1 < Access-Control-Allow-Origin: *\n1 < Etag: W\/\"406-ut0vzoCuidvyMf8arZpMpJ6ZRDw\"\n1 < Via: 1.1 vegur\n1 < Cache-Control: max-age=14400\n1 < CF-Cache-Status: HIT\n1 < Age: 222\n1 < Report-To: {\"endpoints\":[{\"url\":\"https:\\\/\\\/a.nel.cloudflare.com\\\/report\\\/v3?s=tvHCdF%2FP%2BmtXL3VTsAe%2BHkR3v0xF%2FErR9OjrAFvulwuYVolRErcJa8z3XKWESXmpCP%2FJRYOLVCD2uDbR93bwBX2I1BrqeblwwHHCtPC8emBGGdvUmox5sVxu8A%3D%3D\"}],\"group\":\"cf-nel\",\"max_age\":604800}\n1 < NEL: {\"success_fraction\":0,\"report_to\":\"cf-nel\",\"max_age\":604800}\n1 < Vary: Accept-Encoding\n1 < Server: cloudflare\n1 < CF-RAY: 7a3833fa0a19a8b2-SYD\n{\"page\":2,\"per_page\":6,\"total\":12,\"total_pages\":2,\"data\":[{\"id\":7,\"email\":\"michael.lawson@reqres.in\",\"first_name\":\"Michael\",\"last_name\":\"Lawson\",\"avatar\":\"https:\/\/reqres.in\/img\/faces\/7-image.jpg\"},{\"id\":8,\"email\":\"lindsay.ferguson@reqres.in\",\"first_name\":\"Lindsay\",\"last_name\":\"Ferguson\",\"avatar\":\"https:\/\/reqres.in\/img\/faces\/8-image.jpg\"},{\"id\":9,\"email\":\"tobias.funke@reqres.in\",\"first_name\":\"Tobias\",\"last_name\":\"Funke\",\"avatar\":\"https:\/\/reqres.in\/img\/faces\/9-image.jpg\"},{\"id\":10,\"email\":\"byron.fields@reqres.in\",\"first_name\":\"Byron\",\"last_name\":\"Fields\",\"avatar\":\"https:\/\/reqres.in\/img\/faces\/10-image.jpg\"},{\"id\":11,\"email\":\"george.edwards@reqres.in\",\"first_name\":\"George\",\"last_name\":\"Edwards\",\"avatar\":\"https:\/\/reqres.in\/img\/faces\/11-image.jpg\"},{\"id\":12,\"email\":\"rachel.howell@reqres.in\",\"first_name\":\"Rachel\",\"last_name\":\"Howell\",\"avatar\":\"https:\/\/reqres.in\/img\/faces\/12-image.jpg\"}],\"support\":{\"url\":\"https:\/\/reqres.in\/#support-heading\",\"text\":\"To keep ReqRes free, contributions towards server costs are appreciated!\"}}\n\n"},{"result":{"nanos":9250,"millis":0.00925,"status":"passed"},"step":{"line":11,"prefix":"Then","index":3,"text":"status 200"}},{"result":{"nanos":1137208,"millis":1.137208,"status":"passed"},"step":{"endLine":21,"line":12,"prefix":"And","docString":"{\n    \"id\": \"#number\",\n    \"email\": \"#string\",\n    \"first_name\": \"#string\",\n    \"last_name\": \"#string\",\n    \"avatar\": \"#string\"\n}","index":4,"text":"match each response.data =="}}],"executorName":"pool-1-thread-1","line":7,"name":"List Users","description":"","durationMillis":52.000042,"startTime":1678080592751,"failed":false,"refId":"[1:7]","endTime":1678080592805,"exampleIndex":-1},{"sectionIndex":1,"stepResults":[{"result":{"nanos":36417,"millis":0.036417,"status":"passed"},"step":{"background":true,"line":5,"prefix":"*","index":0,"text":"url apiUrl"},"stepLog":"16:29:52.754 karate.env system property was: null \n"},{"result":{"nanos":203791,"millis":0.203791,"status":"passed"},"step":{"line":24,"prefix":"Given","index":0,"text":"path 'users\/2'"}},{"result":{"nanos":591960000,"millis":591.96,"status":"passed"},"step":{"line":25,"prefix":"When","index":1,"text":"method Get"},"stepLog":"16:29:52.755 request:\n1 > GET https:\/\/reqres.in\/api\/users\/2\n1 > Authorization: Token QpwL5tke4Pnpja7X4\n1 > Host: reqres.in\n1 > Connection: Keep-Alive\n1 > User-Agent: Apache-HttpClient\/4.5.13 (Java\/19.0.2)\n1 > Accept-Encoding: gzip,deflate\n\n\n16:29:53.346 response time in milliseconds: 590\n1 < 200\n1 < Date: Mon, 06 Mar 2023 05:29:48 GMT\n1 < Content-Type: application\/json; charset=utf-8\n1 < Transfer-Encoding: chunked\n1 < Connection: keep-alive\n1 < X-Powered-By: Express\n1 < Access-Control-Allow-Origin: *\n1 < Etag: W\/\"118-pbdwwFo9SKNhD3Lx5iHJyngpq00\"\n1 < Via: 1.1 vegur\n1 < CF-Cache-Status: BYPASS\n1 < Report-To: {\"endpoints\":[{\"url\":\"https:\\\/\\\/a.nel.cloudflare.com\\\/report\\\/v3?s=gFGjBCyJfSNpjWiF1sQr9pvLSwz%2BqxaMvF7MFX75%2FmYl%2BhI4lf3C75E6U6Nlx1LWMEFcNcrHgYqsauKRqYehqbqCqQ8S5trKohsnhaqW9mWT9lhPD66dauCvWg%3D%3D\"}],\"group\":\"cf-nel\",\"max_age\":604800}\n1 < NEL: {\"success_fraction\":0,\"report_to\":\"cf-nel\",\"max_age\":604800}\n1 < Vary: Accept-Encoding\n1 < Server: cloudflare\n1 < CF-RAY: 7a3833fa0dc7a819-SYD\n{\"data\":{\"id\":2,\"email\":\"janet.weaver@reqres.in\",\"first_name\":\"Janet\",\"last_name\":\"Weaver\",\"avatar\":\"https:\/\/reqres.in\/img\/faces\/2-image.jpg\"},\"support\":{\"url\":\"https:\/\/reqres.in\/#support-heading\",\"text\":\"To keep ReqRes free, contributions towards server costs are appreciated!\"}}\n\n"},{"result":{"nanos":12542,"millis":0.012542,"status":"passed"},"step":{"line":26,"prefix":"Then","index":2,"text":"status 200"}},{"result":{"nanos":242791,"millis":0.242791,"status":"passed"},"step":{"endLine":42,"line":27,"prefix":"And","docString":"{\n    \"data\": {\n        \"id\": \"#number\",\n        \"email\": \"#string\",\n        \"first_name\": \"#string\",\n        \"last_name\": \"#string\",\n        \"avatar\": \"#string\"\n    },\n    \"support\": {\n        \"url\": \"#string\",\n        \"text\": \"#string\"\n    }\n}","index":3,"text":"match response =="}}],"executorName":"pool-1-thread-5","line":23,"name":"List a Single User","description":"","durationMillis":592.455541,"startTime":1678080592753,"failed":false,"refId":"[2:23]","endTime":1678080593347,"exampleIndex":-1},{"sectionIndex":2,"stepResults":[{"result":{"nanos":38375,"millis":0.038375,"status":"passed"},"step":{"background":true,"line":5,"prefix":"*","index":0,"text":"url apiUrl"},"stepLog":"16:29:52.807 karate.env system property was: null \n"},{"result":{"nanos":219042,"millis":0.219042,"status":"passed"},"step":{"line":46,"prefix":"Given","index":0,"text":"path 'users\/23'"}},{"result":{"nanos":599973792,"millis":599.973792,"status":"passed"},"step":{"line":47,"prefix":"When","index":1,"text":"method Get"},"stepLog":"16:29:52.809 request:\n1 > GET https:\/\/reqres.in\/api\/users\/23\n1 > Authorization: Token QpwL5tke4Pnpja7X4\n1 > Host: reqres.in\n1 > Connection: Keep-Alive\n1 > User-Agent: Apache-HttpClient\/4.5.13 (Java\/19.0.2)\n1 > Accept-Encoding: gzip,deflate\n\n\n16:29:53.408 response time in milliseconds: 598\n1 < 404\n1 < Date: Mon, 06 Mar 2023 05:29:48 GMT\n1 < Content-Type: application\/json; charset=utf-8\n1 < Content-Length: 2\n1 < Connection: keep-alive\n1 < X-Powered-By: Express\n1 < Access-Control-Allow-Origin: *\n1 < Etag: W\/\"2-vyGp6PvFo4RvsFtPoIWeCReyIC8\"\n1 < Via: 1.1 vegur\n1 < CF-Cache-Status: BYPASS\n1 < Report-To: {\"endpoints\":[{\"url\":\"https:\\\/\\\/a.nel.cloudflare.com\\\/report\\\/v3?s=919jyU5qBXFCWE%2BON5af%2F10XJimnQv%2Ffjj5oeTXWxJHKdPaNc190JfICCay2qDWvE6RnBnz%2ByABXb0NACHhERGtji5dhtXiKoPJYJ0F6EYH%2FiRM%2B%2Bt%2FFswAndA%3D%3D\"}],\"group\":\"cf-nel\",\"max_age\":604800}\n1 < NEL: {\"success_fraction\":0,\"report_to\":\"cf-nel\",\"max_age\":604800}\n1 < Vary: Accept-Encoding\n1 < Server: cloudflare\n1 < CF-RAY: 7a3833fa7979a826-SYD\n{}\n\n"},{"result":{"nanos":10125,"millis":0.010125,"status":"passed"},"step":{"line":48,"prefix":"Then","index":2,"text":"status 404"}}],"executorName":"pool-1-thread-1","line":45,"name":"List a Non-exisitng User","description":"","durationMillis":600.241334,"startTime":1678080592807,"failed":false,"refId":"[3:45]","endTime":1678080593408,"exampleIndex":-1},{"sectionIndex":3,"stepResults":[{"result":{"nanos":36667,"millis":0.036667,"status":"passed"},"step":{"background":true,"line":5,"prefix":"*","index":0,"text":"url apiUrl"},"stepLog":"16:29:53.350 karate.env system property was: null \n"},{"result":{"nanos":79958,"millis":0.079958,"status":"passed"},"step":{"line":52,"prefix":"Given","index":0,"text":"def userData = {\"name\": \"morpheus\", \"job\": \"leader\"}"}},{"result":{"nanos":4850084,"millis":4.850084,"status":"passed"},"step":{"line":53,"prefix":"*","index":1,"text":"def timeValidator = read('classpath:helpers\/timeValidator.js')"}},{"result":{"nanos":175750,"millis":0.17575,"status":"passed"},"step":{"line":54,"prefix":"Given","index":2,"text":"path 'users'"}},{"result":{"nanos":62209,"millis":0.062209,"status":"passed"},"step":{"endLine":61,"line":55,"prefix":"And","docString":"{\n    \"name\": \"morpheus\",\n    \"job\": \"leader\"\n}","index":3,"text":"request"}},{"result":{"nanos":843109375,"millis":843.109375,"status":"passed"},"step":{"line":62,"prefix":"When","index":4,"text":"method Post"},"stepLog":"16:29:53.357 request:\n1 > POST https:\/\/reqres.in\/api\/users\n1 > Authorization: Token QpwL5tke4Pnpja7X4\n1 > Content-Type: application\/json; charset=UTF-8\n1 > Content-Length: 34\n1 > Host: reqres.in\n1 > Connection: Keep-Alive\n1 > User-Agent: Apache-HttpClient\/4.5.13 (Java\/19.0.2)\n1 > Accept-Encoding: gzip,deflate\n{\"name\":\"morpheus\",\"job\":\"leader\"}\n\n16:29:54.199 response time in milliseconds: 842\n1 < 201\n1 < Date: Mon, 06 Mar 2023 05:29:49 GMT\n1 < Content-Type: application\/json; charset=utf-8\n1 < Content-Length: 84\n1 < Connection: keep-alive\n1 < X-Powered-By: Express\n1 < Access-Control-Allow-Origin: *\n1 < Etag: W\/\"54-FFJHd6GvdRM+2i+jSHbCsuELmt8\"\n1 < Via: 1.1 vegur\n1 < CF-Cache-Status: DYNAMIC\n1 < Report-To: {\"endpoints\":[{\"url\":\"https:\\\/\\\/a.nel.cloudflare.com\\\/report\\\/v3?s=oHZf62lAYZJcih6%2B6J0succD%2FzJR229n%2FUqjYO8h8CIp0nilQ%2BAPpcyioq29d10F5nzzzrXHVdSIQYfIxgGOAC4S5PM%2BB5D5UVE6Uxttl3lQaXH9BG6CxFcRxQ%3D%3D\"}],\"group\":\"cf-nel\",\"max_age\":604800}\n1 < NEL: {\"success_fraction\":0,\"report_to\":\"cf-nel\",\"max_age\":604800}\n1 < Server: cloudflare\n1 < CF-RAY: 7a3833fdc955551b-SYD\n{\"name\":\"morpheus\",\"job\":\"leader\",\"id\":\"566\",\"createdAt\":\"2023-03-06T05:29:49.112Z\"}\n\n"},{"result":{"nanos":12459,"millis":0.012459,"status":"passed"},"step":{"line":63,"prefix":"Then","index":5,"text":"status 201"}},{"result":{"nanos":6513250,"millis":6.51325,"status":"passed"},"step":{"endLine":72,"line":64,"prefix":"And","docString":"{\n    \"name\": \"#string\",\n    \"job\": \"#string\",\n    \"id\": \"#string\",\n    \"createdAt\": \"#? timeValidator(_)\"\n}","index":6,"text":"match response =="}}],"executorName":"pool-1-thread-5","line":51,"name":"Create a User","description":"","durationMillis":854.839752,"startTime":1678080593348,"failed":false,"refId":"[4:51]","endTime":1678080594206,"exampleIndex":-1},{"sectionIndex":4,"stepResults":[{"result":{"nanos":36083,"millis":0.036083,"status":"passed"},"step":{"background":true,"line":5,"prefix":"*","index":0,"text":"url apiUrl"},"stepLog":"16:29:53.351 karate.env system property was: null \n"},{"result":{"nanos":98875,"millis":0.098875,"status":"passed"},"step":{"line":76,"prefix":"Given","index":0,"text":"def userData = {\"name\": \"morpheus\", \"job\": \"zion resident\"}"}},{"result":{"nanos":149625,"millis":0.149625,"status":"passed"},"step":{"line":77,"prefix":"Given","index":1,"text":"path 'users\/2'"}},{"result":{"nanos":35209,"millis":0.035209,"status":"passed"},"step":{"endLine":84,"line":78,"prefix":"And","docString":"{\n    \"name\": \"morpheus\",\n    \"job\": \"zion resident\"\n}","index":2,"text":"request"}},{"result":{"nanos":594206708,"millis":594.206708,"status":"passed"},"step":{"line":85,"prefix":"When","index":3,"text":"method Put"},"stepLog":"16:29:53.352 request:\n1 > PUT https:\/\/reqres.in\/api\/users\/2\n1 > Authorization: Token QpwL5tke4Pnpja7X4\n1 > Content-Type: application\/json; charset=UTF-8\n1 > Content-Length: 41\n1 > Host: reqres.in\n1 > Connection: Keep-Alive\n1 > User-Agent: Apache-HttpClient\/4.5.13 (Java\/19.0.2)\n1 > Accept-Encoding: gzip,deflate\n{\"name\":\"morpheus\",\"job\":\"zion resident\"}\n\n16:29:53.945 response time in milliseconds: 592\n1 < 200\n1 < Date: Mon, 06 Mar 2023 05:29:48 GMT\n1 < Content-Type: application\/json; charset=utf-8\n1 < Transfer-Encoding: chunked\n1 < Connection: keep-alive\n1 < X-Powered-By: Express\n1 < Access-Control-Allow-Origin: *\n1 < Etag: W\/\"50-93ukSF1bBb3AD4LmTw5cMT\/E04U\"\n1 < Via: 1.1 vegur\n1 < CF-Cache-Status: DYNAMIC\n1 < Report-To: {\"endpoints\":[{\"url\":\"https:\\\/\\\/a.nel.cloudflare.com\\\/report\\\/v3?s=MIFTE1OgXWqMtva10b9fWUFJoccjpj6LnmZoC21z7htlqjvQqMaiz01cx0GDXPU1rI6CKd5U16qpG4u1qDy6bbsiJLSWwFkf%2B0b8AWMAIHvFdwX5%2BkH7Sa40cA%3D%3D\"}],\"group\":\"cf-nel\",\"max_age\":604800}\n1 < NEL: {\"success_fraction\":0,\"report_to\":\"cf-nel\",\"max_age\":604800}\n1 < Vary: Accept-Encoding\n1 < Server: cloudflare\n1 < CF-RAY: 7a3833fdbc95a94a-SYD\n{\"name\":\"morpheus\",\"job\":\"zion resident\",\"updatedAt\":\"2023-03-06T05:29:48.849Z\"}\n\n"},{"result":{"nanos":25875,"millis":0.025875,"status":"passed"},"step":{"line":86,"prefix":"Then","index":4,"text":"status 200"}},{"result":{"nanos":1622291,"millis":1.622291,"status":"passed"},"step":{"line":87,"prefix":"And","index":5,"text":"match response.job == userData.job"}}],"executorName":"pool-1-thread-3","line":75,"name":"Update a User's info using Put","description":"","durationMillis":596.174666,"startTime":1678080593348,"failed":false,"refId":"[5:75]","endTime":1678080593948,"exampleIndex":-1},{"sectionIndex":5,"stepResults":[{"result":{"nanos":46500,"millis":0.0465,"status":"passed"},"step":{"background":true,"line":5,"prefix":"*","index":0,"text":"url apiUrl"},"stepLog":"16:29:53.410 karate.env system property was: null \n"},{"result":{"nanos":77000,"millis":0.077,"status":"passed"},"step":{"line":91,"prefix":"Given","index":0,"text":"def userData = {\"name\": \"morpheus\", \"job\": \"zion resident\"}"}},{"result":{"nanos":287375,"millis":0.287375,"status":"passed"},"step":{"line":92,"prefix":"Given","index":1,"text":"path 'users\/2'"}},{"result":{"nanos":35125,"millis":0.035125,"status":"passed"},"step":{"endLine":99,"line":93,"prefix":"And","docString":"{\n    \"name\": \"morpheus\",\n    \"job\": \"zion resident\"\n}","index":2,"text":"request"}},{"result":{"nanos":573579250,"millis":573.57925,"status":"passed"},"step":{"line":100,"prefix":"When","index":3,"text":"method Patch"},"stepLog":"16:29:53.412 request:\n1 > PATCH https:\/\/reqres.in\/api\/users\/2\n1 > Authorization: Token QpwL5tke4Pnpja7X4\n1 > Content-Type: application\/json; charset=UTF-8\n1 > Content-Length: 41\n1 > Host: reqres.in\n1 > Connection: Keep-Alive\n1 > User-Agent: Apache-HttpClient\/4.5.13 (Java\/19.0.2)\n1 > Accept-Encoding: gzip,deflate\n{\"name\":\"morpheus\",\"job\":\"zion resident\"}\n\n16:29:53.985 response time in milliseconds: 572\n1 < 200\n1 < Date: Mon, 06 Mar 2023 05:29:49 GMT\n1 < Content-Type: application\/json; charset=utf-8\n1 < Transfer-Encoding: chunked\n1 < Connection: keep-alive\n1 < X-Powered-By: Express\n1 < Access-Control-Allow-Origin: *\n1 < Etag: W\/\"50-lBYUvZ1Sh+xAio0XYl321jtJ+hk\"\n1 < Via: 1.1 vegur\n1 < CF-Cache-Status: DYNAMIC\n1 < Report-To: {\"endpoints\":[{\"url\":\"https:\\\/\\\/a.nel.cloudflare.com\\\/report\\\/v3?s=kU51PCVBYfn%2F4Y2P%2BQSe%2FQbDfu%2FwAbsW%2B%2BWDWHdmle7G6OpqGoGCFoqG2Do1oKaObwGqq7IMAXDwSIMmP%2BRLPULhPgbJoQvsMupBQ39hVgwh1uTRveWDpnmJ9w%3D%3D\"}],\"group\":\"cf-nel\",\"max_age\":604800}\n1 < NEL: {\"success_fraction\":0,\"report_to\":\"cf-nel\",\"max_age\":604800}\n1 < Server: cloudflare\n1 < CF-RAY: 7a3833fe1c21a813-SYD\n{\"name\":\"morpheus\",\"job\":\"zion resident\",\"updatedAt\":\"2023-03-06T05:29:48.900Z\"}\n\n"},{"result":{"nanos":11333,"millis":0.011333,"status":"passed"},"step":{"line":101,"prefix":"Then","index":4,"text":"status 200"}},{"result":{"nanos":502333,"millis":0.502333,"status":"passed"},"step":{"line":102,"prefix":"And","index":5,"text":"match response.job == userData.job"}}],"executorName":"pool-1-thread-1","line":90,"name":"Update a User's info using Patch","description":"","durationMillis":574.538916,"startTime":1678080593410,"failed":false,"refId":"[6:90]","endTime":1678080593985,"exampleIndex":-1},{"sectionIndex":6,"stepResults":[{"result":{"nanos":81458,"millis":0.081458,"status":"passed"},"step":{"background":true,"line":5,"prefix":"*","index":0,"text":"url apiUrl"},"stepLog":"16:29:53.549 karate.env system property was: null \n"},{"result":{"nanos":222750,"millis":0.22275,"status":"passed"},"step":{"line":106,"prefix":"Given","index":0,"text":"path 'users\/2'"}},{"result":{"nanos":586367584,"millis":586.367584,"status":"passed"},"step":{"line":107,"prefix":"When","index":1,"text":"method Delete"},"stepLog":"16:29:53.551 request:\n1 > DELETE https:\/\/reqres.in\/api\/users\/2\n1 > Authorization: Token QpwL5tke4Pnpja7X4\n1 > Host: reqres.in\n1 > Connection: Keep-Alive\n1 > User-Agent: Apache-HttpClient\/4.5.13 (Java\/19.0.2)\n1 > Accept-Encoding: gzip,deflate\n\n\n16:29:54.136 response time in milliseconds: 585\n1 < 204\n1 < Date: Mon, 06 Mar 2023 05:29:49 GMT\n1 < Content-Length: 0\n1 < Connection: keep-alive\n1 < X-Powered-By: Express\n1 < Access-Control-Allow-Origin: *\n1 < Etag: W\/\"2-vyGp6PvFo4RvsFtPoIWeCReyIC8\"\n1 < Via: 1.1 vegur\n1 < CF-Cache-Status: DYNAMIC\n1 < Report-To: {\"endpoints\":[{\"url\":\"https:\\\/\\\/a.nel.cloudflare.com\\\/report\\\/v3?s=FnPqiD7D47zOUaD7pFxZ2l75Q6ScumArpMRHwKWrEw7dWDi%2FntEFx7pYdvLydpEz%2FGSEN68tLOHYkUXATTPSGEAWgmNIiJT0RsQj%2FO5dRRO99tgtLp45Cu2VmA%3D%3D\"}],\"group\":\"cf-nel\",\"max_age\":604800}\n1 < NEL: {\"success_fraction\":0,\"report_to\":\"cf-nel\",\"max_age\":604800}\n1 < Server: cloudflare\n1 < CF-RAY: 7a3833ff0b00a8ac-SYD\n\n\n"},{"result":{"nanos":8166,"millis":0.008166,"status":"passed"},"step":{"line":108,"prefix":"Then","index":2,"text":"status 204"}}],"executorName":"pool-1-thread-2","line":105,"name":"Delete a User","description":"","durationMillis":586.679958,"startTime":1678080593549,"failed":false,"refId":"[7:105]","endTime":1678080594137,"exampleIndex":-1},{"sectionIndex":7,"stepResults":[{"result":{"nanos":42000,"millis":0.042,"status":"passed"},"step":{"background":true,"line":5,"prefix":"*","index":0,"text":"url apiUrl"},"stepLog":"16:29:53.952 karate.env system property was: null \n"},{"result":{"nanos":170583,"millis":0.170583,"status":"passed"},"step":{"line":112,"prefix":"*","index":0,"text":"configure retry = { count: 10, interval: 4000 }"}},{"result":{"nanos":51166,"millis":0.051166,"status":"passed"},"step":{"line":113,"prefix":"Given","index":1,"text":"params { delay: 3 }"}},{"result":{"nanos":227042,"millis":0.227042,"status":"passed"},"step":{"line":114,"prefix":"Given","index":2,"text":"path 'users'"}},{"result":{"nanos":29042,"millis":0.029042,"status":"passed"},"step":{"line":115,"prefix":"And","index":3,"text":"retry until response.support.url == \"https:\/\/reqres.in\/#support-heading\""}},{"result":{"nanos":3586745334,"millis":3586.745334,"status":"passed"},"step":{"line":116,"prefix":"When","index":4,"text":"method Get"},"stepLog":"16:29:53.956 request:\n1 > GET https:\/\/reqres.in\/api\/users?delay=3\n1 > Authorization: Token QpwL5tke4Pnpja7X4\n1 > Host: reqres.in\n1 > Connection: Keep-Alive\n1 > User-Agent: Apache-HttpClient\/4.5.13 (Java\/19.0.2)\n1 > Accept-Encoding: gzip,deflate\n\n\n16:29:57.541 response time in milliseconds: 3585\n1 < 200\n1 < Date: Mon, 06 Mar 2023 05:29:52 GMT\n1 < Content-Type: application\/json; charset=utf-8\n1 < Transfer-Encoding: chunked\n1 < Connection: keep-alive\n1 < X-Powered-By: Express\n1 < Access-Control-Allow-Origin: *\n1 < Etag: W\/\"3e4-2RLXvr5wTg9YQ6aH95CkYoFNuO8\"\n1 < Via: 1.1 vegur\n1 < CF-Cache-Status: DYNAMIC\n1 < Report-To: {\"endpoints\":[{\"url\":\"https:\\\/\\\/a.nel.cloudflare.com\\\/report\\\/v3?s=N%2Bn0ehMgtjrGWQGCSsJUM%2FW06biUt7r1VXZH%2B2ybgNsFzuDouFXtrPmtef90Bm6RJHZca9TV0kqatPuh3ZwMmgOAgF1LlukZ3fqXP2Y0vxmmun5SOisGMInniA%3D%3D\"}],\"group\":\"cf-nel\",\"max_age\":604800}\n1 < NEL: {\"success_fraction\":0,\"report_to\":\"cf-nel\",\"max_age\":604800}\n1 < Server: cloudflare\n1 < CF-RAY: 7a3834018d38a835-SYD\n{\"page\":1,\"per_page\":6,\"total\":12,\"total_pages\":2,\"data\":[{\"id\":1,\"email\":\"george.bluth@reqres.in\",\"first_name\":\"George\",\"last_name\":\"Bluth\",\"avatar\":\"https:\/\/reqres.in\/img\/faces\/1-image.jpg\"},{\"id\":2,\"email\":\"janet.weaver@reqres.in\",\"first_name\":\"Janet\",\"last_name\":\"Weaver\",\"avatar\":\"https:\/\/reqres.in\/img\/faces\/2-image.jpg\"},{\"id\":3,\"email\":\"emma.wong@reqres.in\",\"first_name\":\"Emma\",\"last_name\":\"Wong\",\"avatar\":\"https:\/\/reqres.in\/img\/faces\/3-image.jpg\"},{\"id\":4,\"email\":\"eve.holt@reqres.in\",\"first_name\":\"Eve\",\"last_name\":\"Holt\",\"avatar\":\"https:\/\/reqres.in\/img\/faces\/4-image.jpg\"},{\"id\":5,\"email\":\"charles.morris@reqres.in\",\"first_name\":\"Charles\",\"last_name\":\"Morris\",\"avatar\":\"https:\/\/reqres.in\/img\/faces\/5-image.jpg\"},{\"id\":6,\"email\":\"tracey.ramos@reqres.in\",\"first_name\":\"Tracey\",\"last_name\":\"Ramos\",\"avatar\":\"https:\/\/reqres.in\/img\/faces\/6-image.jpg\"}],\"support\":{\"url\":\"https:\/\/reqres.in\/#support-heading\",\"text\":\"To keep ReqRes free, contributions towards server costs are appreciated!\"}}\n\n"},{"result":{"nanos":12250,"millis":0.01225,"status":"passed"},"step":{"line":117,"prefix":"Then","index":5,"text":"status 200"}}],"executorName":"pool-1-thread-3","line":111,"name":"Retry call","description":"","durationMillis":3587.277417,"startTime":1678080593951,"failed":false,"refId":"[8:111]","endTime":1678080597542,"exampleIndex":-1}],"callDepth":0,"name":"Users","description":"","resultDate":"2023-03-06 04:29:57 pm","durationMillis":7444.207626,"passedCount":8}