{"failedCount":0,"prefixedPath":"classpath:reqresApp\/feature\/Resources.feature","packageQualifiedName":"reqresApp.feature.Resources","loopIndex":-1,"relativePath":"reqresApp\/feature\/Resources.feature","scenarioResults":[{"sectionIndex":0,"stepResults":[{"result":{"nanos":221083,"millis":0.221083,"status":"passed"},"step":{"background":true,"line":5,"prefix":"*","index":0,"text":"url apiUrl"},"stepLog":"16:29:52.152 karate.env system property was: null \n"},{"result":{"nanos":500000,"millis":0.5,"status":"passed"},"step":{"line":8,"prefix":"Given","index":0,"text":"path 'unkonwn'"}},{"result":{"nanos":590886125,"millis":590.886125,"status":"passed"},"step":{"line":9,"prefix":"When","index":1,"text":"method Get"},"stepLog":"16:29:52.155 request:\n1 > GET https:\/\/reqres.in\/api\/unkonwn\n1 > Authorization: Token QpwL5tke4Pnpja7X4\n1 > Host: reqres.in\n1 > Connection: Keep-Alive\n1 > User-Agent: Apache-HttpClient\/4.5.13 (Java\/19.0.2)\n1 > Accept-Encoding: gzip,deflate\n\n\n16:29:52.744 response time in milliseconds: 589\n1 < 200\n1 < Date: Mon, 06 Mar 2023 05:29:47 GMT\n1 < Content-Type: application\/json; charset=utf-8\n1 < Transfer-Encoding: chunked\n1 < Connection: keep-alive\n1 < X-Powered-By: Express\n1 < Access-Control-Allow-Origin: *\n1 < Etag: W\/\"2c1-N6Rqerxquq2kgQhL51EiSg4x0R8\"\n1 < Via: 1.1 vegur\n1 < CF-Cache-Status: BYPASS\n1 < Report-To: {\"endpoints\":[{\"url\":\"https:\\\/\\\/a.nel.cloudflare.com\\\/report\\\/v3?s=sjXSBJw4aAcwnRklHkHOhHrFgzX1Gj1Q3xX52nE0DGUXosdO%2F9v0eUnU0WyDh%2FtOVfpNbdny5tpGt1bTGlpfB8sRl6N00L65eqJx8s4dsrTxyTeWMhpzlNlJPw%3D%3D\"}],\"group\":\"cf-nel\",\"max_age\":604800}\n1 < NEL: {\"success_fraction\":0,\"report_to\":\"cf-nel\",\"max_age\":604800}\n1 < Vary: Accept-Encoding\n1 < Server: cloudflare\n1 < CF-RAY: 7a3833f64d84aad8-SYD\n{\"page\":1,\"per_page\":6,\"total\":12,\"total_pages\":2,\"data\":[{\"id\":1,\"name\":\"cerulean\",\"year\":2000,\"color\":\"#98B2D1\",\"pantone_value\":\"15-4020\"},{\"id\":2,\"name\":\"fuchsia rose\",\"year\":2001,\"color\":\"#C74375\",\"pantone_value\":\"17-2031\"},{\"id\":3,\"name\":\"true red\",\"year\":2002,\"color\":\"#BF1932\",\"pantone_value\":\"19-1664\"},{\"id\":4,\"name\":\"aqua sky\",\"year\":2003,\"color\":\"#7BC4C4\",\"pantone_value\":\"14-4811\"},{\"id\":5,\"name\":\"tigerlily\",\"year\":2004,\"color\":\"#E2583E\",\"pantone_value\":\"17-1456\"},{\"id\":6,\"name\":\"blue turquoise\",\"year\":2005,\"color\":\"#53B0AE\",\"pantone_value\":\"15-5217\"}],\"support\":{\"url\":\"https:\/\/reqres.in\/#support-heading\",\"text\":\"To keep ReqRes free, contributions towards server costs are appreciated!\"}}\n\n"},{"result":{"nanos":34292,"millis":0.034292,"status":"passed"},"step":{"line":10,"prefix":"Then","index":2,"text":"status 200"}},{"result":{"nanos":3184125,"millis":3.184125,"status":"passed"},"step":{"endLine":20,"line":11,"prefix":"And","docString":"{\n    \"id\": \"#number\",\n    \"name\": \"#string\",\n    \"year\": \"#number\",\n    \"color\": \"#string\",\n    \"pantone_value\": \"#string\"\n}","index":3,"text":"match each response.data =="}}],"executorName":"pool-1-thread-1","line":7,"name":"List Resources","description":"","durationMillis":594.825625,"startTime":1678080592152,"failed":false,"refId":"[1:7]","endTime":1678080592748,"exampleIndex":-1},{"sectionIndex":1,"stepResults":[{"result":{"nanos":209584,"millis":0.209584,"status":"passed"},"step":{"background":true,"line":5,"prefix":"*","index":0,"text":"url apiUrl"},"stepLog":"16:29:52.157 karate.env system property was: null \n"},{"result":{"nanos":410959,"millis":0.410959,"status":"passed"},"step":{"line":23,"prefix":"Given","index":0,"text":"path 'unkonwn\/2'"}},{"result":{"nanos":589028750,"millis":589.02875,"status":"passed"},"step":{"line":24,"prefix":"When","index":1,"text":"method Get"},"stepLog":"16:29:52.160 request:\n1 > GET https:\/\/reqres.in\/api\/unkonwn\/2\n1 > Authorization: Token QpwL5tke4Pnpja7X4\n1 > Host: reqres.in\n1 > Connection: Keep-Alive\n1 > User-Agent: Apache-HttpClient\/4.5.13 (Java\/19.0.2)\n1 > Accept-Encoding: gzip,deflate\n\n\n16:29:52.748 response time in milliseconds: 588\n1 < 200\n1 < Date: Mon, 06 Mar 2023 05:29:47 GMT\n1 < Content-Type: application\/json; charset=utf-8\n1 < Transfer-Encoding: chunked\n1 < Connection: keep-alive\n1 < X-Powered-By: Express\n1 < Access-Control-Allow-Origin: *\n1 < Etag: W\/\"e8-ov4wWh4\/OY1IMQMqWgskYtOFnVs\"\n1 < Via: 1.1 vegur\n1 < CF-Cache-Status: BYPASS\n1 < Report-To: {\"endpoints\":[{\"url\":\"https:\\\/\\\/a.nel.cloudflare.com\\\/report\\\/v3?s=LwALjnyL12NsPUItVjMVGx20Pk9JhYvHbDacsjl17uK4Kouua2seg7jdle21NEau7CN1lzc51dAVhfhGcpASHkVhjtlX9kleZw%2FFEcfskH%2BG7xLsfTsJAtNeAQ%3D%3D\"}],\"group\":\"cf-nel\",\"max_age\":604800}\n1 < NEL: {\"success_fraction\":0,\"report_to\":\"cf-nel\",\"max_age\":604800}\n1 < Vary: Accept-Encoding\n1 < Server: cloudflare\n1 < CF-RAY: 7a3833f65c33aae9-SYD\n{\"data\":{\"id\":2,\"name\":\"fuchsia rose\",\"year\":2001,\"color\":\"#C74375\",\"pantone_value\":\"17-2031\"},\"support\":{\"url\":\"https:\/\/reqres.in\/#support-heading\",\"text\":\"To keep ReqRes free, contributions towards server costs are appreciated!\"}}\n\n"},{"result":{"nanos":11625,"millis":0.011625,"status":"passed"},"step":{"line":25,"prefix":"Then","index":2,"text":"status 200"}},{"result":{"nanos":765375,"millis":0.765375,"status":"passed"},"step":{"endLine":41,"line":26,"prefix":"And","docString":"{\n    \"data\": {\n        \"id\": \"#number\",\n        \"name\": \"#string\",\n        \"year\": \"#number\",\n        \"color\": \"#string\",\n        \"pantone_value\": \"#string\"\n    },\n    \"support\": {\n        \"url\": \"#string\",\n        \"text\": \"#string\"\n    }\n}","index":3,"text":"match response =="}}],"executorName":"pool-1-thread-5","line":22,"name":"List a Single Resource","description":"","durationMillis":590.426293,"startTime":1678080592156,"failed":false,"refId":"[2:22]","endTime":1678080592749,"exampleIndex":-1},{"sectionIndex":2,"stepResults":[{"result":{"nanos":68250,"millis":0.06825,"status":"passed"},"step":{"background":true,"line":5,"prefix":"*","index":0,"text":"url apiUrl"},"stepLog":"16:29:52.751 karate.env system property was: null \n"},{"result":{"nanos":189958,"millis":0.189958,"status":"passed"},"step":{"line":44,"prefix":"Given","index":0,"text":"path 'unkonwn\/23'"}},{"result":{"nanos":594602000,"millis":594.602,"status":"passed"},"step":{"line":45,"prefix":"When","index":1,"text":"method Get"},"stepLog":"16:29:52.753 request:\n1 > GET https:\/\/reqres.in\/api\/unkonwn\/23\n1 > Authorization: Token QpwL5tke4Pnpja7X4\n1 > Host: reqres.in\n1 > Connection: Keep-Alive\n1 > User-Agent: Apache-HttpClient\/4.5.13 (Java\/19.0.2)\n1 > Accept-Encoding: gzip,deflate\n\n\n16:29:53.347 response time in milliseconds: 594\n1 < 404\n1 < Date: Mon, 06 Mar 2023 05:29:48 GMT\n1 < Content-Type: application\/json; charset=utf-8\n1 < Content-Length: 2\n1 < Connection: keep-alive\n1 < X-Powered-By: Express\n1 < Access-Control-Allow-Origin: *\n1 < Etag: W\/\"2-vyGp6PvFo4RvsFtPoIWeCReyIC8\"\n1 < Via: 1.1 vegur\n1 < CF-Cache-Status: BYPASS\n1 < Report-To: {\"endpoints\":[{\"url\":\"https:\\\/\\\/a.nel.cloudflare.com\\\/report\\\/v3?s=hdnU7OlPwgO4z5kk%2BdKVwYhlU%2BNFBXt0WidQNL3CR1a65IiD1pmZKGID4BGCk7PaLPGr49mta0omVjVc3F37ybu05FxiUEVLlXQY7MDbZiWPWWVSRWnIw9%2FRPw%3D%3D\"}],\"group\":\"cf-nel\",\"max_age\":604800}\n1 < NEL: {\"success_fraction\":0,\"report_to\":\"cf-nel\",\"max_age\":604800}\n1 < Vary: Accept-Encoding\n1 < Server: cloudflare\n1 < CF-RAY: 7a3833fa1ac3a88e-SYD\n{}\n\n"},{"result":{"nanos":6000,"millis":0.006,"status":"passed"},"step":{"line":46,"prefix":"Then","index":2,"text":"status 404"}}],"executorName":"pool-1-thread-3","line":43,"name":"List a Non-exisitng Resource","description":"","durationMillis":594.866208,"startTime":1678080592749,"failed":false,"refId":"[3:43]","endTime":1678080593347,"exampleIndex":-1}],"callDepth":0,"name":"Resources","description":"","resultDate":"2023-03-06 04:29:54 pm","durationMillis":1780.118126,"passedCount":3}