{"failedCount":0,"prefixedPath":"classpath:reqresApp\/feature\/Resources.feature","packageQualifiedName":"reqresApp.feature.Resources","loopIndex":-1,"relativePath":"reqresApp\/feature\/Resources.feature","scenarioResults":[{"sectionIndex":0,"stepResults":[{"result":{"nanos":78250,"millis":0.07825,"status":"passed"},"step":{"background":true,"line":5,"prefix":"*","index":0,"text":"url apiUrl"},"stepLog":"16:27:36.024 karate.env system property was: null \n"},{"result":{"nanos":610958,"millis":0.610958,"status":"passed"},"step":{"line":8,"prefix":"Given","index":0,"text":"path 'unkonwn'"}},{"result":{"nanos":587512458,"millis":587.512458,"status":"passed"},"step":{"line":9,"prefix":"When","index":1,"text":"method Get"},"stepLog":"16:27:36.027 request:\n1 > GET https:\/\/reqres.in\/api\/unkonwn\n1 > Authorization: Token QpwL5tke4Pnpja7X4\n1 > Host: reqres.in\n1 > Connection: Keep-Alive\n1 > User-Agent: Apache-HttpClient\/4.5.13 (Java\/19.0.2)\n1 > Accept-Encoding: gzip,deflate\n\n\n16:27:36.612 response time in milliseconds: 585\n1 < 200\n1 < Date: Mon, 06 Mar 2023 05:27:31 GMT\n1 < Content-Type: application\/json; charset=utf-8\n1 < Transfer-Encoding: chunked\n1 < Connection: keep-alive\n1 < X-Powered-By: Express\n1 < Access-Control-Allow-Origin: *\n1 < Etag: W\/\"2c1-N6Rqerxquq2kgQhL51EiSg4x0R8\"\n1 < Via: 1.1 vegur\n1 < CF-Cache-Status: BYPASS\n1 < Report-To: {\"endpoints\":[{\"url\":\"https:\\\/\\\/a.nel.cloudflare.com\\\/report\\\/v3?s=Jwjf8kFUYckPbg7u%2FB6mG3RKmbNOdrKntjJZKkzKF6TwXvUcMow7i3fu0znKGz6gCgzKk%2B2E1B4H%2FdKn%2FLqhlBHsIq4BfXwjfarBglm28DyGlNch%2Bnz%2BwLPTQg%3D%3D\"}],\"group\":\"cf-nel\",\"max_age\":604800}\n1 < NEL: {\"success_fraction\":0,\"report_to\":\"cf-nel\",\"max_age\":604800}\n1 < Vary: Accept-Encoding\n1 < Server: cloudflare\n1 < CF-RAY: 7a3830a37eb5ab0b-SYD\n{\"page\":1,\"per_page\":6,\"total\":12,\"total_pages\":2,\"data\":[{\"id\":1,\"name\":\"cerulean\",\"year\":2000,\"color\":\"#98B2D1\",\"pantone_value\":\"15-4020\"},{\"id\":2,\"name\":\"fuchsia rose\",\"year\":2001,\"color\":\"#C74375\",\"pantone_value\":\"17-2031\"},{\"id\":3,\"name\":\"true red\",\"year\":2002,\"color\":\"#BF1932\",\"pantone_value\":\"19-1664\"},{\"id\":4,\"name\":\"aqua sky\",\"year\":2003,\"color\":\"#7BC4C4\",\"pantone_value\":\"14-4811\"},{\"id\":5,\"name\":\"tigerlily\",\"year\":2004,\"color\":\"#E2583E\",\"pantone_value\":\"17-1456\"},{\"id\":6,\"name\":\"blue turquoise\",\"year\":2005,\"color\":\"#53B0AE\",\"pantone_value\":\"15-5217\"}],\"support\":{\"url\":\"https:\/\/reqres.in\/#support-heading\",\"text\":\"To keep ReqRes free, contributions towards server costs are appreciated!\"}}\n\n"},{"result":{"nanos":17167,"millis":0.017167,"status":"passed"},"step":{"line":10,"prefix":"Then","index":2,"text":"status 200"}},{"result":{"nanos":1963291,"millis":1.963291,"status":"passed"},"step":{"endLine":20,"line":11,"prefix":"And","docString":"{\n    \"id\": \"#number\",\n    \"name\": \"#string\",\n    \"year\": \"#number\",\n    \"color\": \"#string\",\n    \"pantone_value\": \"#string\"\n}","index":3,"text":"match each response.data =="}}],"executorName":"pool-1-thread-5","line":7,"name":"List Resources","description":"","durationMillis":590.182124,"startTime":1678080456023,"failed":false,"refId":"[1:7]","endTime":1678080456615,"exampleIndex":-1},{"sectionIndex":1,"stepResults":[{"result":{"nanos":205916,"millis":0.205916,"status":"passed"},"step":{"background":true,"line":5,"prefix":"*","index":0,"text":"url apiUrl"},"stepLog":"16:27:36.029 karate.env system property was: null \n"},{"result":{"nanos":406583,"millis":0.406583,"status":"passed"},"step":{"line":23,"prefix":"Given","index":0,"text":"path 'unkonwn\/2'"}},{"result":{"nanos":592303916,"millis":592.303916,"status":"passed"},"step":{"line":24,"prefix":"When","index":1,"text":"method Get"},"stepLog":"16:27:36.031 request:\n1 > GET https:\/\/reqres.in\/api\/unkonwn\/2\n1 > Authorization: Token QpwL5tke4Pnpja7X4\n1 > Host: reqres.in\n1 > Connection: Keep-Alive\n1 > User-Agent: Apache-HttpClient\/4.5.13 (Java\/19.0.2)\n1 > Accept-Encoding: gzip,deflate\n\n\n16:27:36.622 response time in milliseconds: 591\n1 < 200\n1 < Date: Mon, 06 Mar 2023 05:27:31 GMT\n1 < Content-Type: application\/json; charset=utf-8\n1 < Transfer-Encoding: chunked\n1 < Connection: keep-alive\n1 < X-Powered-By: Express\n1 < Access-Control-Allow-Origin: *\n1 < Etag: W\/\"e8-ov4wWh4\/OY1IMQMqWgskYtOFnVs\"\n1 < Via: 1.1 vegur\n1 < CF-Cache-Status: BYPASS\n1 < Report-To: {\"endpoints\":[{\"url\":\"https:\\\/\\\/a.nel.cloudflare.com\\\/report\\\/v3?s=fNCJp6%2Bztm69bobacQOOMzbI71Z5FZ24zV7rN7uXTdH66oBvEGlyt%2B8%2BGzN17gaDIx7XMlczOG6N59WE6QzFZ5wN4KzGXucEkBO5hT%2BqWfNeN4UjrABUq%2F4vHA%3D%3D\"}],\"group\":\"cf-nel\",\"max_age\":604800}\n1 < NEL: {\"success_fraction\":0,\"report_to\":\"cf-nel\",\"max_age\":604800}\n1 < Vary: Accept-Encoding\n1 < Server: cloudflare\n1 < CF-RAY: 7a3830a389afa8b6-SYD\n{\"data\":{\"id\":2,\"name\":\"fuchsia rose\",\"year\":2001,\"color\":\"#C74375\",\"pantone_value\":\"17-2031\"},\"support\":{\"url\":\"https:\/\/reqres.in\/#support-heading\",\"text\":\"To keep ReqRes free, contributions towards server costs are appreciated!\"}}\n\n"},{"result":{"nanos":11084,"millis":0.011084,"status":"passed"},"step":{"line":25,"prefix":"Then","index":2,"text":"status 200"}},{"result":{"nanos":242500,"millis":0.2425,"status":"passed"},"step":{"endLine":41,"line":26,"prefix":"And","docString":"{\n    \"data\": {\n        \"id\": \"#number\",\n        \"name\": \"#string\",\n        \"year\": \"#number\",\n        \"color\": \"#string\",\n        \"pantone_value\": \"#string\"\n    },\n    \"support\": {\n        \"url\": \"#string\",\n        \"text\": \"#string\"\n    }\n}","index":3,"text":"match response =="}}],"executorName":"pool-1-thread-4","line":22,"name":"List a Single Resource","description":"","durationMillis":593.169999,"startTime":1678080456028,"failed":false,"refId":"[2:22]","endTime":1678080456623,"exampleIndex":-1},{"sectionIndex":2,"stepResults":[{"result":{"nanos":39333,"millis":0.039333,"status":"passed"},"step":{"background":true,"line":5,"prefix":"*","index":0,"text":"url apiUrl"},"stepLog":"16:27:36.619 karate.env system property was: null \n"},{"result":{"nanos":194333,"millis":0.194333,"status":"passed"},"step":{"line":44,"prefix":"Given","index":0,"text":"path 'unkonwn\/23'"}},{"result":{"nanos":576684375,"millis":576.684375,"status":"passed"},"step":{"line":45,"prefix":"When","index":1,"text":"method Get"},"stepLog":"16:27:36.622 request:\n1 > GET https:\/\/reqres.in\/api\/unkonwn\/23\n1 > Authorization: Token QpwL5tke4Pnpja7X4\n1 > Host: reqres.in\n1 > Connection: Keep-Alive\n1 > User-Agent: Apache-HttpClient\/4.5.13 (Java\/19.0.2)\n1 > Accept-Encoding: gzip,deflate\n\n\n16:27:37.197 response time in milliseconds: 575\n1 < 404\n1 < Date: Mon, 06 Mar 2023 05:27:32 GMT\n1 < Content-Type: application\/json; charset=utf-8\n1 < Content-Length: 2\n1 < Connection: keep-alive\n1 < X-Powered-By: Express\n1 < Access-Control-Allow-Origin: *\n1 < Etag: W\/\"2-vyGp6PvFo4RvsFtPoIWeCReyIC8\"\n1 < Via: 1.1 vegur\n1 < CF-Cache-Status: BYPASS\n1 < Report-To: {\"endpoints\":[{\"url\":\"https:\\\/\\\/a.nel.cloudflare.com\\\/report\\\/v3?s=Cv0oyOXl2jCJeDLMHZeI7bOGrmetFY%2F4R186iGTmQqW4GFv8nEkJPYG5l71tlpNAsnhlhz4rs%2FTf5tY6qynqyi8%2FeaU6MNoNH0MxVpGJKYd2reCvE4q1dpTeEg%3D%3D\"}],\"group\":\"cf-nel\",\"max_age\":604800}\n1 < NEL: {\"success_fraction\":0,\"report_to\":\"cf-nel\",\"max_age\":604800}\n1 < Vary: Accept-Encoding\n1 < Server: cloudflare\n1 < CF-RAY: 7a3830a72d97a95f-SYD\n{}\n\n"},{"result":{"nanos":11291,"millis":0.011291,"status":"passed"},"step":{"line":46,"prefix":"Then","index":2,"text":"status 404"}}],"executorName":"pool-1-thread-5","line":43,"name":"List a Non-exisitng Resource","description":"","durationMillis":576.929332,"startTime":1678080456618,"failed":false,"refId":"[3:43]","endTime":1678080457198,"exampleIndex":-1}],"callDepth":0,"name":"Resources","description":"","resultDate":"2023-03-06 04:27:37 pm","durationMillis":1760.281455,"passedCount":3}