{"failedCount":0,"prefixedPath":"classpath:reqresApp\/feature\/Users.feature","packageQualifiedName":"reqresApp.feature.Users","loopIndex":-1,"relativePath":"reqresApp\/feature\/Users.feature","scenarioResults":[{"sectionIndex":0,"stepResults":[{"result":{"nanos":52083,"millis":0.052083,"status":"passed"},"step":{"background":true,"line":5,"prefix":"*","index":0,"text":"url apiUrl"},"stepLog":"16:27:36.624 karate.env system property was: null \n"},{"result":{"nanos":522917,"millis":0.522917,"status":"passed"},"step":{"line":8,"prefix":"Given","index":0,"text":"params { page: 2}"}},{"result":{"nanos":158667,"millis":0.158667,"status":"passed"},"step":{"line":9,"prefix":"Given","index":1,"text":"path 'users'"}},{"result":{"nanos":59047375,"millis":59.047375,"status":"passed"},"step":{"line":10,"prefix":"When","index":2,"text":"method Get"},"stepLog":"16:27:36.627 request:\n1 > GET https:\/\/reqres.in\/api\/users?page=2\n1 > Authorization: Token QpwL5tke4Pnpja7X4\n1 > Host: reqres.in\n1 > Connection: Keep-Alive\n1 > User-Agent: Apache-HttpClient\/4.5.13 (Java\/19.0.2)\n1 > Accept-Encoding: gzip,deflate\n\n\n16:27:36.685 response time in milliseconds: 58\n1 < 200\n1 < Date: Mon, 06 Mar 2023 05:27:31 GMT\n1 < Content-Type: application\/json; charset=utf-8\n1 < Transfer-Encoding: chunked\n1 < Connection: keep-alive\n1 < X-Powered-By: Express\n1 < Access-Control-Allow-Origin: *\n1 < Etag: W\/\"406-ut0vzoCuidvyMf8arZpMpJ6ZRDw\"\n1 < Via: 1.1 vegur\n1 < Cache-Control: max-age=14400\n1 < CF-Cache-Status: HIT\n1 < Age: 1535\n1 < Report-To: {\"endpoints\":[{\"url\":\"https:\\\/\\\/a.nel.cloudflare.com\\\/report\\\/v3?s=S%2BGaG%2FYFbTHsr17RI77ilWsRyxOX0CV0SL5SSrKX%2BDDOclZnOPxpt4PBjkrrThgSv622D07SBPihzOrHPkj7vyyQXXey0nz9LuK6Lj6WM2q9QsqqV6M1zcd69w%3D%3D\"}],\"group\":\"cf-nel\",\"max_age\":604800}\n1 < NEL: {\"success_fraction\":0,\"report_to\":\"cf-nel\",\"max_age\":604800}\n1 < Vary: Accept-Encoding\n1 < Server: cloudflare\n1 < CF-RAY: 7a3830a73b48a961-SYD\n{\"page\":2,\"per_page\":6,\"total\":12,\"total_pages\":2,\"data\":[{\"id\":7,\"email\":\"michael.lawson@reqres.in\",\"first_name\":\"Michael\",\"last_name\":\"Lawson\",\"avatar\":\"https:\/\/reqres.in\/img\/faces\/7-image.jpg\"},{\"id\":8,\"email\":\"lindsay.ferguson@reqres.in\",\"first_name\":\"Lindsay\",\"last_name\":\"Ferguson\",\"avatar\":\"https:\/\/reqres.in\/img\/faces\/8-image.jpg\"},{\"id\":9,\"email\":\"tobias.funke@reqres.in\",\"first_name\":\"Tobias\",\"last_name\":\"Funke\",\"avatar\":\"https:\/\/reqres.in\/img\/faces\/9-image.jpg\"},{\"id\":10,\"email\":\"byron.fields@reqres.in\",\"first_name\":\"Byron\",\"last_name\":\"Fields\",\"avatar\":\"https:\/\/reqres.in\/img\/faces\/10-image.jpg\"},{\"id\":11,\"email\":\"george.edwards@reqres.in\",\"first_name\":\"George\",\"last_name\":\"Edwards\",\"avatar\":\"https:\/\/reqres.in\/img\/faces\/11-image.jpg\"},{\"id\":12,\"email\":\"rachel.howell@reqres.in\",\"first_name\":\"Rachel\",\"last_name\":\"Howell\",\"avatar\":\"https:\/\/reqres.in\/img\/faces\/12-image.jpg\"}],\"support\":{\"url\":\"https:\/\/reqres.in\/#support-heading\",\"text\":\"To keep ReqRes free, contributions towards server costs are appreciated!\"}}\n\n"},{"result":{"nanos":11042,"millis":0.011042,"status":"passed"},"step":{"line":11,"prefix":"Then","index":3,"text":"status 200"}},{"result":{"nanos":1770750,"millis":1.77075,"status":"passed"},"step":{"endLine":21,"line":12,"prefix":"And","docString":"{\n    \"id\": \"#number\",\n    \"email\": \"#string\",\n    \"first_name\": \"#string\",\n    \"last_name\": \"#string\",\n    \"avatar\": \"#string\"\n}","index":4,"text":"match each response.data =="}}],"executorName":"pool-1-thread-1","line":7,"name":"List Users","description":"","durationMillis":61.562834,"startTime":1678080456622,"failed":false,"refId":"[1:7]","endTime":1678080456687,"exampleIndex":-1},{"sectionIndex":1,"stepResults":[{"result":{"nanos":32083,"millis":0.032083,"status":"passed"},"step":{"background":true,"line":5,"prefix":"*","index":0,"text":"url apiUrl"},"stepLog":"16:27:36.627 karate.env system property was: null \n"},{"result":{"nanos":136000,"millis":0.136,"status":"passed"},"step":{"line":24,"prefix":"Given","index":0,"text":"path 'users\/2'"}},{"result":{"nanos":583263334,"millis":583.263334,"status":"passed"},"step":{"line":25,"prefix":"When","index":1,"text":"method Get"},"stepLog":"16:27:36.628 request:\n1 > GET https:\/\/reqres.in\/api\/users\/2\n1 > Authorization: Token QpwL5tke4Pnpja7X4\n1 > Host: reqres.in\n1 > Connection: Keep-Alive\n1 > User-Agent: Apache-HttpClient\/4.5.13 (Java\/19.0.2)\n1 > Accept-Encoding: gzip,deflate\n\n\n16:27:37.210 response time in milliseconds: 579\n1 < 200\n1 < Date: Mon, 06 Mar 2023 05:27:32 GMT\n1 < Content-Type: application\/json; charset=utf-8\n1 < Transfer-Encoding: chunked\n1 < Connection: keep-alive\n1 < X-Powered-By: Express\n1 < Access-Control-Allow-Origin: *\n1 < Etag: W\/\"118-pbdwwFo9SKNhD3Lx5iHJyngpq00\"\n1 < Via: 1.1 vegur\n1 < CF-Cache-Status: BYPASS\n1 < Report-To: {\"endpoints\":[{\"url\":\"https:\\\/\\\/a.nel.cloudflare.com\\\/report\\\/v3?s=JYRjfQ4NeOa4c7xCFjHR5chciI3CeQaHdYYcmlh0nyEAsDEn8lhjFoAUI2wphD9q99vUYbJpZEeAFS4LysHBEZal%2FGyBSppoRpESEUShMD12ly27y%2Fbg7sD4Ng%3D%3D\"}],\"group\":\"cf-nel\",\"max_age\":604800}\n1 < NEL: {\"success_fraction\":0,\"report_to\":\"cf-nel\",\"max_age\":604800}\n1 < Vary: Accept-Encoding\n1 < Server: cloudflare\n1 < CF-RAY: 7a3830a739f0aabe-SYD\n{\"data\":{\"id\":2,\"email\":\"janet.weaver@reqres.in\",\"first_name\":\"Janet\",\"last_name\":\"Weaver\",\"avatar\":\"https:\/\/reqres.in\/img\/faces\/2-image.jpg\"},\"support\":{\"url\":\"https:\/\/reqres.in\/#support-heading\",\"text\":\"To keep ReqRes free, contributions towards server costs are appreciated!\"}}\n\n"},{"result":{"nanos":7167,"millis":0.007167,"status":"passed"},"step":{"line":26,"prefix":"Then","index":2,"text":"status 200"}},{"result":{"nanos":208416,"millis":0.208416,"status":"passed"},"step":{"endLine":42,"line":27,"prefix":"And","docString":"{\n    \"data\": {\n        \"id\": \"#number\",\n        \"email\": \"#string\",\n        \"first_name\": \"#string\",\n        \"last_name\": \"#string\",\n        \"avatar\": \"#string\"\n    },\n    \"support\": {\n        \"url\": \"#string\",\n        \"text\": \"#string\"\n    }\n}","index":3,"text":"match response =="}}],"executorName":"pool-1-thread-4","line":23,"name":"List a Single User","description":"","durationMillis":583.647,"startTime":1678080456625,"failed":false,"refId":"[2:23]","endTime":1678080457211,"exampleIndex":-1},{"sectionIndex":2,"stepResults":[{"result":{"nanos":41791,"millis":0.041791,"status":"passed"},"step":{"background":true,"line":5,"prefix":"*","index":0,"text":"url apiUrl"},"stepLog":"16:27:36.690 karate.env system property was: null \n"},{"result":{"nanos":244167,"millis":0.244167,"status":"passed"},"step":{"line":46,"prefix":"Given","index":0,"text":"path 'users\/23'"}},{"result":{"nanos":577486167,"millis":577.486167,"status":"passed"},"step":{"line":47,"prefix":"When","index":1,"text":"method Get"},"stepLog":"16:27:36.691 request:\n1 > GET https:\/\/reqres.in\/api\/users\/23\n1 > Authorization: Token QpwL5tke4Pnpja7X4\n1 > Host: reqres.in\n1 > Connection: Keep-Alive\n1 > User-Agent: Apache-HttpClient\/4.5.13 (Java\/19.0.2)\n1 > Accept-Encoding: gzip,deflate\n\n\n16:27:37.268 response time in milliseconds: 577\n1 < 404\n1 < Date: Mon, 06 Mar 2023 05:27:32 GMT\n1 < Content-Type: application\/json; charset=utf-8\n1 < Content-Length: 2\n1 < Connection: keep-alive\n1 < X-Powered-By: Express\n1 < Access-Control-Allow-Origin: *\n1 < Etag: W\/\"2-vyGp6PvFo4RvsFtPoIWeCReyIC8\"\n1 < Via: 1.1 vegur\n1 < CF-Cache-Status: BYPASS\n1 < Report-To: {\"endpoints\":[{\"url\":\"https:\\\/\\\/a.nel.cloudflare.com\\\/report\\\/v3?s=W%2Bj8XB02Qx%2FFDoWOA7njMUgWvkzhTsvbona5mz9DfoTtOUpSYy513h1a5NMSiHcp%2FtHT5fINTNKu6tQKbzhUhqhJWBw7vzSPHOBuC53TGGGjVoypxZtBL9UoWw%3D%3D\"}],\"group\":\"cf-nel\",\"max_age\":604800}\n1 < NEL: {\"success_fraction\":0,\"report_to\":\"cf-nel\",\"max_age\":604800}\n1 < Vary: Accept-Encoding\n1 < Server: cloudflare\n1 < CF-RAY: 7a3830a79d32a831-SYD\n{}\n\n"},{"result":{"nanos":10625,"millis":0.010625,"status":"passed"},"step":{"line":48,"prefix":"Then","index":2,"text":"status 404"}}],"executorName":"pool-1-thread-1","line":45,"name":"List a Non-exisitng User","description":"","durationMillis":577.78275,"startTime":1678080456689,"failed":false,"refId":"[3:45]","endTime":1678080457268,"exampleIndex":-1},{"sectionIndex":3,"stepResults":[{"result":{"nanos":39417,"millis":0.039417,"status":"passed"},"step":{"background":true,"line":5,"prefix":"*","index":0,"text":"url apiUrl"},"stepLog":"16:27:37.200 karate.env system property was: null \n"},{"result":{"nanos":88458,"millis":0.088458,"status":"passed"},"step":{"line":52,"prefix":"Given","index":0,"text":"def userData = {\"name\": \"morpheus\", \"job\": \"leader\"}"}},{"result":{"nanos":9848458,"millis":9.848458,"status":"passed"},"step":{"line":53,"prefix":"*","index":1,"text":"def timeValidator = read('classpath:helpers\/timeValidator.js')"}},{"result":{"nanos":603500,"millis":0.6035,"status":"passed"},"step":{"line":54,"prefix":"Given","index":2,"text":"path 'users'"}},{"result":{"nanos":45459,"millis":0.045459,"status":"passed"},"step":{"endLine":61,"line":55,"prefix":"And","docString":"{\n    \"name\": \"morpheus\",\n    \"job\": \"leader\"\n}","index":3,"text":"request"}},{"result":{"nanos":572909042,"millis":572.909042,"status":"passed"},"step":{"line":62,"prefix":"When","index":4,"text":"method Post"},"stepLog":"16:27:37.212 request:\n1 > POST https:\/\/reqres.in\/api\/users\n1 > Authorization: Token QpwL5tke4Pnpja7X4\n1 > Content-Type: application\/json; charset=UTF-8\n1 > Content-Length: 34\n1 > Host: reqres.in\n1 > Connection: Keep-Alive\n1 > User-Agent: Apache-HttpClient\/4.5.13 (Java\/19.0.2)\n1 > Accept-Encoding: gzip,deflate\n{\"name\":\"morpheus\",\"job\":\"leader\"}\n\n16:27:37.784 response time in milliseconds: 571\n1 < 201\n1 < Date: Mon, 06 Mar 2023 05:27:32 GMT\n1 < Content-Type: application\/json; charset=utf-8\n1 < Content-Length: 84\n1 < Connection: keep-alive\n1 < X-Powered-By: Express\n1 < Access-Control-Allow-Origin: *\n1 < Etag: W\/\"54-vSJEajhhwFVmcUiG8iwFxGK3Q\/w\"\n1 < Via: 1.1 vegur\n1 < CF-Cache-Status: DYNAMIC\n1 < Report-To: {\"endpoints\":[{\"url\":\"https:\\\/\\\/a.nel.cloudflare.com\\\/report\\\/v3?s=AAW8KY9TzwNBXp3sVLV5RV%2B9J1k34chq8wmWsllC8lBy1pCtY2XG66vgJCfDAK0j%2FE559ZOrqVe2enhDE4GNIIRk9S0aZ%2FtbFhYZtxnj9trKA%2FntpvDWX%2B7Dew%3D%3D\"}],\"group\":\"cf-nel\",\"max_age\":604800}\n1 < NEL: {\"success_fraction\":0,\"report_to\":\"cf-nel\",\"max_age\":604800}\n1 < Server: cloudflare\n1 < CF-RAY: 7a3830aadfcba894-SYD\n{\"name\":\"morpheus\",\"job\":\"leader\",\"id\":\"337\",\"createdAt\":\"2023-03-06T05:27:32.695Z\"}\n\n"},{"result":{"nanos":12666,"millis":0.012666,"status":"passed"},"step":{"line":63,"prefix":"Then","index":5,"text":"status 201"}},{"result":{"nanos":9439417,"millis":9.439417,"status":"passed"},"step":{"endLine":72,"line":64,"prefix":"And","docString":"{\n    \"name\": \"#string\",\n    \"job\": \"#string\",\n    \"id\": \"#string\",\n    \"createdAt\": \"#? timeValidator(_)\"\n}","index":6,"text":"match response =="}}],"executorName":"pool-1-thread-5","line":51,"name":"Create a User","description":"","durationMillis":592.986417,"startTime":1678080457199,"failed":false,"refId":"[4:51]","endTime":1678080457793,"exampleIndex":-1},{"sectionIndex":4,"stepResults":[{"result":{"nanos":104292,"millis":0.104292,"status":"passed"},"step":{"background":true,"line":5,"prefix":"*","index":0,"text":"url apiUrl"},"stepLog":"16:27:37.213 karate.env system property was: null \n"},{"result":{"nanos":101125,"millis":0.101125,"status":"passed"},"step":{"line":76,"prefix":"Given","index":0,"text":"def userData = {\"name\": \"morpheus\", \"job\": \"zion resident\"}"}},{"result":{"nanos":52708,"millis":0.052708,"status":"passed"},"step":{"line":77,"prefix":"Given","index":1,"text":"path 'users\/2'"}},{"result":{"nanos":28667,"millis":0.028667,"status":"passed"},"step":{"endLine":84,"line":78,"prefix":"And","docString":"{\n    \"name\": \"morpheus\",\n    \"job\": \"zion resident\"\n}","index":2,"text":"request"}},{"result":{"nanos":588983500,"millis":588.9835,"status":"passed"},"step":{"line":85,"prefix":"When","index":3,"text":"method Put"},"stepLog":"16:27:37.214 request:\n1 > PUT https:\/\/reqres.in\/api\/users\/2\n1 > Authorization: Token QpwL5tke4Pnpja7X4\n1 > Content-Type: application\/json; charset=UTF-8\n1 > Content-Length: 41\n1 > Host: reqres.in\n1 > Connection: Keep-Alive\n1 > User-Agent: Apache-HttpClient\/4.5.13 (Java\/19.0.2)\n1 > Accept-Encoding: gzip,deflate\n{\"name\":\"morpheus\",\"job\":\"zion resident\"}\n\n16:27:37.803 response time in milliseconds: 588\n1 < 200\n1 < Date: Mon, 06 Mar 2023 05:27:32 GMT\n1 < Content-Type: application\/json; charset=utf-8\n1 < Transfer-Encoding: chunked\n1 < Connection: keep-alive\n1 < X-Powered-By: Express\n1 < Access-Control-Allow-Origin: *\n1 < Etag: W\/\"50-T+FoOPVocQD\/j4sjDKeP0k\/azzQ\"\n1 < Via: 1.1 vegur\n1 < CF-Cache-Status: DYNAMIC\n1 < Report-To: {\"endpoints\":[{\"url\":\"https:\\\/\\\/a.nel.cloudflare.com\\\/report\\\/v3?s=CKnWv2upqk29F9O%2FbE%2BU9qaDgasf3rTw1xM1s2NKdyEg0p6xTINb%2Bk7%2F%2BVInfQuM9j%2FSbfgbppkTzeB4bOBDHJm%2FWSwDE8phJKdsvfwataCNmGGzxPRsjqLcUQ%3D%3D\"}],\"group\":\"cf-nel\",\"max_age\":604800}\n1 < NEL: {\"success_fraction\":0,\"report_to\":\"cf-nel\",\"max_age\":604800}\n1 < Vary: Accept-Encoding\n1 < Server: cloudflare\n1 < CF-RAY: 7a3830aaedbfaaf3-SYD\n{\"name\":\"morpheus\",\"job\":\"zion resident\",\"updatedAt\":\"2023-03-06T05:27:32.710Z\"}\n\n"},{"result":{"nanos":9292,"millis":0.009292,"status":"passed"},"step":{"line":86,"prefix":"Then","index":4,"text":"status 200"}},{"result":{"nanos":428375,"millis":0.428375,"status":"passed"},"step":{"line":87,"prefix":"And","index":5,"text":"match response.job == userData.job"}}],"executorName":"pool-1-thread-4","line":75,"name":"Update a User's info using Put","description":"","durationMillis":589.707959,"startTime":1678080457213,"failed":false,"refId":"[5:75]","endTime":1678080457803,"exampleIndex":-1},{"sectionIndex":5,"stepResults":[{"result":{"nanos":40125,"millis":0.040125,"status":"passed"},"step":{"background":true,"line":5,"prefix":"*","index":0,"text":"url apiUrl"},"stepLog":"16:27:37.216 karate.env system property was: null \n"},{"result":{"nanos":88625,"millis":0.088625,"status":"passed"},"step":{"line":91,"prefix":"Given","index":0,"text":"def userData = {\"name\": \"morpheus\", \"job\": \"zion resident\"}"}},{"result":{"nanos":153417,"millis":0.153417,"status":"passed"},"step":{"line":92,"prefix":"Given","index":1,"text":"path 'users\/2'"}},{"result":{"nanos":32167,"millis":0.032167,"status":"passed"},"step":{"endLine":99,"line":93,"prefix":"And","docString":"{\n    \"name\": \"morpheus\",\n    \"job\": \"zion resident\"\n}","index":2,"text":"request"}},{"result":{"nanos":580582875,"millis":580.582875,"status":"passed"},"step":{"line":100,"prefix":"When","index":3,"text":"method Patch"},"stepLog":"16:27:37.218 request:\n1 > PATCH https:\/\/reqres.in\/api\/users\/2\n1 > Authorization: Token QpwL5tke4Pnpja7X4\n1 > Content-Type: application\/json; charset=UTF-8\n1 > Content-Length: 41\n1 > Host: reqres.in\n1 > Connection: Keep-Alive\n1 > User-Agent: Apache-HttpClient\/4.5.13 (Java\/19.0.2)\n1 > Accept-Encoding: gzip,deflate\n{\"name\":\"morpheus\",\"job\":\"zion resident\"}\n\n16:27:37.798 response time in milliseconds: 579\n1 < 200\n1 < Date: Mon, 06 Mar 2023 05:27:32 GMT\n1 < Content-Type: application\/json; charset=utf-8\n1 < Transfer-Encoding: chunked\n1 < Connection: keep-alive\n1 < X-Powered-By: Express\n1 < Access-Control-Allow-Origin: *\n1 < Etag: W\/\"50-n3aeyyY\/yZTxWRQXhZEiL4Yi9\/s\"\n1 < Via: 1.1 vegur\n1 < CF-Cache-Status: DYNAMIC\n1 < Report-To: {\"endpoints\":[{\"url\":\"https:\\\/\\\/a.nel.cloudflare.com\\\/report\\\/v3?s=nbU3JDTZ0ph0wuO5phVXEBnbqgX6HoGk85cf6udg%2Bh9ogdE%2BjUd5aFciYgKxrfeVvBvgaXToeKjY1nJIANsq7dxAeOr3SUr6MUdJ5iUEi8mezJqF5iymvj%2B50w%3D%3D\"}],\"group\":\"cf-nel\",\"max_age\":604800}\n1 < NEL: {\"success_fraction\":0,\"report_to\":\"cf-nel\",\"max_age\":604800}\n1 < Server: cloudflare\n1 < CF-RAY: 7a3830aaec27a932-SYD\n{\"name\":\"morpheus\",\"job\":\"zion resident\",\"updatedAt\":\"2023-03-06T05:27:32.708Z\"}\n\n"},{"result":{"nanos":9000,"millis":0.009,"status":"passed"},"step":{"line":101,"prefix":"Then","index":4,"text":"status 200"}},{"result":{"nanos":468500,"millis":0.4685,"status":"passed"},"step":{"line":102,"prefix":"And","index":5,"text":"match response.job == userData.job"}}],"executorName":"pool-1-thread-3","line":90,"name":"Update a User's info using Patch","description":"","durationMillis":581.374709,"startTime":1678080457216,"failed":false,"refId":"[6:90]","endTime":1678080457798,"exampleIndex":-1},{"sectionIndex":6,"stepResults":[{"result":{"nanos":52417,"millis":0.052417,"status":"passed"},"step":{"background":true,"line":5,"prefix":"*","index":0,"text":"url apiUrl"},"stepLog":"16:27:37.270 karate.env system property was: null \n"},{"result":{"nanos":251167,"millis":0.251167,"status":"passed"},"step":{"line":106,"prefix":"Given","index":0,"text":"path 'users\/2'"}},{"result":{"nanos":582374250,"millis":582.37425,"status":"passed"},"step":{"line":107,"prefix":"When","index":1,"text":"method Delete"},"stepLog":"16:27:37.272 request:\n1 > DELETE https:\/\/reqres.in\/api\/users\/2\n1 > Authorization: Token QpwL5tke4Pnpja7X4\n1 > Host: reqres.in\n1 > Connection: Keep-Alive\n1 > User-Agent: Apache-HttpClient\/4.5.13 (Java\/19.0.2)\n1 > Accept-Encoding: gzip,deflate\n\n\n16:27:37.853 response time in milliseconds: 580\n1 < 204\n1 < Date: Mon, 06 Mar 2023 05:27:32 GMT\n1 < Content-Length: 0\n1 < Connection: keep-alive\n1 < X-Powered-By: Express\n1 < Access-Control-Allow-Origin: *\n1 < Etag: W\/\"2-vyGp6PvFo4RvsFtPoIWeCReyIC8\"\n1 < Via: 1.1 vegur\n1 < CF-Cache-Status: DYNAMIC\n1 < Report-To: {\"endpoints\":[{\"url\":\"https:\\\/\\\/a.nel.cloudflare.com\\\/report\\\/v3?s=bHWxIEFeaOkSrfjuOOVRaZ%2BLdR7w4NyhpRXlmlVpaBHW%2BCttE%2FvlC41KEK4C7pbE9dN%2BczhYvsqoAf4Nfi2Zyeezyv6%2B89idgyXfCFGA3kEhhXHZmXMunFVqCw%3D%3D\"}],\"group\":\"cf-nel\",\"max_age\":604800}\n1 < NEL: {\"success_fraction\":0,\"report_to\":\"cf-nel\",\"max_age\":604800}\n1 < Server: cloudflare\n1 < CF-RAY: 7a3830ab387ca961-SYD\n\n\n"},{"result":{"nanos":41333,"millis":0.041333,"status":"passed"},"step":{"line":108,"prefix":"Then","index":2,"text":"status 204"}}],"executorName":"pool-1-thread-1","line":105,"name":"Delete a User","description":"","durationMillis":582.719167,"startTime":1678080457270,"failed":false,"refId":"[7:105]","endTime":1678080457854,"exampleIndex":-1},{"sectionIndex":7,"stepResults":[{"result":{"nanos":37417,"millis":0.037417,"status":"passed"},"step":{"background":true,"line":5,"prefix":"*","index":0,"text":"url apiUrl"},"stepLog":"16:27:37.795 karate.env system property was: null \n"},{"result":{"nanos":174416,"millis":0.174416,"status":"passed"},"step":{"line":112,"prefix":"*","index":0,"text":"configure retry = { count: 10, interval: 4000 }"}},{"result":{"nanos":46625,"millis":0.046625,"status":"passed"},"step":{"line":113,"prefix":"Given","index":1,"text":"params { delay: 3 }"}},{"result":{"nanos":50125,"millis":0.050125,"status":"passed"},"step":{"line":114,"prefix":"Given","index":2,"text":"path 'users'"}},{"result":{"nanos":27875,"millis":0.027875,"status":"passed"},"step":{"line":115,"prefix":"And","index":3,"text":"retry until response.support.url == \"https:\/\/reqres.in\/#support-heading\""}},{"result":{"nanos":3586412209,"millis":3586.412209,"status":"passed"},"step":{"line":116,"prefix":"When","index":4,"text":"method Get"},"stepLog":"16:27:37.797 request:\n1 > GET https:\/\/reqres.in\/api\/users?delay=3\n1 > Authorization: Token QpwL5tke4Pnpja7X4\n1 > Host: reqres.in\n1 > Connection: Keep-Alive\n1 > User-Agent: Apache-HttpClient\/4.5.13 (Java\/19.0.2)\n1 > Accept-Encoding: gzip,deflate\n\n\n16:27:41.381 response time in milliseconds: 3584\n1 < 200\n1 < Date: Mon, 06 Mar 2023 05:27:36 GMT\n1 < Content-Type: application\/json; charset=utf-8\n1 < Transfer-Encoding: chunked\n1 < Connection: keep-alive\n1 < X-Powered-By: Express\n1 < Access-Control-Allow-Origin: *\n1 < Etag: W\/\"3e4-2RLXvr5wTg9YQ6aH95CkYoFNuO8\"\n1 < Via: 1.1 vegur\n1 < CF-Cache-Status: DYNAMIC\n1 < Report-To: {\"endpoints\":[{\"url\":\"https:\\\/\\\/a.nel.cloudflare.com\\\/report\\\/v3?s=7qpLVnebg0csHfnALRanuhvUSnV8kjwdWKHdUVbMDf7lkQSQ5mJW49xcL6%2B4OrqDPCi8%2BIUKAWOwFKmN5OEAXEtpdNBpW3EMkN7OidN7eYC6GdwUK5SpsbTMIA%3D%3D\"}],\"group\":\"cf-nel\",\"max_age\":604800}\n1 < NEL: {\"success_fraction\":0,\"report_to\":\"cf-nel\",\"max_age\":604800}\n1 < Server: cloudflare\n1 < CF-RAY: 7a3830ae8b8e55b1-SYD\n{\"page\":1,\"per_page\":6,\"total\":12,\"total_pages\":2,\"data\":[{\"id\":1,\"email\":\"george.bluth@reqres.in\",\"first_name\":\"George\",\"last_name\":\"Bluth\",\"avatar\":\"https:\/\/reqres.in\/img\/faces\/1-image.jpg\"},{\"id\":2,\"email\":\"janet.weaver@reqres.in\",\"first_name\":\"Janet\",\"last_name\":\"Weaver\",\"avatar\":\"https:\/\/reqres.in\/img\/faces\/2-image.jpg\"},{\"id\":3,\"email\":\"emma.wong@reqres.in\",\"first_name\":\"Emma\",\"last_name\":\"Wong\",\"avatar\":\"https:\/\/reqres.in\/img\/faces\/3-image.jpg\"},{\"id\":4,\"email\":\"eve.holt@reqres.in\",\"first_name\":\"Eve\",\"last_name\":\"Holt\",\"avatar\":\"https:\/\/reqres.in\/img\/faces\/4-image.jpg\"},{\"id\":5,\"email\":\"charles.morris@reqres.in\",\"first_name\":\"Charles\",\"last_name\":\"Morris\",\"avatar\":\"https:\/\/reqres.in\/img\/faces\/5-image.jpg\"},{\"id\":6,\"email\":\"tracey.ramos@reqres.in\",\"first_name\":\"Tracey\",\"last_name\":\"Ramos\",\"avatar\":\"https:\/\/reqres.in\/img\/faces\/6-image.jpg\"}],\"support\":{\"url\":\"https:\/\/reqres.in\/#support-heading\",\"text\":\"To keep ReqRes free, contributions towards server costs are appreciated!\"}}\n\n"},{"result":{"nanos":18875,"millis":0.018875,"status":"passed"},"step":{"line":117,"prefix":"Then","index":5,"text":"status 200"}}],"executorName":"pool-1-thread-5","line":111,"name":"Retry call","description":"","durationMillis":3586.767542,"startTime":1678080457795,"failed":false,"refId":"[8:111]","endTime":1678080461383,"exampleIndex":-1}],"callDepth":0,"name":"Users","description":"","resultDate":"2023-03-06 04:27:41 pm","durationMillis":7156.548378,"passedCount":8}