{"failedCount":0,"prefixedPath":"classpath:reqresApp\/feature\/Users.feature","packageQualifiedName":"reqresApp.feature.Users","loopIndex":-1,"relativePath":"reqresApp\/feature\/Users.feature","scenarioResults":[{"sectionIndex":0,"stepResults":[{"result":{"nanos":32541,"millis":0.032541,"status":"passed"},"step":{"background":true,"line":5,"prefix":"*","index":0,"text":"url apiUrl"},"stepLog":"16:28:59.820 karate.env system property was: null \n"},{"result":{"nanos":537209,"millis":0.537209,"status":"passed"},"step":{"line":8,"prefix":"Given","index":0,"text":"params { page: 2}"}},{"result":{"nanos":216542,"millis":0.216542,"status":"passed"},"step":{"line":9,"prefix":"Given","index":1,"text":"path 'users'"}},{"result":{"nanos":50257375,"millis":50.257375,"status":"passed"},"step":{"line":10,"prefix":"When","index":2,"text":"method Get"},"stepLog":"16:28:59.824 request:\n1 > GET https:\/\/reqres.in\/api\/users?page=2\n1 > Authorization: Token QpwL5tke4Pnpja7X4\n1 > Host: reqres.in\n1 > Connection: Keep-Alive\n1 > User-Agent: Apache-HttpClient\/4.5.13 (Java\/19.0.2)\n1 > Accept-Encoding: gzip,deflate\n\n\n16:28:59.871 response time in milliseconds: 47\n1 < 200\n1 < Date: Mon, 06 Mar 2023 05:28:54 GMT\n1 < Content-Type: application\/json; charset=utf-8\n1 < Transfer-Encoding: chunked\n1 < Connection: keep-alive\n1 < X-Powered-By: Express\n1 < Access-Control-Allow-Origin: *\n1 < Etag: W\/\"406-ut0vzoCuidvyMf8arZpMpJ6ZRDw\"\n1 < Via: 1.1 vegur\n1 < Cache-Control: max-age=14400\n1 < CF-Cache-Status: HIT\n1 < Age: 169\n1 < Report-To: {\"endpoints\":[{\"url\":\"https:\\\/\\\/a.nel.cloudflare.com\\\/report\\\/v3?s=eYH9Gi5Q2T3vD0Su4hC69a1HYyb4GY130QTdNAkNaB5Ns%2BNTqXDMzprH1NZTr6PeT8s5UBnl3588dMq%2FmZmeph4E03gr2jdf5qPpMqfHXzosHAHnKnCTfkL15A%3D%3D\"}],\"group\":\"cf-nel\",\"max_age\":604800}\n1 < NEL: {\"success_fraction\":0,\"report_to\":\"cf-nel\",\"max_age\":604800}\n1 < Vary: Accept-Encoding\n1 < Server: cloudflare\n1 < CF-RAY: 7a3832af3867a888-SYD\n{\"page\":2,\"per_page\":6,\"total\":12,\"total_pages\":2,\"data\":[{\"id\":7,\"email\":\"michael.lawson@reqres.in\",\"first_name\":\"Michael\",\"last_name\":\"Lawson\",\"avatar\":\"https:\/\/reqres.in\/img\/faces\/7-image.jpg\"},{\"id\":8,\"email\":\"lindsay.ferguson@reqres.in\",\"first_name\":\"Lindsay\",\"last_name\":\"Ferguson\",\"avatar\":\"https:\/\/reqres.in\/img\/faces\/8-image.jpg\"},{\"id\":9,\"email\":\"tobias.funke@reqres.in\",\"first_name\":\"Tobias\",\"last_name\":\"Funke\",\"avatar\":\"https:\/\/reqres.in\/img\/faces\/9-image.jpg\"},{\"id\":10,\"email\":\"byron.fields@reqres.in\",\"first_name\":\"Byron\",\"last_name\":\"Fields\",\"avatar\":\"https:\/\/reqres.in\/img\/faces\/10-image.jpg\"},{\"id\":11,\"email\":\"george.edwards@reqres.in\",\"first_name\":\"George\",\"last_name\":\"Edwards\",\"avatar\":\"https:\/\/reqres.in\/img\/faces\/11-image.jpg\"},{\"id\":12,\"email\":\"rachel.howell@reqres.in\",\"first_name\":\"Rachel\",\"last_name\":\"Howell\",\"avatar\":\"https:\/\/reqres.in\/img\/faces\/12-image.jpg\"}],\"support\":{\"url\":\"https:\/\/reqres.in\/#support-heading\",\"text\":\"To keep ReqRes free, contributions towards server costs are appreciated!\"}}\n\n"},{"result":{"nanos":21625,"millis":0.021625,"status":"passed"},"step":{"line":11,"prefix":"Then","index":3,"text":"status 200"}},{"result":{"nanos":1265083,"millis":1.265083,"status":"passed"},"step":{"endLine":21,"line":12,"prefix":"And","docString":"{\n    \"id\": \"#number\",\n    \"email\": \"#string\",\n    \"first_name\": \"#string\",\n    \"last_name\": \"#string\",\n    \"avatar\": \"#string\"\n}","index":4,"text":"match each response.data =="}}],"executorName":"pool-1-thread-1","line":7,"name":"List Users","description":"","durationMillis":52.330375,"startTime":1678080539815,"failed":false,"refId":"[1:7]","endTime":1678080539873,"exampleIndex":-1},{"sectionIndex":1,"stepResults":[{"result":{"nanos":40583,"millis":0.040583,"status":"passed"},"step":{"background":true,"line":5,"prefix":"*","index":0,"text":"url apiUrl"},"stepLog":"16:28:59.817 karate.env system property was: null \n"},{"result":{"nanos":216875,"millis":0.216875,"status":"passed"},"step":{"line":24,"prefix":"Given","index":0,"text":"path 'users\/2'"}},{"result":{"nanos":610656666,"millis":610.656666,"status":"passed"},"step":{"line":25,"prefix":"When","index":1,"text":"method Get"},"stepLog":"16:28:59.819 request:\n1 > GET https:\/\/reqres.in\/api\/users\/2\n1 > Authorization: Token QpwL5tke4Pnpja7X4\n1 > Host: reqres.in\n1 > Connection: Keep-Alive\n1 > User-Agent: Apache-HttpClient\/4.5.13 (Java\/19.0.2)\n1 > Accept-Encoding: gzip,deflate\n\n\n16:29:00.428 response time in milliseconds: 605\n1 < 200\n1 < Date: Mon, 06 Mar 2023 05:28:55 GMT\n1 < Content-Type: application\/json; charset=utf-8\n1 < Transfer-Encoding: chunked\n1 < Connection: keep-alive\n1 < X-Powered-By: Express\n1 < Access-Control-Allow-Origin: *\n1 < Etag: W\/\"118-pbdwwFo9SKNhD3Lx5iHJyngpq00\"\n1 < Via: 1.1 vegur\n1 < CF-Cache-Status: BYPASS\n1 < Report-To: {\"endpoints\":[{\"url\":\"https:\\\/\\\/a.nel.cloudflare.com\\\/report\\\/v3?s=YrAE6vkWzkCIeUI%2BkZzbR5YU1uBHH2FKEkvlj%2FxWZajhgPV6%2BgnQXoKUH5nd88NR9JG2kUtRstgR6JU3upKUbMkqEdk6pGDwsr3hLSx%2FZBRvg61bXNFkuNuc8A%3D%3D\"}],\"group\":\"cf-nel\",\"max_age\":604800}\n1 < NEL: {\"success_fraction\":0,\"report_to\":\"cf-nel\",\"max_age\":604800}\n1 < Vary: Accept-Encoding\n1 < Server: cloudflare\n1 < CF-RAY: 7a3832af2d9ca89b-SYD\n{\"data\":{\"id\":2,\"email\":\"janet.weaver@reqres.in\",\"first_name\":\"Janet\",\"last_name\":\"Weaver\",\"avatar\":\"https:\/\/reqres.in\/img\/faces\/2-image.jpg\"},\"support\":{\"url\":\"https:\/\/reqres.in\/#support-heading\",\"text\":\"To keep ReqRes free, contributions towards server costs are appreciated!\"}}\n\n"},{"result":{"nanos":7042,"millis":0.007042,"status":"passed"},"step":{"line":26,"prefix":"Then","index":2,"text":"status 200"}},{"result":{"nanos":551042,"millis":0.551042,"status":"passed"},"step":{"endLine":42,"line":27,"prefix":"And","docString":"{\n    \"data\": {\n        \"id\": \"#number\",\n        \"email\": \"#string\",\n        \"first_name\": \"#string\",\n        \"last_name\": \"#string\",\n        \"avatar\": \"#string\"\n    },\n    \"support\": {\n        \"url\": \"#string\",\n        \"text\": \"#string\"\n    }\n}","index":3,"text":"match response =="}}],"executorName":"pool-1-thread-4","line":23,"name":"List a Single User","description":"","durationMillis":611.472208,"startTime":1678080539817,"failed":false,"refId":"[2:23]","endTime":1678080540430,"exampleIndex":-1},{"sectionIndex":2,"stepResults":[{"result":{"nanos":53458,"millis":0.053458,"status":"passed"},"step":{"background":true,"line":5,"prefix":"*","index":0,"text":"url apiUrl"},"stepLog":"16:28:59.876 karate.env system property was: null \n"},{"result":{"nanos":346208,"millis":0.346208,"status":"passed"},"step":{"line":46,"prefix":"Given","index":0,"text":"path 'users\/23'"}},{"result":{"nanos":586634625,"millis":586.634625,"status":"passed"},"step":{"line":47,"prefix":"When","index":1,"text":"method Get"},"stepLog":"16:28:59.877 request:\n1 > GET https:\/\/reqres.in\/api\/users\/23\n1 > Authorization: Token QpwL5tke4Pnpja7X4\n1 > Host: reqres.in\n1 > Connection: Keep-Alive\n1 > User-Agent: Apache-HttpClient\/4.5.13 (Java\/19.0.2)\n1 > Accept-Encoding: gzip,deflate\n\n\n16:29:00.463 response time in milliseconds: 586\n1 < 404\n1 < Date: Mon, 06 Mar 2023 05:28:55 GMT\n1 < Content-Type: application\/json; charset=utf-8\n1 < Content-Length: 2\n1 < Connection: keep-alive\n1 < X-Powered-By: Express\n1 < Access-Control-Allow-Origin: *\n1 < Etag: W\/\"2-vyGp6PvFo4RvsFtPoIWeCReyIC8\"\n1 < Via: 1.1 vegur\n1 < CF-Cache-Status: BYPASS\n1 < Report-To: {\"endpoints\":[{\"url\":\"https:\\\/\\\/a.nel.cloudflare.com\\\/report\\\/v3?s=YkoUlAf%2FwsLpYxy2xut3yfBD2A%2BRunVe6zrb4dv%2FZ1EjZjJJHcJEtz5VB2xB2bd4qJp1%2BSedMRpdUjAlJYF0nqOjIlAlgxursOyuWIw7X4j67NrTiPzEBBuZdg%3D%3D\"}],\"group\":\"cf-nel\",\"max_age\":604800}\n1 < NEL: {\"success_fraction\":0,\"report_to\":\"cf-nel\",\"max_age\":604800}\n1 < Vary: Accept-Encoding\n1 < Server: cloudflare\n1 < CF-RAY: 7a3832af8c7aa837-SYD\n{}\n\n"},{"result":{"nanos":9000,"millis":0.009,"status":"passed"},"step":{"line":48,"prefix":"Then","index":2,"text":"status 404"}}],"executorName":"pool-1-thread-1","line":45,"name":"List a Non-exisitng User","description":"","durationMillis":587.043291,"startTime":1678080539875,"failed":false,"refId":"[3:45]","endTime":1678080540463,"exampleIndex":-1},{"sectionIndex":3,"stepResults":[{"result":{"nanos":54209,"millis":0.054209,"status":"passed"},"step":{"background":true,"line":5,"prefix":"*","index":0,"text":"url apiUrl"},"stepLog":"16:29:00.434 karate.env system property was: null \n"},{"result":{"nanos":118375,"millis":0.118375,"status":"passed"},"step":{"line":52,"prefix":"Given","index":0,"text":"def userData = {\"name\": \"morpheus\", \"job\": \"leader\"}"}},{"result":{"nanos":10051000,"millis":10.051,"status":"passed"},"step":{"line":53,"prefix":"*","index":1,"text":"def timeValidator = read('classpath:helpers\/timeValidator.js')"}},{"result":{"nanos":314041,"millis":0.314041,"status":"passed"},"step":{"line":54,"prefix":"Given","index":2,"text":"path 'users'"}},{"result":{"nanos":109000,"millis":0.109,"status":"passed"},"step":{"endLine":61,"line":55,"prefix":"And","docString":"{\n    \"name\": \"morpheus\",\n    \"job\": \"leader\"\n}","index":3,"text":"request"}},{"result":{"nanos":596566417,"millis":596.566417,"status":"passed"},"step":{"line":62,"prefix":"When","index":4,"text":"method Post"},"stepLog":"16:29:00.446 request:\n1 > POST https:\/\/reqres.in\/api\/users\n1 > Authorization: Token QpwL5tke4Pnpja7X4\n1 > Content-Type: application\/json; charset=UTF-8\n1 > Content-Length: 34\n1 > Host: reqres.in\n1 > Connection: Keep-Alive\n1 > User-Agent: Apache-HttpClient\/4.5.13 (Java\/19.0.2)\n1 > Accept-Encoding: gzip,deflate\n{\"name\":\"morpheus\",\"job\":\"leader\"}\n\n16:29:01.041 response time in milliseconds: 595\n1 < 201\n1 < Date: Mon, 06 Mar 2023 05:28:56 GMT\n1 < Content-Type: application\/json; charset=utf-8\n1 < Content-Length: 84\n1 < Connection: keep-alive\n1 < X-Powered-By: Express\n1 < Access-Control-Allow-Origin: *\n1 < Etag: W\/\"54-W7EmFxYWEfQkBE8oX+aFhI3C5bY\"\n1 < Via: 1.1 vegur\n1 < CF-Cache-Status: DYNAMIC\n1 < Report-To: {\"endpoints\":[{\"url\":\"https:\\\/\\\/a.nel.cloudflare.com\\\/report\\\/v3?s=PImdnTcu9nJoVXAi8X1CAJfSUYOdspDdTArRM11Vl%2FO%2FGV%2BDoYDWXQ4KHFt4F%2B%2F%2FITrZHfFw8B02Up6biaFvnRx%2BHd97AZnt9oY6MPA7VAXBJTgTAJ%2F4nAdI8Q%3D%3D\"}],\"group\":\"cf-nel\",\"max_age\":604800}\n1 < NEL: {\"success_fraction\":0,\"report_to\":\"cf-nel\",\"max_age\":604800}\n1 < Server: cloudflare\n1 < CF-RAY: 7a3832b31d9aa801-SYD\n{\"name\":\"morpheus\",\"job\":\"leader\",\"id\":\"355\",\"createdAt\":\"2023-03-06T05:28:55.934Z\"}\n\n"},{"result":{"nanos":12583,"millis":0.012583,"status":"passed"},"step":{"line":63,"prefix":"Then","index":5,"text":"status 201"}},{"result":{"nanos":13341333,"millis":13.341333,"status":"passed"},"step":{"endLine":72,"line":64,"prefix":"And","docString":"{\n    \"name\": \"#string\",\n    \"job\": \"#string\",\n    \"id\": \"#string\",\n    \"createdAt\": \"#? timeValidator(_)\"\n}","index":6,"text":"match response =="}}],"executorName":"pool-1-thread-5","line":51,"name":"Create a User","description":"","durationMillis":620.566958,"startTime":1678080540433,"failed":false,"refId":"[4:51]","endTime":1678080541055,"exampleIndex":-1},{"sectionIndex":4,"stepResults":[{"result":{"nanos":46041,"millis":0.046041,"status":"passed"},"step":{"background":true,"line":5,"prefix":"*","index":0,"text":"url apiUrl"},"stepLog":"16:29:00.435 karate.env system property was: null \n"},{"result":{"nanos":92791,"millis":0.092791,"status":"passed"},"step":{"line":76,"prefix":"Given","index":0,"text":"def userData = {\"name\": \"morpheus\", \"job\": \"zion resident\"}"}},{"result":{"nanos":58417,"millis":0.058417,"status":"passed"},"step":{"line":77,"prefix":"Given","index":1,"text":"path 'users\/2'"}},{"result":{"nanos":31750,"millis":0.03175,"status":"passed"},"step":{"endLine":84,"line":78,"prefix":"And","docString":"{\n    \"name\": \"morpheus\",\n    \"job\": \"zion resident\"\n}","index":2,"text":"request"}},{"result":{"nanos":604936667,"millis":604.936667,"status":"passed"},"step":{"line":85,"prefix":"When","index":3,"text":"method Put"},"stepLog":"16:29:00.437 request:\n1 > PUT https:\/\/reqres.in\/api\/users\/2\n1 > Authorization: Token QpwL5tke4Pnpja7X4\n1 > Content-Type: application\/json; charset=UTF-8\n1 > Content-Length: 41\n1 > Host: reqres.in\n1 > Connection: Keep-Alive\n1 > User-Agent: Apache-HttpClient\/4.5.13 (Java\/19.0.2)\n1 > Accept-Encoding: gzip,deflate\n{\"name\":\"morpheus\",\"job\":\"zion resident\"}\n\n16:29:01.040 response time in milliseconds: 602\n1 < 200\n1 < Date: Mon, 06 Mar 2023 05:28:56 GMT\n1 < Content-Type: application\/json; charset=utf-8\n1 < Transfer-Encoding: chunked\n1 < Connection: keep-alive\n1 < X-Powered-By: Express\n1 < Access-Control-Allow-Origin: *\n1 < Etag: W\/\"50-cLQ3\/bcq4PTk\/3WloMOcyFLqDeM\"\n1 < Via: 1.1 vegur\n1 < CF-Cache-Status: DYNAMIC\n1 < Report-To: {\"endpoints\":[{\"url\":\"https:\\\/\\\/a.nel.cloudflare.com\\\/report\\\/v3?s=25WPW%2BqRseR4jv2jcbTrgkiXl0L%2FnBUgkJGnN03436d9Bs9OtjrHeXW337jNihvhf9yftu8WMc1145wHxWDgnLI%2FVyBOsWi%2FVZsqx%2FhK%2F3aiDykwc%2FPPWdBimA%3D%3D\"}],\"group\":\"cf-nel\",\"max_age\":604800}\n1 < NEL: {\"success_fraction\":0,\"report_to\":\"cf-nel\",\"max_age\":604800}\n1 < Vary: Accept-Encoding\n1 < Server: cloudflare\n1 < CF-RAY: 7a3832b30d1aa967-SYD\n{\"name\":\"morpheus\",\"job\":\"zion resident\",\"updatedAt\":\"2023-03-06T05:28:55.928Z\"}\n\n"},{"result":{"nanos":20541,"millis":0.020541,"status":"passed"},"step":{"line":86,"prefix":"Then","index":4,"text":"status 200"}},{"result":{"nanos":1387083,"millis":1.387083,"status":"passed"},"step":{"line":87,"prefix":"And","index":5,"text":"match response.job == userData.job"}}],"executorName":"pool-1-thread-4","line":75,"name":"Update a User's info using Put","description":"","durationMillis":606.57329,"startTime":1678080540435,"failed":false,"refId":"[5:75]","endTime":1678080541043,"exampleIndex":-1},{"sectionIndex":5,"stepResults":[{"result":{"nanos":180750,"millis":0.18075,"status":"passed"},"step":{"background":true,"line":5,"prefix":"*","index":0,"text":"url apiUrl"},"stepLog":"16:29:00.437 karate.env system property was: null \n"},{"result":{"nanos":157417,"millis":0.157417,"status":"passed"},"step":{"line":91,"prefix":"Given","index":0,"text":"def userData = {\"name\": \"morpheus\", \"job\": \"zion resident\"}"}},{"result":{"nanos":211125,"millis":0.211125,"status":"passed"},"step":{"line":92,"prefix":"Given","index":1,"text":"path 'users\/2'"}},{"result":{"nanos":43333,"millis":0.043333,"status":"passed"},"step":{"endLine":99,"line":93,"prefix":"And","docString":"{\n    \"name\": \"morpheus\",\n    \"job\": \"zion resident\"\n}","index":2,"text":"request"}},{"result":{"nanos":604489541,"millis":604.489541,"status":"passed"},"step":{"line":100,"prefix":"When","index":3,"text":"method Patch"},"stepLog":"16:29:00.439 request:\n1 > PATCH https:\/\/reqres.in\/api\/users\/2\n1 > Authorization: Token QpwL5tke4Pnpja7X4\n1 > Content-Type: application\/json; charset=UTF-8\n1 > Content-Length: 41\n1 > Host: reqres.in\n1 > Connection: Keep-Alive\n1 > User-Agent: Apache-HttpClient\/4.5.13 (Java\/19.0.2)\n1 > Accept-Encoding: gzip,deflate\n{\"name\":\"morpheus\",\"job\":\"zion resident\"}\n\n16:29:01.043 response time in milliseconds: 603\n1 < 200\n1 < Date: Mon, 06 Mar 2023 05:28:56 GMT\n1 < Content-Type: application\/json; charset=utf-8\n1 < Transfer-Encoding: chunked\n1 < Connection: keep-alive\n1 < X-Powered-By: Express\n1 < Access-Control-Allow-Origin: *\n1 < Etag: W\/\"50-f3LFiBCNce\/FgbYQqsgdo5r3e7c\"\n1 < Via: 1.1 vegur\n1 < CF-Cache-Status: DYNAMIC\n1 < Report-To: {\"endpoints\":[{\"url\":\"https:\\\/\\\/a.nel.cloudflare.com\\\/report\\\/v3?s=GVcR1WSmFw4apA4tsbmhGheRxeHzJzUrqQoH4O6F0D01gLdPrmkr8EN%2F4ka0%2FxeIdJWnSG7S2ZqlIzaASnw5R%2FKJMe2XTLJVGK9z41P9iXsLxWAd7Y1kSKiUUw%3D%3D\"}],\"group\":\"cf-nel\",\"max_age\":604800}\n1 < NEL: {\"success_fraction\":0,\"report_to\":\"cf-nel\",\"max_age\":604800}\n1 < Server: cloudflare\n1 < CF-RAY: 7a3832b30df0aabb-SYD\n{\"name\":\"morpheus\",\"job\":\"zion resident\",\"updatedAt\":\"2023-03-06T05:28:55.941Z\"}\n\n"},{"result":{"nanos":13875,"millis":0.013875,"status":"passed"},"step":{"line":101,"prefix":"Then","index":4,"text":"status 200"}},{"result":{"nanos":1235208,"millis":1.235208,"status":"passed"},"step":{"line":102,"prefix":"And","index":5,"text":"match response.job == userData.job"}}],"executorName":"pool-1-thread-2","line":90,"name":"Update a User's info using Patch","description":"","durationMillis":606.331249,"startTime":1678080540436,"failed":false,"refId":"[6:90]","endTime":1678080541045,"exampleIndex":-1},{"sectionIndex":6,"stepResults":[{"result":{"nanos":32500,"millis":0.0325,"status":"passed"},"step":{"background":true,"line":5,"prefix":"*","index":0,"text":"url apiUrl"},"stepLog":"16:29:00.465 karate.env system property was: null \n"},{"result":{"nanos":174750,"millis":0.17475,"status":"passed"},"step":{"line":106,"prefix":"Given","index":0,"text":"path 'users\/2'"}},{"result":{"nanos":583235416,"millis":583.235416,"status":"passed"},"step":{"line":107,"prefix":"When","index":1,"text":"method Delete"},"stepLog":"16:29:00.467 request:\n1 > DELETE https:\/\/reqres.in\/api\/users\/2\n1 > Authorization: Token QpwL5tke4Pnpja7X4\n1 > Host: reqres.in\n1 > Connection: Keep-Alive\n1 > User-Agent: Apache-HttpClient\/4.5.13 (Java\/19.0.2)\n1 > Accept-Encoding: gzip,deflate\n\n\n16:29:01.048 response time in milliseconds: 581\n1 < 204\n1 < Date: Mon, 06 Mar 2023 05:28:56 GMT\n1 < Content-Length: 0\n1 < Connection: keep-alive\n1 < X-Powered-By: Express\n1 < Access-Control-Allow-Origin: *\n1 < Etag: W\/\"2-vyGp6PvFo4RvsFtPoIWeCReyIC8\"\n1 < Via: 1.1 vegur\n1 < CF-Cache-Status: DYNAMIC\n1 < Report-To: {\"endpoints\":[{\"url\":\"https:\\\/\\\/a.nel.cloudflare.com\\\/report\\\/v3?s=yTRY0WOJDZdDrptaMrqlHinu9lN5lTOJpR6D%2BkkS4hA%2FGCsiWFVV6kEFg2P5ZwvCQtH8y4Qrrv2y0%2F7aitrizB8lmvziAkHYATPW4PqVU84dFefADjL4%2F1FWeg%3D%3D\"}],\"group\":\"cf-nel\",\"max_age\":604800}\n1 < NEL: {\"success_fraction\":0,\"report_to\":\"cf-nel\",\"max_age\":604800}\n1 < Server: cloudflare\n1 < CF-RAY: 7a3832b33e22a96b-SYD\n\n\n"},{"result":{"nanos":12916,"millis":0.012916,"status":"passed"},"step":{"line":108,"prefix":"Then","index":2,"text":"status 204"}}],"executorName":"pool-1-thread-1","line":105,"name":"Delete a User","description":"","durationMillis":583.455582,"startTime":1678080540465,"failed":false,"refId":"[7:105]","endTime":1678080541049,"exampleIndex":-1},{"sectionIndex":7,"stepResults":[{"result":{"nanos":297208,"millis":0.297208,"status":"passed"},"step":{"background":true,"line":5,"prefix":"*","index":0,"text":"url apiUrl"},"stepLog":"16:29:01.056 karate.env system property was: null \n"},{"result":{"nanos":169458,"millis":0.169458,"status":"passed"},"step":{"line":112,"prefix":"*","index":0,"text":"configure retry = { count: 10, interval: 4000 }"}},{"result":{"nanos":64250,"millis":0.06425,"status":"passed"},"step":{"line":113,"prefix":"Given","index":1,"text":"params { delay: 3 }"}},{"result":{"nanos":263334,"millis":0.263334,"status":"passed"},"step":{"line":114,"prefix":"Given","index":2,"text":"path 'users'"}},{"result":{"nanos":36708,"millis":0.036708,"status":"passed"},"step":{"line":115,"prefix":"And","index":3,"text":"retry until response.support.url == \"https:\/\/reqres.in\/#support-heading\""}},{"result":{"nanos":3582610209,"millis":3582.610209,"status":"passed"},"step":{"line":116,"prefix":"When","index":4,"text":"method Get"},"stepLog":"16:29:01.059 request:\n1 > GET https:\/\/reqres.in\/api\/users?delay=3\n1 > Authorization: Token QpwL5tke4Pnpja7X4\n1 > Host: reqres.in\n1 > Connection: Keep-Alive\n1 > User-Agent: Apache-HttpClient\/4.5.13 (Java\/19.0.2)\n1 > Accept-Encoding: gzip,deflate\n\n\n16:29:04.640 response time in milliseconds: 3581\n1 < 200\n1 < Date: Mon, 06 Mar 2023 05:28:59 GMT\n1 < Content-Type: application\/json; charset=utf-8\n1 < Transfer-Encoding: chunked\n1 < Connection: keep-alive\n1 < X-Powered-By: Express\n1 < Access-Control-Allow-Origin: *\n1 < Etag: W\/\"3e4-2RLXvr5wTg9YQ6aH95CkYoFNuO8\"\n1 < Via: 1.1 vegur\n1 < CF-Cache-Status: DYNAMIC\n1 < Report-To: {\"endpoints\":[{\"url\":\"https:\\\/\\\/a.nel.cloudflare.com\\\/report\\\/v3?s=DWYrDVQtSEs%2BiW9mXmyLxDbmLlyzZ%2BrFqxWfCKiKUIWkjvQ2Q2h90sClTuwXJnE0spEEsOJSPXkTgK0oGl2%2FRRQ669%2BPxsNDw%2Ft90ls1nR397NFA%2FREkriMymA%3D%3D\"}],\"group\":\"cf-nel\",\"max_age\":604800}\n1 < NEL: {\"success_fraction\":0,\"report_to\":\"cf-nel\",\"max_age\":604800}\n1 < Server: cloudflare\n1 < CF-RAY: 7a3832b6eee2a96e-SYD\n{\"page\":1,\"per_page\":6,\"total\":12,\"total_pages\":2,\"data\":[{\"id\":1,\"email\":\"george.bluth@reqres.in\",\"first_name\":\"George\",\"last_name\":\"Bluth\",\"avatar\":\"https:\/\/reqres.in\/img\/faces\/1-image.jpg\"},{\"id\":2,\"email\":\"janet.weaver@reqres.in\",\"first_name\":\"Janet\",\"last_name\":\"Weaver\",\"avatar\":\"https:\/\/reqres.in\/img\/faces\/2-image.jpg\"},{\"id\":3,\"email\":\"emma.wong@reqres.in\",\"first_name\":\"Emma\",\"last_name\":\"Wong\",\"avatar\":\"https:\/\/reqres.in\/img\/faces\/3-image.jpg\"},{\"id\":4,\"email\":\"eve.holt@reqres.in\",\"first_name\":\"Eve\",\"last_name\":\"Holt\",\"avatar\":\"https:\/\/reqres.in\/img\/faces\/4-image.jpg\"},{\"id\":5,\"email\":\"charles.morris@reqres.in\",\"first_name\":\"Charles\",\"last_name\":\"Morris\",\"avatar\":\"https:\/\/reqres.in\/img\/faces\/5-image.jpg\"},{\"id\":6,\"email\":\"tracey.ramos@reqres.in\",\"first_name\":\"Tracey\",\"last_name\":\"Ramos\",\"avatar\":\"https:\/\/reqres.in\/img\/faces\/6-image.jpg\"}],\"support\":{\"url\":\"https:\/\/reqres.in\/#support-heading\",\"text\":\"To keep ReqRes free, contributions towards server costs are appreciated!\"}}\n\n"},{"result":{"nanos":19542,"millis":0.019542,"status":"passed"},"step":{"line":117,"prefix":"Then","index":5,"text":"status 200"}}],"executorName":"pool-1-thread-4","line":111,"name":"Retry call","description":"","durationMillis":3583.460709,"startTime":1678080541046,"failed":false,"refId":"[8:111]","endTime":1678080544641,"exampleIndex":-1}],"callDepth":0,"name":"Users","description":"","resultDate":"2023-03-06 04:29:04 pm","durationMillis":7251.233662,"passedCount":8}