{"failedCount":0,"prefixedPath":"classpath:reqresApp\/feature\/Resources.feature","packageQualifiedName":"reqresApp.feature.Resources","loopIndex":-1,"relativePath":"reqresApp\/feature\/Resources.feature","scenarioResults":[{"sectionIndex":0,"stepResults":[{"result":{"nanos":111458,"millis":0.111458,"status":"passed"},"step":{"background":true,"line":5,"prefix":"*","index":0,"text":"url apiUrl"},"stepLog":"16:28:59.020 karate.env system property was: null \n"},{"result":{"nanos":368125,"millis":0.368125,"status":"passed"},"step":{"line":8,"prefix":"Given","index":0,"text":"path 'unkonwn'"}},{"result":{"nanos":787035875,"millis":787.035875,"status":"passed"},"step":{"line":9,"prefix":"When","index":1,"text":"method Get"},"stepLog":"16:28:59.022 request:\n1 > GET https:\/\/reqres.in\/api\/unkonwn\n1 > Authorization: Token QpwL5tke4Pnpja7X4\n1 > Host: reqres.in\n1 > Connection: Keep-Alive\n1 > User-Agent: Apache-HttpClient\/4.5.13 (Java\/19.0.2)\n1 > Accept-Encoding: gzip,deflate\n\n\n16:28:59.808 response time in milliseconds: 786\n1 < 200\n1 < Date: Mon, 06 Mar 2023 05:28:54 GMT\n1 < Content-Type: application\/json; charset=utf-8\n1 < Transfer-Encoding: chunked\n1 < Connection: keep-alive\n1 < X-Powered-By: Express\n1 < Access-Control-Allow-Origin: *\n1 < Etag: W\/\"2c1-N6Rqerxquq2kgQhL51EiSg4x0R8\"\n1 < Via: 1.1 vegur\n1 < CF-Cache-Status: BYPASS\n1 < Report-To: {\"endpoints\":[{\"url\":\"https:\\\/\\\/a.nel.cloudflare.com\\\/report\\\/v3?s=KTv2%2B6wdZQBNDU4ti7wiIoOAYYf71k0yo3tyLuViQSHxrpgKV20VYjR7ASXNSiWOc21lNose80C7Ox9Sge0qkO79ImX7yWqGLqtfwmX9d%2Fg4eqrawOHuNPKyhA%3D%3D\"}],\"group\":\"cf-nel\",\"max_age\":604800}\n1 < NEL: {\"success_fraction\":0,\"report_to\":\"cf-nel\",\"max_age\":604800}\n1 < Vary: Accept-Encoding\n1 < Server: cloudflare\n1 < CF-RAY: 7a3832aa3b7daaf5-SYD\n{\"page\":1,\"per_page\":6,\"total\":12,\"total_pages\":2,\"data\":[{\"id\":1,\"name\":\"cerulean\",\"year\":2000,\"color\":\"#98B2D1\",\"pantone_value\":\"15-4020\"},{\"id\":2,\"name\":\"fuchsia rose\",\"year\":2001,\"color\":\"#C74375\",\"pantone_value\":\"17-2031\"},{\"id\":3,\"name\":\"true red\",\"year\":2002,\"color\":\"#BF1932\",\"pantone_value\":\"19-1664\"},{\"id\":4,\"name\":\"aqua sky\",\"year\":2003,\"color\":\"#7BC4C4\",\"pantone_value\":\"14-4811\"},{\"id\":5,\"name\":\"tigerlily\",\"year\":2004,\"color\":\"#E2583E\",\"pantone_value\":\"17-1456\"},{\"id\":6,\"name\":\"blue turquoise\",\"year\":2005,\"color\":\"#53B0AE\",\"pantone_value\":\"15-5217\"}],\"support\":{\"url\":\"https:\/\/reqres.in\/#support-heading\",\"text\":\"To keep ReqRes free, contributions towards server costs are appreciated!\"}}\n\n"},{"result":{"nanos":19500,"millis":0.0195,"status":"passed"},"step":{"line":10,"prefix":"Then","index":2,"text":"status 200"}},{"result":{"nanos":4631417,"millis":4.631417,"status":"passed"},"step":{"endLine":20,"line":11,"prefix":"And","docString":"{\n    \"id\": \"#number\",\n    \"name\": \"#string\",\n    \"year\": \"#number\",\n    \"color\": \"#string\",\n    \"pantone_value\": \"#string\"\n}","index":3,"text":"match each response.data =="}}],"executorName":"pool-1-thread-4","line":7,"name":"List Resources","description":"","durationMillis":792.166375,"startTime":1678080539020,"failed":false,"refId":"[1:7]","endTime":1678080539814,"exampleIndex":-1},{"sectionIndex":1,"stepResults":[{"result":{"nanos":57542,"millis":0.057542,"status":"passed"},"step":{"background":true,"line":5,"prefix":"*","index":0,"text":"url apiUrl"},"stepLog":"16:28:59.022 karate.env system property was: null \n"},{"result":{"nanos":171916,"millis":0.171916,"status":"passed"},"step":{"line":23,"prefix":"Given","index":0,"text":"path 'unkonwn\/2'"}},{"result":{"nanos":786509958,"millis":786.509958,"status":"passed"},"step":{"line":24,"prefix":"When","index":1,"text":"method Get"},"stepLog":"16:28:59.023 request:\n1 > GET https:\/\/reqres.in\/api\/unkonwn\/2\n1 > Authorization: Token QpwL5tke4Pnpja7X4\n1 > Host: reqres.in\n1 > Connection: Keep-Alive\n1 > User-Agent: Apache-HttpClient\/4.5.13 (Java\/19.0.2)\n1 > Accept-Encoding: gzip,deflate\n\n\n16:28:59.808 response time in milliseconds: 785\n1 < 200\n1 < Date: Mon, 06 Mar 2023 05:28:54 GMT\n1 < Content-Type: application\/json; charset=utf-8\n1 < Transfer-Encoding: chunked\n1 < Connection: keep-alive\n1 < X-Powered-By: Express\n1 < Access-Control-Allow-Origin: *\n1 < Etag: W\/\"e8-ov4wWh4\/OY1IMQMqWgskYtOFnVs\"\n1 < Via: 1.1 vegur\n1 < CF-Cache-Status: BYPASS\n1 < Report-To: {\"endpoints\":[{\"url\":\"https:\\\/\\\/a.nel.cloudflare.com\\\/report\\\/v3?s=2U7FEdwRYz%2BIRU7h5o5%2BYRHDcKkgT4Zb8O1BOYBORdZhc320MwyGr7DgvQPg7Zsq2YGKp3U5LlEU8NjdaZhqLIuHjOJrRybYJSZ%2BtK0DWN7xLkV8PQi%2BX3CD4A%3D%3D\"}],\"group\":\"cf-nel\",\"max_age\":604800}\n1 < NEL: {\"success_fraction\":0,\"report_to\":\"cf-nel\",\"max_age\":604800}\n1 < Vary: Accept-Encoding\n1 < Server: cloudflare\n1 < CF-RAY: 7a3832aa3eba5509-SYD\n{\"data\":{\"id\":2,\"name\":\"fuchsia rose\",\"year\":2001,\"color\":\"#C74375\",\"pantone_value\":\"17-2031\"},\"support\":{\"url\":\"https:\/\/reqres.in\/#support-heading\",\"text\":\"To keep ReqRes free, contributions towards server costs are appreciated!\"}}\n\n"},{"result":{"nanos":27292,"millis":0.027292,"status":"passed"},"step":{"line":25,"prefix":"Then","index":2,"text":"status 200"}},{"result":{"nanos":470584,"millis":0.470584,"status":"passed"},"step":{"endLine":41,"line":26,"prefix":"And","docString":"{\n    \"data\": {\n        \"id\": \"#number\",\n        \"name\": \"#string\",\n        \"year\": \"#number\",\n        \"color\": \"#string\",\n        \"pantone_value\": \"#string\"\n    },\n    \"support\": {\n        \"url\": \"#string\",\n        \"text\": \"#string\"\n    }\n}","index":3,"text":"match response =="}}],"executorName":"pool-1-thread-5","line":22,"name":"List a Single Resource","description":"","durationMillis":787.237292,"startTime":1678080539020,"failed":false,"refId":"[2:22]","endTime":1678080539810,"exampleIndex":-1},{"sectionIndex":2,"stepResults":[{"result":{"nanos":40375,"millis":0.040375,"status":"passed"},"step":{"background":true,"line":5,"prefix":"*","index":0,"text":"url apiUrl"},"stepLog":"16:28:59.819 karate.env system property was: null \n"},{"result":{"nanos":195875,"millis":0.195875,"status":"passed"},"step":{"line":44,"prefix":"Given","index":0,"text":"path 'unkonwn\/23'"}},{"result":{"nanos":609231750,"millis":609.23175,"status":"passed"},"step":{"line":45,"prefix":"When","index":1,"text":"method Get"},"stepLog":"16:28:59.820 request:\n1 > GET https:\/\/reqres.in\/api\/unkonwn\/23\n1 > Authorization: Token QpwL5tke4Pnpja7X4\n1 > Host: reqres.in\n1 > Connection: Keep-Alive\n1 > User-Agent: Apache-HttpClient\/4.5.13 (Java\/19.0.2)\n1 > Accept-Encoding: gzip,deflate\n\n\n16:29:00.428 response time in milliseconds: 604\n1 < 404\n1 < Date: Mon, 06 Mar 2023 05:28:55 GMT\n1 < Content-Type: application\/json; charset=utf-8\n1 < Content-Length: 2\n1 < Connection: keep-alive\n1 < X-Powered-By: Express\n1 < Access-Control-Allow-Origin: *\n1 < Etag: W\/\"2-vyGp6PvFo4RvsFtPoIWeCReyIC8\"\n1 < Via: 1.1 vegur\n1 < CF-Cache-Status: BYPASS\n1 < Report-To: {\"endpoints\":[{\"url\":\"https:\\\/\\\/a.nel.cloudflare.com\\\/report\\\/v3?s=dNqBMeVDM%2BPZQx5MH%2B4xvYRbDALccqte215V9YuawbtI9Fov%2F8RxMPcyb8He0GdpocvttcHPEUsLaUKnL3dY5g9TJlfLox%2BNABk1LrGX2vuZli1W6YNSKb9bEA%3D%3D\"}],\"group\":\"cf-nel\",\"max_age\":604800}\n1 < NEL: {\"success_fraction\":0,\"report_to\":\"cf-nel\",\"max_age\":604800}\n1 < Vary: Accept-Encoding\n1 < Server: cloudflare\n1 < CF-RAY: 7a3832af2b6ea870-SYD\n{}\n\n"},{"result":{"nanos":24500,"millis":0.0245,"status":"passed"},"step":{"line":46,"prefix":"Then","index":2,"text":"status 404"}}],"executorName":"pool-1-thread-5","line":43,"name":"List a Non-exisitng Resource","description":"","durationMillis":609.4925,"startTime":1678080539816,"failed":false,"refId":"[3:43]","endTime":1678080540429,"exampleIndex":-1}],"callDepth":0,"name":"Resources","description":"","resultDate":"2023-03-06 04:29:01 pm","durationMillis":2188.896167,"passedCount":3}