{"failedCount":0,"prefixedPath":"classpath:reqresApp\/feature\/Resources.feature","packageQualifiedName":"reqresApp.feature.Resources","loopIndex":-1,"relativePath":"reqresApp\/feature\/Resources.feature","scenarioResults":[{"sectionIndex":0,"stepResults":[{"result":{"nanos":73667,"millis":0.073667,"status":"passed"},"step":{"background":true,"line":5,"prefix":"*","index":0,"text":"url apiUrl"},"stepLog":"16:31:03.115 karate.env system property was: null \n"},{"result":{"nanos":216208,"millis":0.216208,"status":"passed"},"step":{"line":8,"prefix":"Given","index":0,"text":"path 'unkonwn'"}},{"result":{"nanos":597677250,"millis":597.67725,"status":"passed"},"step":{"line":9,"prefix":"When","index":1,"text":"method Get"},"stepLog":"16:31:03.118 request:\n1 > GET https:\/\/reqres.in\/api\/unkonwn\n1 > Authorization: Token QpwL5tke4Pnpja7X4\n1 > Host: reqres.in\n1 > Connection: Keep-Alive\n1 > User-Agent: Apache-HttpClient\/4.5.13 (Java\/19.0.2)\n1 > Accept-Encoding: gzip,deflate\n\n\n16:31:03.714 response time in milliseconds: 596\n1 < 200\n1 < Date: Mon, 06 Mar 2023 05:30:58 GMT\n1 < Content-Type: application\/json; charset=utf-8\n1 < Transfer-Encoding: chunked\n1 < Connection: keep-alive\n1 < X-Powered-By: Express\n1 < Access-Control-Allow-Origin: *\n1 < Etag: W\/\"2c1-N6Rqerxquq2kgQhL51EiSg4x0R8\"\n1 < Via: 1.1 vegur\n1 < CF-Cache-Status: BYPASS\n1 < Report-To: {\"endpoints\":[{\"url\":\"https:\\\/\\\/a.nel.cloudflare.com\\\/report\\\/v3?s=QJLk4Pgqle8%2BdM%2FGXeT64IH3oRTjJc0czjTkmAkWGSy%2BRgOOh8PHU3IMx2r8Gu%2FiyrXxVLShwB3T1IPFcBEuGJwEklLkf7xySz5%2FapaIiHt6mwM1LVUQO88wJg%3D%3D\"}],\"group\":\"cf-nel\",\"max_age\":604800}\n1 < NEL: {\"success_fraction\":0,\"report_to\":\"cf-nel\",\"max_age\":604800}\n1 < Vary: Accept-Encoding\n1 < Server: cloudflare\n1 < CF-RAY: 7a3835b1dda6a87d-SYD\n{\"page\":1,\"per_page\":6,\"total\":12,\"total_pages\":2,\"data\":[{\"id\":1,\"name\":\"cerulean\",\"year\":2000,\"color\":\"#98B2D1\",\"pantone_value\":\"15-4020\"},{\"id\":2,\"name\":\"fuchsia rose\",\"year\":2001,\"color\":\"#C74375\",\"pantone_value\":\"17-2031\"},{\"id\":3,\"name\":\"true red\",\"year\":2002,\"color\":\"#BF1932\",\"pantone_value\":\"19-1664\"},{\"id\":4,\"name\":\"aqua sky\",\"year\":2003,\"color\":\"#7BC4C4\",\"pantone_value\":\"14-4811\"},{\"id\":5,\"name\":\"tigerlily\",\"year\":2004,\"color\":\"#E2583E\",\"pantone_value\":\"17-1456\"},{\"id\":6,\"name\":\"blue turquoise\",\"year\":2005,\"color\":\"#53B0AE\",\"pantone_value\":\"15-5217\"}],\"support\":{\"url\":\"https:\/\/reqres.in\/#support-heading\",\"text\":\"To keep ReqRes free, contributions towards server costs are appreciated!\"}}\n\n"},{"result":{"nanos":12000,"millis":0.012,"status":"passed"},"step":{"line":10,"prefix":"Then","index":2,"text":"status 200"}},{"result":{"nanos":2244875,"millis":2.244875,"status":"passed"},"step":{"endLine":20,"line":11,"prefix":"And","docString":"{\n    \"id\": \"#number\",\n    \"name\": \"#string\",\n    \"year\": \"#number\",\n    \"color\": \"#string\",\n    \"pantone_value\": \"#string\"\n}","index":3,"text":"match each response.data =="}}],"executorName":"pool-1-thread-2","line":7,"name":"List Resources","description":"","durationMillis":600.224,"startTime":1678080663114,"failed":false,"refId":"[1:7]","endTime":1678080663717,"exampleIndex":-1},{"sectionIndex":1,"stepResults":[{"result":{"nanos":91917,"millis":0.091917,"status":"passed"},"step":{"background":true,"line":5,"prefix":"*","index":0,"text":"url apiUrl"},"stepLog":"16:31:03.114 karate.env system property was: null \n"},{"result":{"nanos":208750,"millis":0.20875,"status":"passed"},"step":{"line":23,"prefix":"Given","index":0,"text":"path 'unkonwn\/2'"}},{"result":{"nanos":600523375,"millis":600.523375,"status":"passed"},"step":{"line":24,"prefix":"When","index":1,"text":"method Get"},"stepLog":"16:31:03.115 request:\n1 > GET https:\/\/reqres.in\/api\/unkonwn\/2\n1 > Authorization: Token QpwL5tke4Pnpja7X4\n1 > Host: reqres.in\n1 > Connection: Keep-Alive\n1 > User-Agent: Apache-HttpClient\/4.5.13 (Java\/19.0.2)\n1 > Accept-Encoding: gzip,deflate\n\n\n16:31:03.714 response time in milliseconds: 599\n1 < 200\n1 < Date: Mon, 06 Mar 2023 05:30:58 GMT\n1 < Content-Type: application\/json; charset=utf-8\n1 < Transfer-Encoding: chunked\n1 < Connection: keep-alive\n1 < X-Powered-By: Express\n1 < Access-Control-Allow-Origin: *\n1 < Etag: W\/\"e8-ov4wWh4\/OY1IMQMqWgskYtOFnVs\"\n1 < Via: 1.1 vegur\n1 < CF-Cache-Status: BYPASS\n1 < Report-To: {\"endpoints\":[{\"url\":\"https:\\\/\\\/a.nel.cloudflare.com\\\/report\\\/v3?s=J7mXEE7rRkVkrN5KlcxRpCCKDcg6FdOu%2B5PqeeZCtq%2FdV8ctIFU1Al3ARybIlT7iBLMJZW8%2BttKBVqeGTKI2SKADtLmD7T4bW90Xj%2BnizdebMjKp4PnxNyX9fA%3D%3D\"}],\"group\":\"cf-nel\",\"max_age\":604800}\n1 < NEL: {\"success_fraction\":0,\"report_to\":\"cf-nel\",\"max_age\":604800}\n1 < Vary: Accept-Encoding\n1 < Server: cloudflare\n1 < CF-RAY: 7a3835b1c94ca82f-SYD\n{\"data\":{\"id\":2,\"name\":\"fuchsia rose\",\"year\":2001,\"color\":\"#C74375\",\"pantone_value\":\"17-2031\"},\"support\":{\"url\":\"https:\/\/reqres.in\/#support-heading\",\"text\":\"To keep ReqRes free, contributions towards server costs are appreciated!\"}}\n\n"},{"result":{"nanos":5041,"millis":0.005041,"status":"passed"},"step":{"line":25,"prefix":"Then","index":2,"text":"status 200"}},{"result":{"nanos":172916,"millis":0.172916,"status":"passed"},"step":{"endLine":41,"line":26,"prefix":"And","docString":"{\n    \"data\": {\n        \"id\": \"#number\",\n        \"name\": \"#string\",\n        \"year\": \"#number\",\n        \"color\": \"#string\",\n        \"pantone_value\": \"#string\"\n    },\n    \"support\": {\n        \"url\": \"#string\",\n        \"text\": \"#string\"\n    }\n}","index":3,"text":"match response =="}}],"executorName":"pool-1-thread-3","line":22,"name":"List a Single Resource","description":"","durationMillis":601.001999,"startTime":1678080663113,"failed":false,"refId":"[2:22]","endTime":1678080663715,"exampleIndex":-1},{"sectionIndex":2,"stepResults":[{"result":{"nanos":99417,"millis":0.099417,"status":"passed"},"step":{"background":true,"line":5,"prefix":"*","index":0,"text":"url apiUrl"},"stepLog":"16:31:03.724 karate.env system property was: null \n"},{"result":{"nanos":473459,"millis":0.473459,"status":"passed"},"step":{"line":44,"prefix":"Given","index":0,"text":"path 'unkonwn\/23'"}},{"result":{"nanos":601993833,"millis":601.993833,"status":"passed"},"step":{"line":45,"prefix":"When","index":1,"text":"method Get"},"stepLog":"16:31:03.727 request:\n1 > GET https:\/\/reqres.in\/api\/unkonwn\/23\n1 > Authorization: Token QpwL5tke4Pnpja7X4\n1 > Host: reqres.in\n1 > Connection: Keep-Alive\n1 > User-Agent: Apache-HttpClient\/4.5.13 (Java\/19.0.2)\n1 > Accept-Encoding: gzip,deflate\n\n\n16:31:04.327 response time in milliseconds: 600\n1 < 404\n1 < Date: Mon, 06 Mar 2023 05:30:59 GMT\n1 < Content-Type: application\/json; charset=utf-8\n1 < Content-Length: 2\n1 < Connection: keep-alive\n1 < X-Powered-By: Express\n1 < Access-Control-Allow-Origin: *\n1 < Etag: W\/\"2-vyGp6PvFo4RvsFtPoIWeCReyIC8\"\n1 < Via: 1.1 vegur\n1 < CF-Cache-Status: BYPASS\n1 < Report-To: {\"endpoints\":[{\"url\":\"https:\\\/\\\/a.nel.cloudflare.com\\\/report\\\/v3?s=84poHBo%2BHaLZlRRaWjeXpX902zUHWjBKAlfl1BmEv%2B9nXkqCxn8GHfbhvPoL7u%2FHfuRIqkYa8wsIIOLd05h%2BwsgR7fFRd5tVLeaR6Jc1eWikoo%2F8guff%2BC8jzQ%3D%3D\"}],\"group\":\"cf-nel\",\"max_age\":604800}\n1 < NEL: {\"success_fraction\":0,\"report_to\":\"cf-nel\",\"max_age\":604800}\n1 < Vary: Accept-Encoding\n1 < Server: cloudflare\n1 < CF-RAY: 7a3835b5a910aae3-SYD\n{}\n\n"},{"result":{"nanos":9000,"millis":0.009,"status":"passed"},"step":{"line":46,"prefix":"Then","index":2,"text":"status 404"}}],"executorName":"pool-1-thread-1","line":43,"name":"List a Non-exisitng Resource","description":"","durationMillis":602.575709,"startTime":1678080663717,"failed":false,"refId":"[3:43]","endTime":1678080664329,"exampleIndex":-1}],"callDepth":0,"name":"Resources","description":"","resultDate":"2023-03-06 04:31:05 pm","durationMillis":1803.801708,"passedCount":3}