{"failedCount":0,"prefixedPath":"classpath:reqresApp\/feature\/Users.feature","packageQualifiedName":"reqresApp.feature.Users","loopIndex":-1,"relativePath":"reqresApp\/feature\/Users.feature","scenarioResults":[{"sectionIndex":0,"stepResults":[{"result":{"nanos":67542,"millis":0.067542,"status":"passed"},"step":{"background":true,"line":5,"prefix":"*","index":0,"text":"url apiUrl"},"stepLog":"16:40:14.228 karate.env system property was: null \n"},{"result":{"nanos":804042,"millis":0.804042,"status":"passed"},"step":{"line":8,"prefix":"Given","index":0,"text":"params { page: 2}"}},{"result":{"nanos":200459,"millis":0.200459,"status":"passed"},"step":{"line":9,"prefix":"Given","index":1,"text":"path 'users'"}},{"result":{"nanos":44423583,"millis":44.423583,"status":"passed"},"step":{"line":10,"prefix":"When","index":2,"text":"method Get"},"stepLog":"16:40:14.232 request:\n1 > GET https:\/\/reqres.in\/api\/users?page=2\n1 > Authorization: Token QpwL5tke4Pnpja7X4\n1 > Host: reqres.in\n1 > Connection: Keep-Alive\n1 > User-Agent: Apache-HttpClient\/4.5.13 (Java\/19.0.2)\n1 > Accept-Encoding: gzip,deflate\n\n\n16:40:14.274 response time in milliseconds: 42\n1 < 200\n1 < Date: Mon, 06 Mar 2023 05:40:09 GMT\n1 < Content-Type: application\/json; charset=utf-8\n1 < Transfer-Encoding: chunked\n1 < Connection: keep-alive\n1 < X-Powered-By: Express\n1 < Access-Control-Allow-Origin: *\n1 < Etag: W\/\"406-ut0vzoCuidvyMf8arZpMpJ6ZRDw\"\n1 < Via: 1.1 vegur\n1 < Cache-Control: max-age=14400\n1 < CF-Cache-Status: HIT\n1 < Age: 2044\n1 < Report-To: {\"endpoints\":[{\"url\":\"https:\\\/\\\/a.nel.cloudflare.com\\\/report\\\/v3?s=BMqB8248Xq%2Fw2rM%2FkB%2FwVKZG%2B6UHX00s7bR8ay9bdbB2np4ZJRK2rT1Qo3dvekBUdIhGFBmuyK8%2FvRb6%2BxMtPDj3ZwCmf2X%2BkncYePrf15jIYrYWoLVNjIWJLg%3D%3D\"}],\"group\":\"cf-nel\",\"max_age\":604800}\n1 < NEL: {\"success_fraction\":0,\"report_to\":\"cf-nel\",\"max_age\":604800}\n1 < Vary: Accept-Encoding\n1 < Server: cloudflare\n1 < CF-RAY: 7a3843265c90aaed-SYD\n{\"page\":2,\"per_page\":6,\"total\":12,\"total_pages\":2,\"data\":[{\"id\":7,\"email\":\"michael.lawson@reqres.in\",\"first_name\":\"Michael\",\"last_name\":\"Lawson\",\"avatar\":\"https:\/\/reqres.in\/img\/faces\/7-image.jpg\"},{\"id\":8,\"email\":\"lindsay.ferguson@reqres.in\",\"first_name\":\"Lindsay\",\"last_name\":\"Ferguson\",\"avatar\":\"https:\/\/reqres.in\/img\/faces\/8-image.jpg\"},{\"id\":9,\"email\":\"tobias.funke@reqres.in\",\"first_name\":\"Tobias\",\"last_name\":\"Funke\",\"avatar\":\"https:\/\/reqres.in\/img\/faces\/9-image.jpg\"},{\"id\":10,\"email\":\"byron.fields@reqres.in\",\"first_name\":\"Byron\",\"last_name\":\"Fields\",\"avatar\":\"https:\/\/reqres.in\/img\/faces\/10-image.jpg\"},{\"id\":11,\"email\":\"george.edwards@reqres.in\",\"first_name\":\"George\",\"last_name\":\"Edwards\",\"avatar\":\"https:\/\/reqres.in\/img\/faces\/11-image.jpg\"},{\"id\":12,\"email\":\"rachel.howell@reqres.in\",\"first_name\":\"Rachel\",\"last_name\":\"Howell\",\"avatar\":\"https:\/\/reqres.in\/img\/faces\/12-image.jpg\"}],\"support\":{\"url\":\"https:\/\/reqres.in\/#support-heading\",\"text\":\"To keep ReqRes free, contributions towards server costs are appreciated!\"}}\n\n"},{"result":{"nanos":9875,"millis":0.009875,"status":"passed"},"step":{"line":11,"prefix":"Then","index":3,"text":"status 200"}},{"result":{"nanos":1079083,"millis":1.079083,"status":"passed"},"step":{"endLine":21,"line":12,"prefix":"And","docString":"{\n    \"id\": \"#number\",\n    \"email\": \"#string\",\n    \"first_name\": \"#string\",\n    \"last_name\": \"#string\",\n    \"avatar\": \"#string\"\n}","index":4,"text":"match each response.data =="}}],"executorName":"pool-1-thread-1","line":7,"name":"List Users","description":"","durationMillis":46.584584,"startTime":1678081214226,"failed":false,"refId":"[1:7]","endTime":1678081214276,"exampleIndex":-1},{"sectionIndex":1,"stepResults":[{"result":{"nanos":108834,"millis":0.108834,"status":"passed"},"step":{"background":true,"line":5,"prefix":"*","index":0,"text":"url apiUrl"},"stepLog":"16:40:14.234 karate.env system property was: null \n"},{"result":{"nanos":555417,"millis":0.555417,"status":"passed"},"step":{"line":24,"prefix":"Given","index":0,"text":"path 'users\/2'"}},{"result":{"nanos":43633833,"millis":43.633833,"status":"passed"},"step":{"line":25,"prefix":"When","index":1,"text":"method Get"},"stepLog":"16:40:14.237 request:\n1 > GET https:\/\/reqres.in\/api\/users\/2\n1 > Authorization: Token QpwL5tke4Pnpja7X4\n1 > Host: reqres.in\n1 > Connection: Keep-Alive\n1 > User-Agent: Apache-HttpClient\/4.5.13 (Java\/19.0.2)\n1 > Accept-Encoding: gzip,deflate\n\n\n16:40:14.280 response time in milliseconds: 43\n1 < 200\n1 < Date: Mon, 06 Mar 2023 05:40:09 GMT\n1 < Content-Type: application\/json; charset=utf-8\n1 < Transfer-Encoding: chunked\n1 < Connection: keep-alive\n1 < X-Powered-By: Express\n1 < Access-Control-Allow-Origin: *\n1 < Etag: W\/\"118-pbdwwFo9SKNhD3Lx5iHJyngpq00\"\n1 < Via: 1.1 vegur\n1 < Cache-Control: max-age=14400\n1 < CF-Cache-Status: HIT\n1 < Age: 5302\n1 < Report-To: {\"endpoints\":[{\"url\":\"https:\\\/\\\/a.nel.cloudflare.com\\\/report\\\/v3?s=h%2FyTQstXAUkx9iyjjGEz0yagnZxvngEfzOcmIBCwltCKfKLETo5Dc2yfRCo%2BCZLaN4THZxC3Zhk2vWr1%2BMcPSdpJWr6Ped8HJZO5mMgP%2B63KB5aAqnzQs5ZnUg%3D%3D\"}],\"group\":\"cf-nel\",\"max_age\":604800}\n1 < NEL: {\"success_fraction\":0,\"report_to\":\"cf-nel\",\"max_age\":604800}\n1 < Vary: Accept-Encoding\n1 < Server: cloudflare\n1 < CF-RAY: 7a3843266978559f-SYD\n{\"data\":{\"id\":2,\"email\":\"janet.weaver@reqres.in\",\"first_name\":\"Janet\",\"last_name\":\"Weaver\",\"avatar\":\"https:\/\/reqres.in\/img\/faces\/2-image.jpg\"},\"support\":{\"url\":\"https:\/\/reqres.in\/#support-heading\",\"text\":\"To keep ReqRes free, contributions towards server costs are appreciated!\"}}\n\n"},{"result":{"nanos":10750,"millis":0.01075,"status":"passed"},"step":{"line":26,"prefix":"Then","index":2,"text":"status 200"}},{"result":{"nanos":218958,"millis":0.218958,"status":"passed"},"step":{"endLine":42,"line":27,"prefix":"And","docString":"{\n    \"data\": {\n        \"id\": \"#number\",\n        \"email\": \"#string\",\n        \"first_name\": \"#string\",\n        \"last_name\": \"#string\",\n        \"avatar\": \"#string\"\n    },\n    \"support\": {\n        \"url\": \"#string\",\n        \"text\": \"#string\"\n    }\n}","index":3,"text":"match response =="}}],"executorName":"pool-1-thread-3","line":23,"name":"List a Single User","description":"","durationMillis":44.527792,"startTime":1678081214227,"failed":false,"refId":"[2:23]","endTime":1678081214280,"exampleIndex":-1},{"sectionIndex":2,"stepResults":[{"result":{"nanos":36250,"millis":0.03625,"status":"passed"},"step":{"background":true,"line":5,"prefix":"*","index":0,"text":"url apiUrl"},"stepLog":"16:40:14.278 karate.env system property was: null \n"},{"result":{"nanos":197750,"millis":0.19775,"status":"passed"},"step":{"line":46,"prefix":"Given","index":0,"text":"path 'users\/23'"}},{"result":{"nanos":580654333,"millis":580.654333,"status":"passed"},"step":{"line":47,"prefix":"When","index":1,"text":"method Get"},"stepLog":"16:40:14.279 request:\n1 > GET https:\/\/reqres.in\/api\/users\/23\n1 > Authorization: Token QpwL5tke4Pnpja7X4\n1 > Host: reqres.in\n1 > Connection: Keep-Alive\n1 > User-Agent: Apache-HttpClient\/4.5.13 (Java\/19.0.2)\n1 > Accept-Encoding: gzip,deflate\n\n\n16:40:14.859 response time in milliseconds: 580\n1 < 404\n1 < Date: Mon, 06 Mar 2023 05:40:09 GMT\n1 < Content-Type: application\/json; charset=utf-8\n1 < Content-Length: 2\n1 < Connection: keep-alive\n1 < X-Powered-By: Express\n1 < Access-Control-Allow-Origin: *\n1 < Etag: W\/\"2-vyGp6PvFo4RvsFtPoIWeCReyIC8\"\n1 < Via: 1.1 vegur\n1 < CF-Cache-Status: BYPASS\n1 < Report-To: {\"endpoints\":[{\"url\":\"https:\\\/\\\/a.nel.cloudflare.com\\\/report\\\/v3?s=ue%2Bf0Y19fJFcEpWGCThDqIYBPa0BnW3qIpcWNO%2Bjss72yg6JzLFibsDWUfpnMwvmOjSBqxs%2BFYAgS4lK1bj17bKOBIaO23fIQ1FdtLMMZHlUzHfiWJT3ABrlVw%3D%3D\"}],\"group\":\"cf-nel\",\"max_age\":604800}\n1 < NEL: {\"success_fraction\":0,\"report_to\":\"cf-nel\",\"max_age\":604800}\n1 < Vary: Accept-Encoding\n1 < Server: cloudflare\n1 < CF-RAY: 7a3843269feda967-SYD\n{}\n\n"},{"result":{"nanos":10209,"millis":0.010209,"status":"passed"},"step":{"line":48,"prefix":"Then","index":2,"text":"status 404"}}],"executorName":"pool-1-thread-1","line":45,"name":"List a Non-exisitng User","description":"","durationMillis":580.898542,"startTime":1678081214277,"failed":false,"refId":"[3:45]","endTime":1678081214859,"exampleIndex":-1},{"sectionIndex":3,"stepResults":[{"result":{"nanos":57833,"millis":0.057833,"status":"passed"},"step":{"background":true,"line":5,"prefix":"*","index":0,"text":"url apiUrl"},"stepLog":"16:40:14.283 karate.env system property was: null \n"},{"result":{"nanos":128625,"millis":0.128625,"status":"passed"},"step":{"line":52,"prefix":"Given","index":0,"text":"def userData = {\"name\": \"morpheus\", \"job\": \"leader\"}"}},{"result":{"nanos":6276459,"millis":6.276459,"status":"passed"},"step":{"line":53,"prefix":"*","index":1,"text":"def timeValidator = read('classpath:helpers\/timeValidator.js')"}},{"result":{"nanos":234791,"millis":0.234791,"status":"passed"},"step":{"line":54,"prefix":"Given","index":2,"text":"path 'users'"}},{"result":{"nanos":65916,"millis":0.065916,"status":"passed"},"step":{"endLine":61,"line":55,"prefix":"And","docString":"{\n    \"name\": \"morpheus\",\n    \"job\": \"leader\"\n}","index":3,"text":"request"}},{"result":{"nanos":584360083,"millis":584.360083,"status":"passed"},"step":{"line":62,"prefix":"When","index":4,"text":"method Post"},"stepLog":"16:40:14.291 request:\n1 > POST https:\/\/reqres.in\/api\/users\n1 > Authorization: Token QpwL5tke4Pnpja7X4\n1 > Content-Type: application\/json; charset=UTF-8\n1 > Content-Length: 34\n1 > Host: reqres.in\n1 > Connection: Keep-Alive\n1 > User-Agent: Apache-HttpClient\/4.5.13 (Java\/19.0.2)\n1 > Accept-Encoding: gzip,deflate\n{\"name\":\"morpheus\",\"job\":\"leader\"}\n\n16:40:14.874 response time in milliseconds: 583\n1 < 201\n1 < Date: Mon, 06 Mar 2023 05:40:09 GMT\n1 < Content-Type: application\/json; charset=utf-8\n1 < Content-Length: 84\n1 < Connection: keep-alive\n1 < X-Powered-By: Express\n1 < Access-Control-Allow-Origin: *\n1 < Etag: W\/\"54-9c1AsavBvpTfFeoTUe0fFib1HC4\"\n1 < Via: 1.1 vegur\n1 < CF-Cache-Status: DYNAMIC\n1 < Report-To: {\"endpoints\":[{\"url\":\"https:\\\/\\\/a.nel.cloudflare.com\\\/report\\\/v3?s=euDy6NXQWgpmQ4RmqntBdKWNWfVg%2BXNAik4ZCJL6%2B1yJ%2B1q2CVAUksZVgUr%2F5y7PS%2FxPGyKCZZupTAYEBETnC%2BkmEjBYcDGyVI9C97FbkU8iSZZ9SHASFbu1eQ%3D%3D\"}],\"group\":\"cf-nel\",\"max_age\":604800}\n1 < NEL: {\"success_fraction\":0,\"report_to\":\"cf-nel\",\"max_age\":604800}\n1 < Server: cloudflare\n1 < CF-RAY: 7a384326bab0a943-SYD\n{\"name\":\"morpheus\",\"job\":\"leader\",\"id\":\"931\",\"createdAt\":\"2023-03-06T05:40:09.803Z\"}\n\n"},{"result":{"nanos":9875,"millis":0.009875,"status":"passed"},"step":{"line":63,"prefix":"Then","index":5,"text":"status 201"}},{"result":{"nanos":7230834,"millis":7.230834,"status":"passed"},"step":{"endLine":72,"line":64,"prefix":"And","docString":"{\n    \"name\": \"#string\",\n    \"job\": \"#string\",\n    \"id\": \"#string\",\n    \"createdAt\": \"#? timeValidator(_)\"\n}","index":6,"text":"match response =="}}],"executorName":"pool-1-thread-3","line":51,"name":"Create a User","description":"","durationMillis":598.364416,"startTime":1678081214282,"failed":false,"refId":"[4:51]","endTime":1678081214882,"exampleIndex":-1},{"sectionIndex":4,"stepResults":[{"result":{"nanos":39792,"millis":0.039792,"status":"passed"},"step":{"background":true,"line":5,"prefix":"*","index":0,"text":"url apiUrl"},"stepLog":"16:40:14.838 karate.env system property was: null \n"},{"result":{"nanos":88541,"millis":0.088541,"status":"passed"},"step":{"line":76,"prefix":"Given","index":0,"text":"def userData = {\"name\": \"morpheus\", \"job\": \"zion resident\"}"}},{"result":{"nanos":377917,"millis":0.377917,"status":"passed"},"step":{"line":77,"prefix":"Given","index":1,"text":"path 'users\/2'"}},{"result":{"nanos":66875,"millis":0.066875,"status":"passed"},"step":{"endLine":84,"line":78,"prefix":"And","docString":"{\n    \"name\": \"morpheus\",\n    \"job\": \"zion resident\"\n}","index":2,"text":"request"}},{"result":{"nanos":607586250,"millis":607.58625,"status":"passed"},"step":{"line":85,"prefix":"When","index":3,"text":"method Put"},"stepLog":"16:40:14.840 request:\n1 > PUT https:\/\/reqres.in\/api\/users\/2\n1 > Authorization: Token QpwL5tke4Pnpja7X4\n1 > Content-Type: application\/json; charset=UTF-8\n1 > Content-Length: 41\n1 > Host: reqres.in\n1 > Connection: Keep-Alive\n1 > User-Agent: Apache-HttpClient\/4.5.13 (Java\/19.0.2)\n1 > Accept-Encoding: gzip,deflate\n{\"name\":\"morpheus\",\"job\":\"zion resident\"}\n\n16:40:15.445 response time in milliseconds: 604\n1 < 200\n1 < Date: Mon, 06 Mar 2023 05:40:10 GMT\n1 < Content-Type: application\/json; charset=utf-8\n1 < Transfer-Encoding: chunked\n1 < Connection: keep-alive\n1 < X-Powered-By: Express\n1 < Access-Control-Allow-Origin: *\n1 < Etag: W\/\"50-\/SrBsy7wZiP6I9pRxUNX0QgfPIA\"\n1 < Via: 1.1 vegur\n1 < CF-Cache-Status: DYNAMIC\n1 < Report-To: {\"endpoints\":[{\"url\":\"https:\\\/\\\/a.nel.cloudflare.com\\\/report\\\/v3?s=X19rsAyId0TWmvyYVJKEZFZA2OjQToM01yLvOdG1IzsTUU63sF7CYSlBlTvB9pDvjZ2Ifi%2BDcM4rCSjyRwzCaA%2Fpv9R9Xl%2By%2BpPnUrbmQTs05AJ%2BKR9kkTDFzQ%3D%3D\"}],\"group\":\"cf-nel\",\"max_age\":604800}\n1 < NEL: {\"success_fraction\":0,\"report_to\":\"cf-nel\",\"max_age\":604800}\n1 < Vary: Accept-Encoding\n1 < Server: cloudflare\n1 < CF-RAY: 7a38432a298aaaff-SYD\n{\"name\":\"morpheus\",\"job\":\"zion resident\",\"updatedAt\":\"2023-03-06T05:40:10.349Z\"}\n\n"},{"result":{"nanos":25000,"millis":0.025,"status":"passed"},"step":{"line":86,"prefix":"Then","index":4,"text":"status 200"}},{"result":{"nanos":1369750,"millis":1.36975,"status":"passed"},"step":{"line":87,"prefix":"And","index":5,"text":"match response.job == userData.job"}}],"executorName":"pool-1-thread-5","line":75,"name":"Update a User's info using Put","description":"","durationMillis":609.554125,"startTime":1678081214837,"failed":false,"refId":"[5:75]","endTime":1678081215448,"exampleIndex":-1},{"sectionIndex":5,"stepResults":[{"result":{"nanos":91542,"millis":0.091542,"status":"passed"},"step":{"background":true,"line":5,"prefix":"*","index":0,"text":"url apiUrl"},"stepLog":"16:40:14.839 karate.env system property was: null \n"},{"result":{"nanos":96250,"millis":0.09625,"status":"passed"},"step":{"line":91,"prefix":"Given","index":0,"text":"def userData = {\"name\": \"morpheus\", \"job\": \"zion resident\"}"}},{"result":{"nanos":200041,"millis":0.200041,"status":"passed"},"step":{"line":92,"prefix":"Given","index":1,"text":"path 'users\/2'"}},{"result":{"nanos":35875,"millis":0.035875,"status":"passed"},"step":{"endLine":99,"line":93,"prefix":"And","docString":"{\n    \"name\": \"morpheus\",\n    \"job\": \"zion resident\"\n}","index":2,"text":"request"}},{"result":{"nanos":608406166,"millis":608.406166,"status":"passed"},"step":{"line":100,"prefix":"When","index":3,"text":"method Patch"},"stepLog":"16:40:14.841 request:\n1 > PATCH https:\/\/reqres.in\/api\/users\/2\n1 > Authorization: Token QpwL5tke4Pnpja7X4\n1 > Content-Type: application\/json; charset=UTF-8\n1 > Content-Length: 41\n1 > Host: reqres.in\n1 > Connection: Keep-Alive\n1 > User-Agent: Apache-HttpClient\/4.5.13 (Java\/19.0.2)\n1 > Accept-Encoding: gzip,deflate\n{\"name\":\"morpheus\",\"job\":\"zion resident\"}\n\n16:40:15.448 response time in milliseconds: 606\n1 < 200\n1 < Date: Mon, 06 Mar 2023 05:40:10 GMT\n1 < Content-Type: application\/json; charset=utf-8\n1 < Transfer-Encoding: chunked\n1 < Connection: keep-alive\n1 < X-Powered-By: Express\n1 < Access-Control-Allow-Origin: *\n1 < Etag: W\/\"50-Yen3sQxDPx6Rxb6k\/RzCLmlNtUA\"\n1 < Via: 1.1 vegur\n1 < CF-Cache-Status: DYNAMIC\n1 < Report-To: {\"endpoints\":[{\"url\":\"https:\\\/\\\/a.nel.cloudflare.com\\\/report\\\/v3?s=wCgj6VL0hKX4v8cNrkR52DxQFhJD787Tgm4meR1LXrEPfGyd9DDlGEqN1sBEMJEaC13ue6824xhoUeRIe4%2BEjUUq4XACHG%2F%2Bfvs96pB8duZ3n44aJSJP0o0zcQ%3D%3D\"}],\"group\":\"cf-nel\",\"max_age\":604800}\n1 < NEL: {\"success_fraction\":0,\"report_to\":\"cf-nel\",\"max_age\":604800}\n1 < Server: cloudflare\n1 < CF-RAY: 7a38432a2d6fa86b-SYD\n{\"name\":\"morpheus\",\"job\":\"zion resident\",\"updatedAt\":\"2023-03-06T05:40:10.353Z\"}\n\n"},{"result":{"nanos":18625,"millis":0.018625,"status":"passed"},"step":{"line":101,"prefix":"Then","index":4,"text":"status 200"}},{"result":{"nanos":989708,"millis":0.989708,"status":"passed"},"step":{"line":102,"prefix":"And","index":5,"text":"match response.job == userData.job"}}],"executorName":"pool-1-thread-2","line":90,"name":"Update a User's info using Patch","description":"","durationMillis":609.838207,"startTime":1678081214838,"failed":false,"refId":"[6:90]","endTime":1678081215450,"exampleIndex":-1},{"sectionIndex":6,"stepResults":[{"result":{"nanos":40083,"millis":0.040083,"status":"passed"},"step":{"background":true,"line":5,"prefix":"*","index":0,"text":"url apiUrl"},"stepLog":"16:40:14.861 karate.env system property was: null \n"},{"result":{"nanos":200584,"millis":0.200584,"status":"passed"},"step":{"line":106,"prefix":"Given","index":0,"text":"path 'users\/2'"}},{"result":{"nanos":588305500,"millis":588.3055,"status":"passed"},"step":{"line":107,"prefix":"When","index":1,"text":"method Delete"},"stepLog":"16:40:14.862 request:\n1 > DELETE https:\/\/reqres.in\/api\/users\/2\n1 > Authorization: Token QpwL5tke4Pnpja7X4\n1 > Host: reqres.in\n1 > Connection: Keep-Alive\n1 > User-Agent: Apache-HttpClient\/4.5.13 (Java\/19.0.2)\n1 > Accept-Encoding: gzip,deflate\n\n\n16:40:15.449 response time in milliseconds: 587\n1 < 204\n1 < Date: Mon, 06 Mar 2023 05:40:10 GMT\n1 < Content-Length: 0\n1 < Connection: keep-alive\n1 < X-Powered-By: Express\n1 < Access-Control-Allow-Origin: *\n1 < Etag: W\/\"2-vyGp6PvFo4RvsFtPoIWeCReyIC8\"\n1 < Via: 1.1 vegur\n1 < CF-Cache-Status: DYNAMIC\n1 < Report-To: {\"endpoints\":[{\"url\":\"https:\\\/\\\/a.nel.cloudflare.com\\\/report\\\/v3?s=89u3aVV5WIYhmkHZxxaS5E8bkCBSIn7kW2XxF4CCmC5Vm9tFCIRMiqqX5lsQvxU59X3eZHOczcCfwa%2BSBVJr8Ilc7Y%2Ff71KYYuOF3iEUbk4LKufMM0n02lZgXA%3D%3D\"}],\"group\":\"cf-nel\",\"max_age\":604800}\n1 < NEL: {\"success_fraction\":0,\"report_to\":\"cf-nel\",\"max_age\":604800}\n1 < Server: cloudflare\n1 < CF-RAY: 7a38432a4beba8ce-SYD\n\n\n"},{"result":{"nanos":15000,"millis":0.015,"status":"passed"},"step":{"line":108,"prefix":"Then","index":2,"text":"status 204"}}],"executorName":"pool-1-thread-1","line":105,"name":"Delete a User","description":"","durationMillis":588.561167,"startTime":1678081214861,"failed":false,"refId":"[7:105]","endTime":1678081215450,"exampleIndex":-1},{"sectionIndex":7,"stepResults":[{"result":{"nanos":129833,"millis":0.129833,"status":"passed"},"step":{"background":true,"line":5,"prefix":"*","index":0,"text":"url apiUrl"},"stepLog":"16:40:14.884 karate.env system property was: null \n"},{"result":{"nanos":543291,"millis":0.543291,"status":"passed"},"step":{"line":112,"prefix":"*","index":0,"text":"configure retry = { count: 10, interval: 4000 }"}},{"result":{"nanos":109958,"millis":0.109958,"status":"passed"},"step":{"line":113,"prefix":"Given","index":1,"text":"params { delay: 3 }"}},{"result":{"nanos":112250,"millis":0.11225,"status":"passed"},"step":{"line":114,"prefix":"Given","index":2,"text":"path 'users'"}},{"result":{"nanos":63791,"millis":0.063791,"status":"passed"},"step":{"line":115,"prefix":"And","index":3,"text":"retry until response.support.url == \"https:\/\/reqres.in\/#support-heading\""}},{"result":{"nanos":3633306459,"millis":3633.306459,"status":"passed"},"step":{"line":116,"prefix":"When","index":4,"text":"method Get"},"stepLog":"16:40:14.888 request:\n1 > GET https:\/\/reqres.in\/api\/users?delay=3\n1 > Authorization: Token QpwL5tke4Pnpja7X4\n1 > Host: reqres.in\n1 > Connection: Keep-Alive\n1 > User-Agent: Apache-HttpClient\/4.5.13 (Java\/19.0.2)\n1 > Accept-Encoding: gzip,deflate\n\n\n16:40:18.517 response time in milliseconds: 3628\n1 < 200\n1 < Date: Mon, 06 Mar 2023 05:40:13 GMT\n1 < Content-Type: application\/json; charset=utf-8\n1 < Transfer-Encoding: chunked\n1 < Connection: keep-alive\n1 < X-Powered-By: Express\n1 < Access-Control-Allow-Origin: *\n1 < Etag: W\/\"3e4-2RLXvr5wTg9YQ6aH95CkYoFNuO8\"\n1 < Via: 1.1 vegur\n1 < CF-Cache-Status: DYNAMIC\n1 < Report-To: {\"endpoints\":[{\"url\":\"https:\\\/\\\/a.nel.cloudflare.com\\\/report\\\/v3?s=lUwfUvZl606rsbJLTxT3QGLFndxNXT2GKBjhEREZ16orCC2zKHI%2Bd2O8XVzZtlNE%2F6Rn5B94ETbV4kqA%2Fh2TjR5qhLnpjeDNyUbg%2FNpUOEIbN4CJUIR3GkoyOw%3D%3D\"}],\"group\":\"cf-nel\",\"max_age\":604800}\n1 < NEL: {\"success_fraction\":0,\"report_to\":\"cf-nel\",\"max_age\":604800}\n1 < Server: cloudflare\n1 < CF-RAY: 7a38432a7dada7f6-SYD\n{\"page\":1,\"per_page\":6,\"total\":12,\"total_pages\":2,\"data\":[{\"id\":1,\"email\":\"george.bluth@reqres.in\",\"first_name\":\"George\",\"last_name\":\"Bluth\",\"avatar\":\"https:\/\/reqres.in\/img\/faces\/1-image.jpg\"},{\"id\":2,\"email\":\"janet.weaver@reqres.in\",\"first_name\":\"Janet\",\"last_name\":\"Weaver\",\"avatar\":\"https:\/\/reqres.in\/img\/faces\/2-image.jpg\"},{\"id\":3,\"email\":\"emma.wong@reqres.in\",\"first_name\":\"Emma\",\"last_name\":\"Wong\",\"avatar\":\"https:\/\/reqres.in\/img\/faces\/3-image.jpg\"},{\"id\":4,\"email\":\"eve.holt@reqres.in\",\"first_name\":\"Eve\",\"last_name\":\"Holt\",\"avatar\":\"https:\/\/reqres.in\/img\/faces\/4-image.jpg\"},{\"id\":5,\"email\":\"charles.morris@reqres.in\",\"first_name\":\"Charles\",\"last_name\":\"Morris\",\"avatar\":\"https:\/\/reqres.in\/img\/faces\/5-image.jpg\"},{\"id\":6,\"email\":\"tracey.ramos@reqres.in\",\"first_name\":\"Tracey\",\"last_name\":\"Ramos\",\"avatar\":\"https:\/\/reqres.in\/img\/faces\/6-image.jpg\"}],\"support\":{\"url\":\"https:\/\/reqres.in\/#support-heading\",\"text\":\"To keep ReqRes free, contributions towards server costs are appreciated!\"}}\n\n"},{"result":{"nanos":24250,"millis":0.02425,"status":"passed"},"step":{"line":117,"prefix":"Then","index":5,"text":"status 200"}}],"executorName":"pool-1-thread-3","line":111,"name":"Retry call","description":"","durationMillis":3634.289832,"startTime":1678081214884,"failed":false,"refId":"[8:111]","endTime":1678081218520,"exampleIndex":-1}],"callDepth":0,"name":"Users","description":"","resultDate":"2023-03-06 04:40:18 pm","durationMillis":6712.618665,"passedCount":8}