{"failedCount":0,"prefixedPath":"classpath:reqresApp\/feature\/Resources.feature","packageQualifiedName":"reqresApp.feature.Resources","loopIndex":-1,"relativePath":"reqresApp\/feature\/Resources.feature","scenarioResults":[{"sectionIndex":0,"stepResults":[{"result":{"nanos":168708,"millis":0.168708,"status":"passed"},"step":{"background":true,"line":5,"prefix":"*","index":0,"text":"url apiUrl"},"stepLog":"16:30:12.733 karate.env system property was: null \n"},{"result":{"nanos":230417,"millis":0.230417,"status":"passed"},"step":{"line":8,"prefix":"Given","index":0,"text":"path 'unkonwn'"}},{"result":{"nanos":597151542,"millis":597.151542,"status":"passed"},"step":{"line":9,"prefix":"When","index":1,"text":"method Get"},"stepLog":"16:30:12.737 request:\n1 > GET https:\/\/reqres.in\/api\/unkonwn\n1 > Authorization: Token QpwL5tke4Pnpja7X4\n1 > Host: reqres.in\n1 > Connection: Keep-Alive\n1 > User-Agent: Apache-HttpClient\/4.5.13 (Java\/19.0.2)\n1 > Accept-Encoding: gzip,deflate\n\n\n16:30:13.332 response time in milliseconds: 595\n1 < 200\n1 < Date: Mon, 06 Mar 2023 05:30:08 GMT\n1 < Content-Type: application\/json; charset=utf-8\n1 < Transfer-Encoding: chunked\n1 < Connection: keep-alive\n1 < X-Powered-By: Express\n1 < Access-Control-Allow-Origin: *\n1 < Etag: W\/\"2c1-N6Rqerxquq2kgQhL51EiSg4x0R8\"\n1 < Via: 1.1 vegur\n1 < CF-Cache-Status: BYPASS\n1 < Report-To: {\"endpoints\":[{\"url\":\"https:\\\/\\\/a.nel.cloudflare.com\\\/report\\\/v3?s=QVn%2F4alh0t7F4FqI%2BUX9b2rbdYE0sO09Tn44ycIy33ozH1oIJwZIOLeTiDBseau1oevSgWp8e3uZnFNA286ETbDsEyeo3lClIGfHvWiOGxkKHZSdcBJ6EDC%2F5g%3D%3D\"}],\"group\":\"cf-nel\",\"max_age\":604800}\n1 < NEL: {\"success_fraction\":0,\"report_to\":\"cf-nel\",\"max_age\":604800}\n1 < Vary: Accept-Encoding\n1 < Server: cloudflare\n1 < CF-RAY: 7a383476eea6a80b-SYD\n{\"page\":1,\"per_page\":6,\"total\":12,\"total_pages\":2,\"data\":[{\"id\":1,\"name\":\"cerulean\",\"year\":2000,\"color\":\"#98B2D1\",\"pantone_value\":\"15-4020\"},{\"id\":2,\"name\":\"fuchsia rose\",\"year\":2001,\"color\":\"#C74375\",\"pantone_value\":\"17-2031\"},{\"id\":3,\"name\":\"true red\",\"year\":2002,\"color\":\"#BF1932\",\"pantone_value\":\"19-1664\"},{\"id\":4,\"name\":\"aqua sky\",\"year\":2003,\"color\":\"#7BC4C4\",\"pantone_value\":\"14-4811\"},{\"id\":5,\"name\":\"tigerlily\",\"year\":2004,\"color\":\"#E2583E\",\"pantone_value\":\"17-1456\"},{\"id\":6,\"name\":\"blue turquoise\",\"year\":2005,\"color\":\"#53B0AE\",\"pantone_value\":\"15-5217\"}],\"support\":{\"url\":\"https:\/\/reqres.in\/#support-heading\",\"text\":\"To keep ReqRes free, contributions towards server costs are appreciated!\"}}\n\n"},{"result":{"nanos":3625,"millis":0.003625,"status":"passed"},"step":{"line":10,"prefix":"Then","index":2,"text":"status 200"}},{"result":{"nanos":2270250,"millis":2.27025,"status":"passed"},"step":{"endLine":20,"line":11,"prefix":"And","docString":"{\n    \"id\": \"#number\",\n    \"name\": \"#string\",\n    \"year\": \"#number\",\n    \"color\": \"#string\",\n    \"pantone_value\": \"#string\"\n}","index":3,"text":"match each response.data =="}}],"executorName":"pool-1-thread-5","line":7,"name":"List Resources","description":"","durationMillis":599.824542,"startTime":1678080612732,"failed":false,"refId":"[1:7]","endTime":1678080613335,"exampleIndex":-1},{"sectionIndex":1,"stepResults":[{"result":{"nanos":76166,"millis":0.076166,"status":"passed"},"step":{"background":true,"line":5,"prefix":"*","index":0,"text":"url apiUrl"},"stepLog":"16:30:12.737 karate.env system property was: null \n"},{"result":{"nanos":179916,"millis":0.179916,"status":"passed"},"step":{"line":23,"prefix":"Given","index":0,"text":"path 'unkonwn\/2'"}},{"result":{"nanos":594788625,"millis":594.788625,"status":"passed"},"step":{"line":24,"prefix":"When","index":1,"text":"method Get"},"stepLog":"16:30:12.738 request:\n1 > GET https:\/\/reqres.in\/api\/unkonwn\/2\n1 > Authorization: Token QpwL5tke4Pnpja7X4\n1 > Host: reqres.in\n1 > Connection: Keep-Alive\n1 > User-Agent: Apache-HttpClient\/4.5.13 (Java\/19.0.2)\n1 > Accept-Encoding: gzip,deflate\n\n\n16:30:13.332 response time in milliseconds: 594\n1 < 200\n1 < Date: Mon, 06 Mar 2023 05:30:08 GMT\n1 < Content-Type: application\/json; charset=utf-8\n1 < Transfer-Encoding: chunked\n1 < Connection: keep-alive\n1 < X-Powered-By: Express\n1 < Access-Control-Allow-Origin: *\n1 < Etag: W\/\"e8-ov4wWh4\/OY1IMQMqWgskYtOFnVs\"\n1 < Via: 1.1 vegur\n1 < CF-Cache-Status: BYPASS\n1 < Report-To: {\"endpoints\":[{\"url\":\"https:\\\/\\\/a.nel.cloudflare.com\\\/report\\\/v3?s=eFbPy1BQMtLJ7fDbliGY0F5rpF6%2FOc50pEvDhcv4cebUcn7UzUbVhcoNtmRxWCWKSkbruMNSC4EfLG3cignhbA6kJjJwaqWPbDzPxKWMsUPNTFMCXop2%2FaMEZw%3D%3D\"}],\"group\":\"cf-nel\",\"max_age\":604800}\n1 < NEL: {\"success_fraction\":0,\"report_to\":\"cf-nel\",\"max_age\":604800}\n1 < Vary: Accept-Encoding\n1 < Server: cloudflare\n1 < CF-RAY: 7a383476eba7a811-SYD\n{\"data\":{\"id\":2,\"name\":\"fuchsia rose\",\"year\":2001,\"color\":\"#C74375\",\"pantone_value\":\"17-2031\"},\"support\":{\"url\":\"https:\/\/reqres.in\/#support-heading\",\"text\":\"To keep ReqRes free, contributions towards server costs are appreciated!\"}}\n\n"},{"result":{"nanos":4000,"millis":0.004,"status":"passed"},"step":{"line":25,"prefix":"Then","index":2,"text":"status 200"}},{"result":{"nanos":437583,"millis":0.437583,"status":"passed"},"step":{"endLine":41,"line":26,"prefix":"And","docString":"{\n    \"data\": {\n        \"id\": \"#number\",\n        \"name\": \"#string\",\n        \"year\": \"#number\",\n        \"color\": \"#string\",\n        \"pantone_value\": \"#string\"\n    },\n    \"support\": {\n        \"url\": \"#string\",\n        \"text\": \"#string\"\n    }\n}","index":3,"text":"match response =="}}],"executorName":"pool-1-thread-3","line":22,"name":"List a Single Resource","description":"","durationMillis":595.48629,"startTime":1678080612735,"failed":false,"refId":"[2:22]","endTime":1678080613333,"exampleIndex":-1},{"sectionIndex":2,"stepResults":[{"result":{"nanos":54542,"millis":0.054542,"status":"passed"},"step":{"background":true,"line":5,"prefix":"*","index":0,"text":"url apiUrl"},"stepLog":"16:30:13.338 karate.env system property was: null \n"},{"result":{"nanos":154583,"millis":0.154583,"status":"passed"},"step":{"line":44,"prefix":"Given","index":0,"text":"path 'unkonwn\/23'"}},{"result":{"nanos":578693375,"millis":578.693375,"status":"passed"},"step":{"line":45,"prefix":"When","index":1,"text":"method Get"},"stepLog":"16:30:13.339 request:\n1 > GET https:\/\/reqres.in\/api\/unkonwn\/23\n1 > Authorization: Token QpwL5tke4Pnpja7X4\n1 > Host: reqres.in\n1 > Connection: Keep-Alive\n1 > User-Agent: Apache-HttpClient\/4.5.13 (Java\/19.0.2)\n1 > Accept-Encoding: gzip,deflate\n\n\n16:30:13.917 response time in milliseconds: 577\n1 < 404\n1 < Date: Mon, 06 Mar 2023 05:30:08 GMT\n1 < Content-Type: application\/json; charset=utf-8\n1 < Content-Length: 2\n1 < Connection: keep-alive\n1 < X-Powered-By: Express\n1 < Access-Control-Allow-Origin: *\n1 < Etag: W\/\"2-vyGp6PvFo4RvsFtPoIWeCReyIC8\"\n1 < Via: 1.1 vegur\n1 < CF-Cache-Status: BYPASS\n1 < Report-To: {\"endpoints\":[{\"url\":\"https:\\\/\\\/a.nel.cloudflare.com\\\/report\\\/v3?s=pFzTAJ%2FOO1jiLrI35phECfS8gCc2yGO7nw2LqHqabqvKKBVnZE3Bp3bKei8iWtFKY%2F0c%2B5xVyPiT87JERm9TXOvB99eY5S13SSH5CsV9SQnpqm%2Bzr77yd7EKAQ%3D%3D\"}],\"group\":\"cf-nel\",\"max_age\":604800}\n1 < NEL: {\"success_fraction\":0,\"report_to\":\"cf-nel\",\"max_age\":604800}\n1 < Vary: Accept-Encoding\n1 < Server: cloudflare\n1 < CF-RAY: 7a38347aaeefa883-SYD\n{}\n\n"},{"result":{"nanos":15875,"millis":0.015875,"status":"passed"},"step":{"line":46,"prefix":"Then","index":2,"text":"status 404"}}],"executorName":"pool-1-thread-4","line":43,"name":"List a Non-exisitng Resource","description":"","durationMillis":578.918375,"startTime":1678080613337,"failed":false,"refId":"[3:43]","endTime":1678080613917,"exampleIndex":-1}],"callDepth":0,"name":"Resources","description":"","resultDate":"2023-03-06 04:30:14 pm","durationMillis":1774.229207,"passedCount":3}