{"failedCount":0,"prefixedPath":"classpath:reqresApp\/feature\/Users.feature","packageQualifiedName":"reqresApp.feature.Users","loopIndex":-1,"relativePath":"reqresApp\/feature\/Users.feature","scenarioResults":[{"sectionIndex":0,"stepResults":[{"result":{"nanos":34292,"millis":0.034292,"status":"passed"},"step":{"background":true,"line":5,"prefix":"*","index":0,"text":"url apiUrl"},"stepLog":"16:30:13.340 karate.env system property was: null \n"},{"result":{"nanos":497625,"millis":0.497625,"status":"passed"},"step":{"line":8,"prefix":"Given","index":0,"text":"params { page: 2}"}},{"result":{"nanos":197833,"millis":0.197833,"status":"passed"},"step":{"line":9,"prefix":"Given","index":1,"text":"path 'users'"}},{"result":{"nanos":46931625,"millis":46.931625,"status":"passed"},"step":{"line":10,"prefix":"When","index":2,"text":"method Get"},"stepLog":"16:30:13.345 request:\n1 > GET https:\/\/reqres.in\/api\/users?page=2\n1 > Authorization: Token QpwL5tke4Pnpja7X4\n1 > Host: reqres.in\n1 > Connection: Keep-Alive\n1 > User-Agent: Apache-HttpClient\/4.5.13 (Java\/19.0.2)\n1 > Accept-Encoding: gzip,deflate\n\n\n16:30:13.388 response time in milliseconds: 43\n1 < 200\n1 < Date: Mon, 06 Mar 2023 05:30:08 GMT\n1 < Content-Type: application\/json; charset=utf-8\n1 < Transfer-Encoding: chunked\n1 < Connection: keep-alive\n1 < X-Powered-By: Express\n1 < Access-Control-Allow-Origin: *\n1 < Etag: W\/\"406-ut0vzoCuidvyMf8arZpMpJ6ZRDw\"\n1 < Via: 1.1 vegur\n1 < Cache-Control: max-age=14400\n1 < CF-Cache-Status: HIT\n1 < Age: 1692\n1 < Report-To: {\"endpoints\":[{\"url\":\"https:\\\/\\\/a.nel.cloudflare.com\\\/report\\\/v3?s=rYmyw5Tn9Q8UVAr6fzMsMNA62K8v66D2idMfVK%2FS36rB9rtB6AV1ENvjZLawcucoOnUD9gEFobTIoEhm7aa173qAH8C4KP%2FfR4lYrbjLNcCTfeSV3Hg%2FnKHW4w%3D%3D\"}],\"group\":\"cf-nel\",\"max_age\":604800}\n1 < NEL: {\"success_fraction\":0,\"report_to\":\"cf-nel\",\"max_age\":604800}\n1 < Vary: Accept-Encoding\n1 < Server: cloudflare\n1 < CF-RAY: 7a38347ab9b7a959-SYD\n{\"page\":2,\"per_page\":6,\"total\":12,\"total_pages\":2,\"data\":[{\"id\":7,\"email\":\"michael.lawson@reqres.in\",\"first_name\":\"Michael\",\"last_name\":\"Lawson\",\"avatar\":\"https:\/\/reqres.in\/img\/faces\/7-image.jpg\"},{\"id\":8,\"email\":\"lindsay.ferguson@reqres.in\",\"first_name\":\"Lindsay\",\"last_name\":\"Ferguson\",\"avatar\":\"https:\/\/reqres.in\/img\/faces\/8-image.jpg\"},{\"id\":9,\"email\":\"tobias.funke@reqres.in\",\"first_name\":\"Tobias\",\"last_name\":\"Funke\",\"avatar\":\"https:\/\/reqres.in\/img\/faces\/9-image.jpg\"},{\"id\":10,\"email\":\"byron.fields@reqres.in\",\"first_name\":\"Byron\",\"last_name\":\"Fields\",\"avatar\":\"https:\/\/reqres.in\/img\/faces\/10-image.jpg\"},{\"id\":11,\"email\":\"george.edwards@reqres.in\",\"first_name\":\"George\",\"last_name\":\"Edwards\",\"avatar\":\"https:\/\/reqres.in\/img\/faces\/11-image.jpg\"},{\"id\":12,\"email\":\"rachel.howell@reqres.in\",\"first_name\":\"Rachel\",\"last_name\":\"Howell\",\"avatar\":\"https:\/\/reqres.in\/img\/faces\/12-image.jpg\"}],\"support\":{\"url\":\"https:\/\/reqres.in\/#support-heading\",\"text\":\"To keep ReqRes free, contributions towards server costs are appreciated!\"}}\n\n"},{"result":{"nanos":7166,"millis":0.007166,"status":"passed"},"step":{"line":11,"prefix":"Then","index":3,"text":"status 200"}},{"result":{"nanos":1043542,"millis":1.043542,"status":"passed"},"step":{"endLine":21,"line":12,"prefix":"And","docString":"{\n    \"id\": \"#number\",\n    \"email\": \"#string\",\n    \"first_name\": \"#string\",\n    \"last_name\": \"#string\",\n    \"avatar\": \"#string\"\n}","index":4,"text":"match each response.data =="}}],"executorName":"pool-1-thread-3","line":7,"name":"List Users","description":"","durationMillis":48.712083,"startTime":1678080613336,"failed":false,"refId":"[1:7]","endTime":1678080613390,"exampleIndex":-1},{"sectionIndex":1,"stepResults":[{"result":{"nanos":55542,"millis":0.055542,"status":"passed"},"step":{"background":true,"line":5,"prefix":"*","index":0,"text":"url apiUrl"},"stepLog":"16:30:13.339 karate.env system property was: null \n"},{"result":{"nanos":186750,"millis":0.18675,"status":"passed"},"step":{"line":24,"prefix":"Given","index":0,"text":"path 'users\/2'"}},{"result":{"nanos":45684000,"millis":45.684,"status":"passed"},"step":{"line":25,"prefix":"When","index":1,"text":"method Get"},"stepLog":"16:30:13.340 request:\n1 > GET https:\/\/reqres.in\/api\/users\/2\n1 > Authorization: Token QpwL5tke4Pnpja7X4\n1 > Host: reqres.in\n1 > Connection: Keep-Alive\n1 > User-Agent: Apache-HttpClient\/4.5.13 (Java\/19.0.2)\n1 > Accept-Encoding: gzip,deflate\n\n\n16:30:13.385 response time in milliseconds: 45\n1 < 200\n1 < Date: Mon, 06 Mar 2023 05:30:08 GMT\n1 < Content-Type: application\/json; charset=utf-8\n1 < Transfer-Encoding: chunked\n1 < Connection: keep-alive\n1 < X-Powered-By: Express\n1 < Access-Control-Allow-Origin: *\n1 < Etag: W\/\"118-pbdwwFo9SKNhD3Lx5iHJyngpq00\"\n1 < Via: 1.1 vegur\n1 < Cache-Control: max-age=14400\n1 < CF-Cache-Status: HIT\n1 < Age: 4701\n1 < Report-To: {\"endpoints\":[{\"url\":\"https:\\\/\\\/a.nel.cloudflare.com\\\/report\\\/v3?s=bBZSmEVfsCGCKRAlqyIXw70rF4Qg%2BM1d8fV1oQdyvUHkJH4BrNNNaTq%2FGYn9FAE%2FLWzA9rsXdR5Yp7sMcwHzswYbtM2hMwIXq9D0dj8%2FvkahF9S1DnMDvo76kQ%3D%3D\"}],\"group\":\"cf-nel\",\"max_age\":604800}\n1 < NEL: {\"success_fraction\":0,\"report_to\":\"cf-nel\",\"max_age\":604800}\n1 < Vary: Accept-Encoding\n1 < Server: cloudflare\n1 < CF-RAY: 7a38347abde15521-SYD\n{\"data\":{\"id\":2,\"email\":\"janet.weaver@reqres.in\",\"first_name\":\"Janet\",\"last_name\":\"Weaver\",\"avatar\":\"https:\/\/reqres.in\/img\/faces\/2-image.jpg\"},\"support\":{\"url\":\"https:\/\/reqres.in\/#support-heading\",\"text\":\"To keep ReqRes free, contributions towards server costs are appreciated!\"}}\n\n"},{"result":{"nanos":9459,"millis":0.009459,"status":"passed"},"step":{"line":26,"prefix":"Then","index":2,"text":"status 200"}},{"result":{"nanos":243333,"millis":0.243333,"status":"passed"},"step":{"endLine":42,"line":27,"prefix":"And","docString":"{\n    \"data\": {\n        \"id\": \"#number\",\n        \"email\": \"#string\",\n        \"first_name\": \"#string\",\n        \"last_name\": \"#string\",\n        \"avatar\": \"#string\"\n    },\n    \"support\": {\n        \"url\": \"#string\",\n        \"text\": \"#string\"\n    }\n}","index":3,"text":"match response =="}}],"executorName":"pool-1-thread-5","line":23,"name":"List a Single User","description":"","durationMillis":46.179084,"startTime":1678080613336,"failed":false,"refId":"[2:23]","endTime":1678080613386,"exampleIndex":-1},{"sectionIndex":2,"stepResults":[{"result":{"nanos":35792,"millis":0.035792,"status":"passed"},"step":{"background":true,"line":5,"prefix":"*","index":0,"text":"url apiUrl"},"stepLog":"16:30:13.388 karate.env system property was: null \n"},{"result":{"nanos":220292,"millis":0.220292,"status":"passed"},"step":{"line":46,"prefix":"Given","index":0,"text":"path 'users\/23'"}},{"result":{"nanos":588906292,"millis":588.906292,"status":"passed"},"step":{"line":47,"prefix":"When","index":1,"text":"method Get"},"stepLog":"16:30:13.389 request:\n1 > GET https:\/\/reqres.in\/api\/users\/23\n1 > Authorization: Token QpwL5tke4Pnpja7X4\n1 > Host: reqres.in\n1 > Connection: Keep-Alive\n1 > User-Agent: Apache-HttpClient\/4.5.13 (Java\/19.0.2)\n1 > Accept-Encoding: gzip,deflate\n\n\n16:30:13.977 response time in milliseconds: 588\n1 < 404\n1 < Date: Mon, 06 Mar 2023 05:30:09 GMT\n1 < Content-Type: application\/json; charset=utf-8\n1 < Content-Length: 2\n1 < Connection: keep-alive\n1 < X-Powered-By: Express\n1 < Access-Control-Allow-Origin: *\n1 < Etag: W\/\"2-vyGp6PvFo4RvsFtPoIWeCReyIC8\"\n1 < Via: 1.1 vegur\n1 < CF-Cache-Status: BYPASS\n1 < Report-To: {\"endpoints\":[{\"url\":\"https:\\\/\\\/a.nel.cloudflare.com\\\/report\\\/v3?s=%2FyVsf6p0O5ADhRxKZQhEUwv96tQ79CZoEChW6n6Ld2EX0f14HW2lAjOW%2FciXM0o4UXvapLDVLMvvho5ZStv0GcX9yV2fMrtkLvcRyFrnUzRYNmzqhaZ6t4gFkA%3D%3D\"}],\"group\":\"cf-nel\",\"max_age\":604800}\n1 < NEL: {\"success_fraction\":0,\"report_to\":\"cf-nel\",\"max_age\":604800}\n1 < Vary: Accept-Encoding\n1 < Server: cloudflare\n1 < CF-RAY: 7a38347afe67ab05-SYD\n{}\n\n"},{"result":{"nanos":10084,"millis":0.010084,"status":"passed"},"step":{"line":48,"prefix":"Then","index":2,"text":"status 404"}}],"executorName":"pool-1-thread-5","line":45,"name":"List a Non-exisitng User","description":"","durationMillis":589.17246,"startTime":1678080613388,"failed":false,"refId":"[3:45]","endTime":1678080613978,"exampleIndex":-1},{"sectionIndex":3,"stepResults":[{"result":{"nanos":47125,"millis":0.047125,"status":"passed"},"step":{"background":true,"line":5,"prefix":"*","index":0,"text":"url apiUrl"},"stepLog":"16:30:13.392 karate.env system property was: null \n"},{"result":{"nanos":104167,"millis":0.104167,"status":"passed"},"step":{"line":52,"prefix":"Given","index":0,"text":"def userData = {\"name\": \"morpheus\", \"job\": \"leader\"}"}},{"result":{"nanos":6496625,"millis":6.496625,"status":"passed"},"step":{"line":53,"prefix":"*","index":1,"text":"def timeValidator = read('classpath:helpers\/timeValidator.js')"}},{"result":{"nanos":4270250,"millis":4.27025,"status":"passed"},"step":{"line":54,"prefix":"Given","index":2,"text":"path 'users'"}},{"result":{"nanos":150958,"millis":0.150958,"status":"passed"},"step":{"endLine":61,"line":55,"prefix":"And","docString":"{\n    \"name\": \"morpheus\",\n    \"job\": \"leader\"\n}","index":3,"text":"request"}},{"result":{"nanos":583297250,"millis":583.29725,"status":"passed"},"step":{"line":62,"prefix":"When","index":4,"text":"method Post"},"stepLog":"16:30:13.405 request:\n1 > POST https:\/\/reqres.in\/api\/users\n1 > Authorization: Token QpwL5tke4Pnpja7X4\n1 > Content-Type: application\/json; charset=UTF-8\n1 > Content-Length: 34\n1 > Host: reqres.in\n1 > Connection: Keep-Alive\n1 > User-Agent: Apache-HttpClient\/4.5.13 (Java\/19.0.2)\n1 > Accept-Encoding: gzip,deflate\n{\"name\":\"morpheus\",\"job\":\"leader\"}\n\n16:30:13.987 response time in milliseconds: 582\n1 < 201\n1 < Date: Mon, 06 Mar 2023 05:30:09 GMT\n1 < Content-Type: application\/json; charset=utf-8\n1 < Content-Length: 84\n1 < Connection: keep-alive\n1 < X-Powered-By: Express\n1 < Access-Control-Allow-Origin: *\n1 < Etag: W\/\"54-c5lxfars6x8I7fH943g9fa1lZko\"\n1 < Via: 1.1 vegur\n1 < CF-Cache-Status: DYNAMIC\n1 < Report-To: {\"endpoints\":[{\"url\":\"https:\\\/\\\/a.nel.cloudflare.com\\\/report\\\/v3?s=vj%2FwV9d0DwlTN5J6%2BnSxQ4y%2FdyHWFIpmqA9tkcDzSnAvwG0Jq37UMSjIyUC5ZlYKE3O%2BA3JMPIRYmJx7TWi%2FkGTcOMALApO%2BZwFMo%2Fkh0uWCAR4ekCcidpoiEg%3D%3D\"}],\"group\":\"cf-nel\",\"max_age\":604800}\n1 < NEL: {\"success_fraction\":0,\"report_to\":\"cf-nel\",\"max_age\":604800}\n1 < Server: cloudflare\n1 < CF-RAY: 7a38347b2e24aaf3-SYD\n{\"name\":\"morpheus\",\"job\":\"leader\",\"id\":\"389\",\"createdAt\":\"2023-03-06T05:30:08.902Z\"}\n\n"},{"result":{"nanos":8500,"millis":0.0085,"status":"passed"},"step":{"line":63,"prefix":"Then","index":5,"text":"status 201"}},{"result":{"nanos":5265792,"millis":5.265792,"status":"passed"},"step":{"endLine":72,"line":64,"prefix":"And","docString":"{\n    \"name\": \"#string\",\n    \"job\": \"#string\",\n    \"id\": \"#string\",\n    \"createdAt\": \"#? timeValidator(_)\"\n}","index":6,"text":"match response =="}}],"executorName":"pool-1-thread-3","line":51,"name":"Create a User","description":"","durationMillis":599.640667,"startTime":1678080613392,"failed":false,"refId":"[4:51]","endTime":1678080613993,"exampleIndex":-1},{"sectionIndex":4,"stepResults":[{"result":{"nanos":34500,"millis":0.0345,"status":"passed"},"step":{"background":true,"line":5,"prefix":"*","index":0,"text":"url apiUrl"},"stepLog":"16:30:13.919 karate.env system property was: null \n"},{"result":{"nanos":84041,"millis":0.084041,"status":"passed"},"step":{"line":76,"prefix":"Given","index":0,"text":"def userData = {\"name\": \"morpheus\", \"job\": \"zion resident\"}"}},{"result":{"nanos":379625,"millis":0.379625,"status":"passed"},"step":{"line":77,"prefix":"Given","index":1,"text":"path 'users\/2'"}},{"result":{"nanos":128667,"millis":0.128667,"status":"passed"},"step":{"endLine":84,"line":78,"prefix":"And","docString":"{\n    \"name\": \"morpheus\",\n    \"job\": \"zion resident\"\n}","index":2,"text":"request"}},{"result":{"nanos":583988834,"millis":583.988834,"status":"passed"},"step":{"line":85,"prefix":"When","index":3,"text":"method Put"},"stepLog":"16:30:13.922 request:\n1 > PUT https:\/\/reqres.in\/api\/users\/2\n1 > Authorization: Token QpwL5tke4Pnpja7X4\n1 > Content-Type: application\/json; charset=UTF-8\n1 > Content-Length: 41\n1 > Host: reqres.in\n1 > Connection: Keep-Alive\n1 > User-Agent: Apache-HttpClient\/4.5.13 (Java\/19.0.2)\n1 > Accept-Encoding: gzip,deflate\n{\"name\":\"morpheus\",\"job\":\"zion resident\"}\n\n16:30:14.503 response time in milliseconds: 581\n1 < 200\n1 < Date: Mon, 06 Mar 2023 05:30:09 GMT\n1 < Content-Type: application\/json; charset=utf-8\n1 < Transfer-Encoding: chunked\n1 < Connection: keep-alive\n1 < X-Powered-By: Express\n1 < Access-Control-Allow-Origin: *\n1 < Etag: W\/\"50-p3uQ\/VPKU79+VkWL+MuJKA50nI8\"\n1 < Via: 1.1 vegur\n1 < CF-Cache-Status: DYNAMIC\n1 < Report-To: {\"endpoints\":[{\"url\":\"https:\\\/\\\/a.nel.cloudflare.com\\\/report\\\/v3?s=CpZh0NtVOEtc5yVSWx86E8dYxWgcSxsz1lIZShj03E1V%2FCwqBGBHFJg8XAr0K04HjX7445c3%2FEMPsgKwGNbJXqK017a9lQsFUp6urh%2B3JpYgB%2FPVo3sT7O%2BcGg%3D%3D\"}],\"group\":\"cf-nel\",\"max_age\":604800}\n1 < NEL: {\"success_fraction\":0,\"report_to\":\"cf-nel\",\"max_age\":604800}\n1 < Vary: Accept-Encoding\n1 < Server: cloudflare\n1 < CF-RAY: 7a38347e5846a96e-SYD\n{\"name\":\"morpheus\",\"job\":\"zion resident\",\"updatedAt\":\"2023-03-06T05:30:09.418Z\"}\n\n"},{"result":{"nanos":9292,"millis":0.009292,"status":"passed"},"step":{"line":86,"prefix":"Then","index":4,"text":"status 200"}},{"result":{"nanos":1499583,"millis":1.499583,"status":"passed"},"step":{"line":87,"prefix":"And","index":5,"text":"match response.job == userData.job"}}],"executorName":"pool-1-thread-4","line":75,"name":"Update a User's info using Put","description":"","durationMillis":586.124542,"startTime":1678080613919,"failed":false,"refId":"[5:75]","endTime":1678080614506,"exampleIndex":-1},{"sectionIndex":5,"stepResults":[{"result":{"nanos":52791,"millis":0.052791,"status":"passed"},"step":{"background":true,"line":5,"prefix":"*","index":0,"text":"url apiUrl"},"stepLog":"16:30:13.920 karate.env system property was: null \n"},{"result":{"nanos":62584,"millis":0.062584,"status":"passed"},"step":{"line":91,"prefix":"Given","index":0,"text":"def userData = {\"name\": \"morpheus\", \"job\": \"zion resident\"}"}},{"result":{"nanos":117750,"millis":0.11775,"status":"passed"},"step":{"line":92,"prefix":"Given","index":1,"text":"path 'users\/2'"}},{"result":{"nanos":32125,"millis":0.032125,"status":"passed"},"step":{"endLine":99,"line":93,"prefix":"And","docString":"{\n    \"name\": \"morpheus\",\n    \"job\": \"zion resident\"\n}","index":2,"text":"request"}},{"result":{"nanos":589024292,"millis":589.024292,"status":"passed"},"step":{"line":100,"prefix":"When","index":3,"text":"method Patch"},"stepLog":"16:30:13.921 request:\n1 > PATCH https:\/\/reqres.in\/api\/users\/2\n1 > Authorization: Token QpwL5tke4Pnpja7X4\n1 > Content-Type: application\/json; charset=UTF-8\n1 > Content-Length: 41\n1 > Host: reqres.in\n1 > Connection: Keep-Alive\n1 > User-Agent: Apache-HttpClient\/4.5.13 (Java\/19.0.2)\n1 > Accept-Encoding: gzip,deflate\n{\"name\":\"morpheus\",\"job\":\"zion resident\"}\n\n16:30:14.509 response time in milliseconds: 588\n1 < 200\n1 < Date: Mon, 06 Mar 2023 05:30:09 GMT\n1 < Content-Type: application\/json; charset=utf-8\n1 < Transfer-Encoding: chunked\n1 < Connection: keep-alive\n1 < X-Powered-By: Express\n1 < Access-Control-Allow-Origin: *\n1 < Etag: W\/\"50-mEMhgSSrj6smeVuXGTdGhMto2MI\"\n1 < Via: 1.1 vegur\n1 < CF-Cache-Status: DYNAMIC\n1 < Report-To: {\"endpoints\":[{\"url\":\"https:\\\/\\\/a.nel.cloudflare.com\\\/report\\\/v3?s=bqgqUzOeBSZmkFa%2FZ0RE7uZtIw48tfd0J9JsedWbDpIsKhDkdy87uXAVJ8cH9s0za2hD6E%2BzHkZSgvqJNkqUlOdxy%2BhOYBUaNg7P%2FJ3O83DAAswcBmRIRgnfzw%3D%3D\"}],\"group\":\"cf-nel\",\"max_age\":604800}\n1 < NEL: {\"success_fraction\":0,\"report_to\":\"cf-nel\",\"max_age\":604800}\n1 < Server: cloudflare\n1 < CF-RAY: 7a38347e4cc5aad2-SYD\n{\"name\":\"morpheus\",\"job\":\"zion resident\",\"updatedAt\":\"2023-03-06T05:30:09.415Z\"}\n\n"},{"result":{"nanos":60125,"millis":0.060125,"status":"passed"},"step":{"line":101,"prefix":"Then","index":4,"text":"status 200"}},{"result":{"nanos":926625,"millis":0.926625,"status":"passed"},"step":{"line":102,"prefix":"And","index":5,"text":"match response.job == userData.job"}}],"executorName":"pool-1-thread-2","line":90,"name":"Update a User's info using Patch","description":"","durationMillis":590.276292,"startTime":1678080613919,"failed":false,"refId":"[6:90]","endTime":1678080614511,"exampleIndex":-1},{"sectionIndex":6,"stepResults":[{"result":{"nanos":43542,"millis":0.043542,"status":"passed"},"step":{"background":true,"line":5,"prefix":"*","index":0,"text":"url apiUrl"},"stepLog":"16:30:13.979 karate.env system property was: null \n"},{"result":{"nanos":22834,"millis":0.022834,"status":"passed"},"step":{"line":106,"prefix":"Given","index":0,"text":"path 'users\/2'"}},{"result":{"nanos":576916625,"millis":576.916625,"status":"passed"},"step":{"line":107,"prefix":"When","index":1,"text":"method Delete"},"stepLog":"16:30:13.980 request:\n1 > DELETE https:\/\/reqres.in\/api\/users\/2\n1 > Authorization: Token QpwL5tke4Pnpja7X4\n1 > Host: reqres.in\n1 > Connection: Keep-Alive\n1 > User-Agent: Apache-HttpClient\/4.5.13 (Java\/19.0.2)\n1 > Accept-Encoding: gzip,deflate\n\n\n16:30:14.556 response time in milliseconds: 576\n1 < 204\n1 < Date: Mon, 06 Mar 2023 05:30:09 GMT\n1 < Content-Length: 0\n1 < Connection: keep-alive\n1 < X-Powered-By: Express\n1 < Access-Control-Allow-Origin: *\n1 < Etag: W\/\"2-vyGp6PvFo4RvsFtPoIWeCReyIC8\"\n1 < Via: 1.1 vegur\n1 < CF-Cache-Status: DYNAMIC\n1 < Report-To: {\"endpoints\":[{\"url\":\"https:\\\/\\\/a.nel.cloudflare.com\\\/report\\\/v3?s=nEE0Mu7NiDgHM7Mzi7bbBcpmP7zRy3VO%2Fp9qlVZ2YNc5mLRHy0RPNyqL2gUSkg2bt7hxsKPif6%2FEJB7Vzyck17%2BCjjjUUBPYyGtPdpsAcZcthqQGl14rRgRhSw%3D%3D\"}],\"group\":\"cf-nel\",\"max_age\":604800}\n1 < NEL: {\"success_fraction\":0,\"report_to\":\"cf-nel\",\"max_age\":604800}\n1 < Server: cloudflare\n1 < CF-RAY: 7a38347eab9ca895-SYD\n\n\n"},{"result":{"nanos":9375,"millis":0.009375,"status":"passed"},"step":{"line":108,"prefix":"Then","index":2,"text":"status 204"}}],"executorName":"pool-1-thread-5","line":105,"name":"Delete a User","description":"","durationMillis":576.992376,"startTime":1678080613979,"failed":false,"refId":"[7:105]","endTime":1678080614557,"exampleIndex":-1},{"sectionIndex":7,"stepResults":[{"result":{"nanos":39625,"millis":0.039625,"status":"passed"},"step":{"background":true,"line":5,"prefix":"*","index":0,"text":"url apiUrl"},"stepLog":"16:30:13.995 karate.env system property was: null \n"},{"result":{"nanos":166000,"millis":0.166,"status":"passed"},"step":{"line":112,"prefix":"*","index":0,"text":"configure retry = { count: 10, interval: 4000 }"}},{"result":{"nanos":68584,"millis":0.068584,"status":"passed"},"step":{"line":113,"prefix":"Given","index":1,"text":"params { delay: 3 }"}},{"result":{"nanos":36083,"millis":0.036083,"status":"passed"},"step":{"line":114,"prefix":"Given","index":2,"text":"path 'users'"}},{"result":{"nanos":27416,"millis":0.027416,"status":"passed"},"step":{"line":115,"prefix":"And","index":3,"text":"retry until response.support.url == \"https:\/\/reqres.in\/#support-heading\""}},{"result":{"nanos":3641034083,"millis":3641.034083,"status":"passed"},"step":{"line":116,"prefix":"When","index":4,"text":"method Get"},"stepLog":"16:30:13.997 request:\n1 > GET https:\/\/reqres.in\/api\/users?delay=3\n1 > Authorization: Token QpwL5tke4Pnpja7X4\n1 > Host: reqres.in\n1 > Connection: Keep-Alive\n1 > User-Agent: Apache-HttpClient\/4.5.13 (Java\/19.0.2)\n1 > Accept-Encoding: gzip,deflate\n\n\n16:30:17.634 response time in milliseconds: 3636\n1 < 200\n1 < Date: Mon, 06 Mar 2023 05:30:12 GMT\n1 < Content-Type: application\/json; charset=utf-8\n1 < Transfer-Encoding: chunked\n1 < Connection: keep-alive\n1 < X-Powered-By: Express\n1 < Access-Control-Allow-Origin: *\n1 < Etag: W\/\"3e4-2RLXvr5wTg9YQ6aH95CkYoFNuO8\"\n1 < Via: 1.1 vegur\n1 < CF-Cache-Status: DYNAMIC\n1 < Report-To: {\"endpoints\":[{\"url\":\"https:\\\/\\\/a.nel.cloudflare.com\\\/report\\\/v3?s=SVHTzolGTWiscrOMqy0a52N9a2L6WgI1sSTLkb4dZ5FQ6YaBTUDFB40zxkS%2Bv0BbDIiHC%2B4zEtu%2B7WRQEI53cifVDqXnKwqDtv%2B%2FImZI32CncGf6%2F%2FwCE0O5oQ%3D%3D\"}],\"group\":\"cf-nel\",\"max_age\":604800}\n1 < NEL: {\"success_fraction\":0,\"report_to\":\"cf-nel\",\"max_age\":604800}\n1 < Server: cloudflare\n1 < CF-RAY: 7a38347ecdefa8b3-SYD\n{\"page\":1,\"per_page\":6,\"total\":12,\"total_pages\":2,\"data\":[{\"id\":1,\"email\":\"george.bluth@reqres.in\",\"first_name\":\"George\",\"last_name\":\"Bluth\",\"avatar\":\"https:\/\/reqres.in\/img\/faces\/1-image.jpg\"},{\"id\":2,\"email\":\"janet.weaver@reqres.in\",\"first_name\":\"Janet\",\"last_name\":\"Weaver\",\"avatar\":\"https:\/\/reqres.in\/img\/faces\/2-image.jpg\"},{\"id\":3,\"email\":\"emma.wong@reqres.in\",\"first_name\":\"Emma\",\"last_name\":\"Wong\",\"avatar\":\"https:\/\/reqres.in\/img\/faces\/3-image.jpg\"},{\"id\":4,\"email\":\"eve.holt@reqres.in\",\"first_name\":\"Eve\",\"last_name\":\"Holt\",\"avatar\":\"https:\/\/reqres.in\/img\/faces\/4-image.jpg\"},{\"id\":5,\"email\":\"charles.morris@reqres.in\",\"first_name\":\"Charles\",\"last_name\":\"Morris\",\"avatar\":\"https:\/\/reqres.in\/img\/faces\/5-image.jpg\"},{\"id\":6,\"email\":\"tracey.ramos@reqres.in\",\"first_name\":\"Tracey\",\"last_name\":\"Ramos\",\"avatar\":\"https:\/\/reqres.in\/img\/faces\/6-image.jpg\"}],\"support\":{\"url\":\"https:\/\/reqres.in\/#support-heading\",\"text\":\"To keep ReqRes free, contributions towards server costs are appreciated!\"}}\n\n"},{"result":{"nanos":28125,"millis":0.028125,"status":"passed"},"step":{"line":117,"prefix":"Then","index":5,"text":"status 200"}}],"executorName":"pool-1-thread-3","line":111,"name":"Retry call","description":"","durationMillis":3641.399916,"startTime":1678080613995,"failed":false,"refId":"[8:111]","endTime":1678080617637,"exampleIndex":-1}],"callDepth":0,"name":"Users","description":"","resultDate":"2023-03-06 04:30:17 pm","durationMillis":6678.49742,"passedCount":8}